EESchema Schematic File Version 2
LIBS:power
LIBS:device
LIBS:transistors
LIBS:conn
LIBS:linear
LIBS:regul
LIBS:74xx
LIBS:cmos4000
LIBS:adc-dac
LIBS:memory
LIBS:xilinx
LIBS:special
LIBS:microcontrollers
LIBS:dsp
LIBS:microchip
LIBS:analog_switches
LIBS:motorola
LIBS:texas
LIBS:intel
LIBS:audio
LIBS:interface
LIBS:digital-audio
LIBS:philips
LIBS:display
LIBS:cypress
LIBS:siliconi
LIBS:opto
LIBS:atmel
LIBS:contrib
LIBS:valves
LIBS:misComponentes
LIBS:piccoloIfLab-cache
EELAYER 27 0
EELAYER END
$Descr A4 11693 8268
encoding utf-8
Sheet 1 1
Title "piccoloIfLab_tarjeta_puente"
Date "22 jun 2015"
Rev ""
Comp ""
Comment1 ""
Comment2 ""
Comment3 ""
Comment4 ""
$EndDescr
$Comp
L 74HC244 U3
U 1 1 55874006
P 7000 2150
F 0 "U3" H 7200 1550 60  0000 C CNN
F 1 "74HC244" H 6950 2750 60  0000 C CNN
F 2 "~" H 7000 2150 60  0000 C CNN
F 3 "~" H 7000 2150 60  0000 C CNN
	1    7000 2150
	1    0    0    -1  
$EndComp
$Comp
L CONN_12X2 P1
U 1 1 5587404B
P 2900 4400
F 0 "P1" H 2900 5050 60  0000 C CNN
F 1 "CONN_12X2" V 2900 4400 50  0000 C CNN
F 2 "" H 2900 4400 60  0000 C CNN
F 3 "" H 2900 4400 60  0000 C CNN
	1    2900 4400
	1    0    0    -1  
$EndComp
$Comp
L CONN_9 P2
U 1 1 55874084
P 8750 1800
F 0 "P2" V 8700 1800 60  0000 C CNN
F 1 "CONN_9" V 8800 1800 60  0000 C CNN
F 2 "" H 8750 1800 60  0000 C CNN
F 3 "" H 8750 1800 60  0000 C CNN
	1    8750 1800
	1    0    0    -1  
$EndComp
$Comp
L BARREL_JACK CON1
U 1 1 558740F5
P 1700 1300
F 0 "CON1" H 1700 1550 60  0000 C CNN
F 1 "BARREL_JACK" H 1700 1100 60  0000 C CNN
F 2 "" H 1700 1300 60  0000 C CNN
F 3 "" H 1700 1300 60  0000 C CNN
	1    1700 1300
	1    0    0    -1  
$EndComp
$Comp
L DIODE D1
U 1 1 5587412C
P 2400 1200
F 0 "D1" H 2400 1300 40  0000 C CNN
F 1 "1N4004" H 2400 1100 40  0000 C CNN
F 2 "~" H 2400 1200 60  0000 C CNN
F 3 "~" H 2400 1200 60  0000 C CNN
	1    2400 1200
	1    0    0    -1  
$EndComp
$Comp
L CAPAPOL C1
U 1 1 55874154
P 3050 1500
F 0 "C1" H 3100 1600 40  0000 L CNN
F 1 "100µ" H 3100 1400 40  0000 L CNN
F 2 "~" H 3150 1350 30  0000 C CNN
F 3 "~" H 3050 1500 300 0000 C CNN
	1    3050 1500
	1    0    0    -1  
$EndComp
$Comp
L CAPAPOL C2
U 1 1 55874163
P 4100 1500
F 0 "C2" H 4150 1600 40  0000 L CNN
F 1 "100µ" H 4150 1400 40  0000 L CNN
F 2 "~" H 4200 1350 30  0000 C CNN
F 3 "~" H 4100 1500 300 0000 C CNN
	1    4100 1500
	1    0    0    -1  
$EndComp
$Comp
L GND #PWR01
U 1 1 558741FE
P 3550 1700
F 0 "#PWR01" H 3550 1700 30  0001 C CNN
F 1 "GND" H 3550 1630 30  0001 C CNN
F 2 "" H 3550 1700 60  0000 C CNN
F 3 "" H 3550 1700 60  0000 C CNN
	1    3550 1700
	1    0    0    -1  
$EndComp
$Comp
L GND #PWR02
U 1 1 55874232
P 4100 1800
F 0 "#PWR02" H 4100 1800 30  0001 C CNN
F 1 "GND" H 4100 1730 30  0001 C CNN
F 2 "" H 4100 1800 60  0000 C CNN
F 3 "" H 4100 1800 60  0000 C CNN
	1    4100 1800
	1    0    0    -1  
$EndComp
$Comp
L GND #PWR03
U 1 1 55874241
P 3050 1800
F 0 "#PWR03" H 3050 1800 30  0001 C CNN
F 1 "GND" H 3050 1730 30  0001 C CNN
F 2 "" H 3050 1800 60  0000 C CNN
F 3 "" H 3050 1800 60  0000 C CNN
	1    3050 1800
	1    0    0    -1  
$EndComp
$Comp
L +5V #PWR04
U 1 1 558742C4
P 4150 1100
F 0 "#PWR04" H 4150 1190 20  0001 C CNN
F 1 "+5V" H 4150 1190 30  0000 C CNN
F 2 "" H 4150 1100 60  0000 C CNN
F 3 "" H 4150 1100 60  0000 C CNN
	1    4150 1100
	1    0    0    -1  
$EndComp
$Comp
L CAPAPOL C3
U 1 1 558742F1
P 3000 2500
F 0 "C3" H 3050 2600 40  0000 L CNN
F 1 "100µ" H 3050 2400 40  0000 L CNN
F 2 "~" H 3100 2350 30  0000 C CNN
F 3 "~" H 3000 2500 300 0000 C CNN
	1    3000 2500
	1    0    0    -1  
$EndComp
$Comp
L CAPAPOL C4
U 1 1 558742F7
P 4050 2500
F 0 "C4" H 4100 2600 40  0000 L CNN
F 1 "100µ" H 4100 2400 40  0000 L CNN
F 2 "~" H 4150 2350 30  0000 C CNN
F 3 "~" H 4050 2500 300 0000 C CNN
	1    4050 2500
	1    0    0    -1  
$EndComp
$Comp
L GND #PWR05
U 1 1 558742FD
P 3500 2700
F 0 "#PWR05" H 3500 2700 30  0001 C CNN
F 1 "GND" H 3500 2630 30  0001 C CNN
F 2 "" H 3500 2700 60  0000 C CNN
F 3 "" H 3500 2700 60  0000 C CNN
	1    3500 2700
	1    0    0    -1  
$EndComp
$Comp
L GND #PWR06
U 1 1 55874303
P 4050 2800
F 0 "#PWR06" H 4050 2800 30  0001 C CNN
F 1 "GND" H 4050 2730 30  0001 C CNN
F 2 "" H 4050 2800 60  0000 C CNN
F 3 "" H 4050 2800 60  0000 C CNN
	1    4050 2800
	1    0    0    -1  
$EndComp
$Comp
L GND #PWR07
U 1 1 55874309
P 3000 2800
F 0 "#PWR07" H 3000 2800 30  0001 C CNN
F 1 "GND" H 3000 2730 30  0001 C CNN
F 2 "" H 3000 2800 60  0000 C CNN
F 3 "" H 3000 2800 60  0000 C CNN
	1    3000 2800
	1    0    0    -1  
$EndComp
$Comp
L VCC #PWR08
U 1 1 55874321
P 4100 2100
F 0 "#PWR08" H 4100 2200 30  0001 C CNN
F 1 "VCC" H 4100 2200 30  0000 C CNN
F 2 "" H 4100 2100 60  0000 C CNN
F 3 "" H 4100 2100 60  0000 C CNN
	1    4100 2100
	1    0    0    -1  
$EndComp
Wire Wire Line
	4100 1300 4100 1200
Wire Wire Line
	3950 1200 4150 1200
Wire Wire Line
	3550 1500 3550 1700
Wire Wire Line
	2600 1200 3150 1200
Wire Wire Line
	3050 1200 3050 1300
Wire Wire Line
	4100 1700 4100 1800
Wire Wire Line
	3050 1700 3050 1800
Connection ~ 3050 1200
Wire Wire Line
	4150 1200 4150 1100
Connection ~ 4100 1200
Wire Wire Line
	4050 2300 4050 2200
Wire Wire Line
	3900 2200 4100 2200
Wire Wire Line
	3500 2500 3500 2700
Wire Wire Line
	3000 2200 3000 2300
Wire Wire Line
	4050 2700 4050 2800
Wire Wire Line
	3000 2700 3000 2800
Connection ~ 3000 2200
Wire Wire Line
	4100 2200 4100 2100
Connection ~ 4050 2200
Wire Wire Line
	2850 2200 3100 2200
Wire Wire Line
	2850 2200 2850 1200
Connection ~ 2850 1200
Wire Wire Line
	2200 1200 2000 1200
$Comp
L GND #PWR09
U 1 1 5587449C
P 2100 1500
F 0 "#PWR09" H 2100 1500 30  0001 C CNN
F 1 "GND" H 2100 1430 30  0001 C CNN
F 2 "" H 2100 1500 60  0000 C CNN
F 3 "" H 2100 1500 60  0000 C CNN
	1    2100 1500
	1    0    0    -1  
$EndComp
Wire Wire Line
	2100 1300 2100 1500
Wire Wire Line
	2000 1400 2100 1400
Wire Wire Line
	2000 1300 2100 1300
Connection ~ 2100 1400
$Comp
L GND #PWR010
U 1 1 55874582
P 6300 2600
F 0 "#PWR010" H 6300 2600 30  0001 C CNN
F 1 "GND" H 6300 2530 30  0001 C CNN
F 2 "" H 6300 2600 60  0000 C CNN
F 3 "" H 6300 2600 60  0000 C CNN
	1    6300 2600
	0    1    1    0   
$EndComp
Wire Wire Line
	6450 2600 6300 2600
NoConn ~ 6450 2100
NoConn ~ 6450 2200
NoConn ~ 6450 2300
NoConn ~ 6450 2400
NoConn ~ 7550 2500
NoConn ~ 7550 2400
NoConn ~ 7550 2300
NoConn ~ 7550 2200
NoConn ~ 7550 2100
NoConn ~ 7550 2000
NoConn ~ 6450 2000
$Comp
L +5V #PWR011
U 1 1 55874671
P 2400 3800
F 0 "#PWR011" H 2400 3890 20  0001 C CNN
F 1 "+5V" H 2400 3890 30  0000 C CNN
F 2 "" H 2400 3800 60  0000 C CNN
F 3 "" H 2400 3800 60  0000 C CNN
	1    2400 3800
	1    0    0    -1  
$EndComp
Wire Wire Line
	2500 3850 2400 3850
Wire Wire Line
	2400 3850 2400 3800
$Comp
L GND #PWR012
U 1 1 5587469E
P 3400 3800
F 0 "#PWR012" H 3400 3800 30  0001 C CNN
F 1 "GND" H 3400 3730 30  0001 C CNN
F 2 "" H 3400 3800 60  0000 C CNN
F 3 "" H 3400 3800 60  0000 C CNN
	1    3400 3800
	-1   0    0    1   
$EndComp
Wire Wire Line
	3400 3800 3400 3850
Wire Wire Line
	3400 3850 3300 3850
Text GLabel 3400 4950 2    60   Output ~ 0
x
Wire Wire Line
	3400 4950 3300 4950
Text GLabel 3550 4850 2    60   Output ~ 0
z
Wire Wire Line
	3550 4850 3300 4850
Text GLabel 2400 4950 0    60   Output ~ 0
y
Wire Wire Line
	2500 4950 2400 4950
Text GLabel 2300 4850 0    60   Output ~ 0
eneable
Wire Wire Line
	2500 4850 2300 4850
NoConn ~ 2500 3950
NoConn ~ 2500 4050
NoConn ~ 2500 4150
NoConn ~ 2500 4250
Text GLabel 2350 4550 0    60   Output ~ 0
TX
Wire Wire Line
	2350 4550 2500 4550
NoConn ~ 2500 4750
NoConn ~ 2500 4650
Text GLabel 3400 4650 2    60   Input ~ 0
RX
Wire Wire Line
	3400 4650 3300 4650
NoConn ~ 3300 4750
NoConn ~ 3300 4550
NoConn ~ 3300 4450
NoConn ~ 3300 4350
NoConn ~ 3300 4250
NoConn ~ 3300 4050
NoConn ~ 3300 3950
NoConn ~ 2500 4350
NoConn ~ 2500 4450
$Comp
L CONN_3 K1
U 1 1 5587498D
P 1750 4100
F 0 "K1" V 1700 4100 50  0000 C CNN
F 1 "CONN_3" V 1800 4100 40  0000 C CNN
F 2 "" H 1750 4100 60  0000 C CNN
F 3 "" H 1750 4100 60  0000 C CNN
	1    1750 4100
	1    0    0    -1  
$EndComp
$Comp
L GND #PWR013
U 1 1 55874AA8
P 1250 3950
F 0 "#PWR013" H 1250 3950 30  0001 C CNN
F 1 "GND" H 1250 3880 30  0001 C CNN
F 2 "" H 1250 3950 60  0000 C CNN
F 3 "" H 1250 3950 60  0000 C CNN
	1    1250 3950
	0    1    1    0   
$EndComp
Text GLabel 1300 4100 0    60   Input ~ 0
TX
Text GLabel 1300 4250 0    60   Input ~ 0
RX
Text GLabel 6300 1700 0    60   Input ~ 0
x
Text GLabel 6150 1800 0    60   Input ~ 0
y
Text GLabel 6300 1900 0    60   Input ~ 0
z
Wire Wire Line
	6450 1700 6300 1700
Wire Wire Line
	6450 1800 6150 1800
Wire Wire Line
	6450 1900 6300 1900
Wire Wire Line
	8400 1600 7650 1600
Wire Wire Line
	7650 1600 7650 1700
Wire Wire Line
	7650 1700 7550 1700
Wire Wire Line
	8400 1900 7750 1900
Wire Wire Line
	7750 1900 7750 1800
Wire Wire Line
	7750 1800 7550 1800
Wire Wire Line
	8400 2200 7700 2200
Wire Wire Line
	7700 2200 7700 1900
Wire Wire Line
	7700 1900 7550 1900
Wire Wire Line
	8200 1400 8400 1400
$Comp
L GND #PWR014
U 1 1 55874FC0
P 8200 1400
F 0 "#PWR014" H 8200 1400 30  0001 C CNN
F 1 "GND" H 8200 1330 30  0001 C CNN
F 2 "" H 8200 1400 60  0000 C CNN
F 3 "" H 8200 1400 60  0000 C CNN
	1    8200 1400
	0    1    1    0   
$EndComp
$Comp
L GND #PWR015
U 1 1 5587503F
P 8200 1700
F 0 "#PWR015" H 8200 1700 30  0001 C CNN
F 1 "GND" H 8200 1630 30  0001 C CNN
F 2 "" H 8200 1700 60  0000 C CNN
F 3 "" H 8200 1700 60  0000 C CNN
	1    8200 1700
	0    1    1    0   
$EndComp
$Comp
L GND #PWR016
U 1 1 5587504E
P 8200 2000
F 0 "#PWR016" H 8200 2000 30  0001 C CNN
F 1 "GND" H 8200 1930 30  0001 C CNN
F 2 "" H 8200 2000 60  0000 C CNN
F 3 "" H 8200 2000 60  0000 C CNN
	1    8200 2000
	0    1    1    0   
$EndComp
Wire Wire Line
	8400 1700 8200 1700
Wire Wire Line
	8400 2000 8200 2000
$Comp
L VCC #PWR017
U 1 1 558750CE
P 8100 1500
F 0 "#PWR017" H 8100 1600 30  0001 C CNN
F 1 "VCC" H 8100 1600 30  0000 C CNN
F 2 "" H 8100 1500 60  0000 C CNN
F 3 "" H 8100 1500 60  0000 C CNN
	1    8100 1500
	0    -1   -1   0   
$EndComp
$Comp
L VCC #PWR018
U 1 1 558750DD
P 8100 1800
F 0 "#PWR018" H 8100 1900 30  0001 C CNN
F 1 "VCC" H 8100 1900 30  0000 C CNN
F 2 "" H 8100 1800 60  0000 C CNN
F 3 "" H 8100 1800 60  0000 C CNN
	1    8100 1800
	0    -1   -1   0   
$EndComp
$Comp
L VCC #PWR019
U 1 1 558750EC
P 8100 2100
F 0 "#PWR019" H 8100 2200 30  0001 C CNN
F 1 "VCC" H 8100 2200 30  0000 C CNN
F 2 "" H 8100 2100 60  0000 C CNN
F 3 "" H 8100 2100 60  0000 C CNN
	1    8100 2100
	0    -1   -1   0   
$EndComp
Wire Wire Line
	8400 2100 8100 2100
Wire Wire Line
	8400 1800 8100 1800
Wire Wire Line
	8400 1500 8100 1500
$Comp
L VCC #PWR020
U 1 1 558751C2
P 7650 2600
F 0 "#PWR020" H 7650 2700 30  0001 C CNN
F 1 "VCC" H 7650 2700 30  0000 C CNN
F 2 "" H 7650 2600 60  0000 C CNN
F 3 "" H 7650 2600 60  0000 C CNN
	1    7650 2600
	0    1    1    0   
$EndComp
Wire Wire Line
	7650 2600 7550 2600
Text GLabel 6250 2500 0    60   Input ~ 0
eneable
Wire Wire Line
	6450 2500 6250 2500
$Comp
L LED D2
U 1 1 5587524E
P 4650 1500
F 0 "D2" H 4650 1600 50  0000 C CNN
F 1 "LED" H 4650 1400 50  0000 C CNN
F 2 "~" H 4650 1500 60  0000 C CNN
F 3 "~" H 4650 1500 60  0000 C CNN
	1    4650 1500
	0    1    1    0   
$EndComp
$Comp
L LED D3
U 1 1 5587525D
P 10900 1650
F 0 "D3" H 10900 1750 50  0000 C CNN
F 1 "LED" H 10900 1550 50  0000 C CNN
F 2 "~" H 10900 1650 60  0000 C CNN
F 3 "~" H 10900 1650 60  0000 C CNN
	1    10900 1650
	0    1    1    0   
$EndComp
$Comp
L R R1
U 1 1 5587526C
P 4650 2150
F 0 "R1" V 4730 2150 40  0000 C CNN
F 1 "1k" V 4657 2151 40  0000 C CNN
F 2 "~" V 4580 2150 30  0000 C CNN
F 3 "~" H 4650 2150 30  0000 C CNN
	1    4650 2150
	1    0    0    -1  
$EndComp
$Comp
L R R2
U 1 1 5587527B
P 10900 2200
F 0 "R2" V 10980 2200 40  0000 C CNN
F 1 "1k" V 10907 2201 40  0000 C CNN
F 2 "~" V 10830 2200 30  0000 C CNN
F 3 "~" H 10900 2200 30  0000 C CNN
	1    10900 2200
	1    0    0    -1  
$EndComp
$Comp
L GND #PWR021
U 1 1 5587528A
P 4650 2550
F 0 "#PWR021" H 4650 2550 30  0001 C CNN
F 1 "GND" H 4650 2480 30  0001 C CNN
F 2 "" H 4650 2550 60  0000 C CNN
F 3 "" H 4650 2550 60  0000 C CNN
	1    4650 2550
	1    0    0    -1  
$EndComp
$Comp
L GND #PWR022
U 1 1 55875299
P 10900 2550
F 0 "#PWR022" H 10900 2550 30  0001 C CNN
F 1 "GND" H 10900 2480 30  0001 C CNN
F 2 "" H 10900 2550 60  0000 C CNN
F 3 "" H 10900 2550 60  0000 C CNN
	1    10900 2550
	1    0    0    -1  
$EndComp
$Comp
L VCC #PWR023
U 1 1 558752A8
P 4650 1200
F 0 "#PWR023" H 4650 1300 30  0001 C CNN
F 1 "VCC" H 4650 1300 30  0000 C CNN
F 2 "" H 4650 1200 60  0000 C CNN
F 3 "" H 4650 1200 60  0000 C CNN
	1    4650 1200
	1    0    0    -1  
$EndComp
$Comp
L +5V #PWR024
U 1 1 558752B7
P 10900 850
F 0 "#PWR024" H 10900 940 20  0001 C CNN
F 1 "+5V" H 10900 940 30  0000 C CNN
F 2 "" H 10900 850 60  0000 C CNN
F 3 "" H 10900 850 60  0000 C CNN
	1    10900 850 
	1    0    0    -1  
$EndComp
Wire Wire Line
	4650 1200 4650 1300
Wire Wire Line
	4650 1700 4650 1900
Wire Wire Line
	4650 2400 4650 2550
NoConn ~ 3300 4150
Text Notes 8800 1150 2    60   ~ 0
Salidas a\nServomotores
Text Notes 1800 3850 2    60   ~ 0
uart sam3n
Text Notes 3100 3600 2    60   ~ 0
Conector IfLab
Text Notes 3000 900  2    60   ~ 0
Fuente de Alimentación
Text Notes 1250 1150 2    60   ~ 0
12v
Wire Notes Line
	650  650  5400 650 
Wire Notes Line
	5400 650  5400 3300
Wire Notes Line
	5400 3300 650  3300
Wire Notes Line
	650  3300 650  650 
Wire Wire Line
	1400 4000 1350 4000
Wire Wire Line
	1350 4000 1350 3950
Wire Wire Line
	1350 3950 1250 3950
Wire Wire Line
	1400 4100 1300 4100
Wire Wire Line
	1400 4200 1350 4200
Wire Wire Line
	1350 4200 1350 4250
Wire Wire Line
	1350 4250 1300 4250
$Comp
L 78L05 U2
U 1 1 558763CD
P 3500 2250
F 0 "U2" H 3650 2054 60  0000 C CNN
F 1 "78L05" H 3500 2450 60  0000 C CNN
F 2 "" H 3500 2250 60  0000 C CNN
F 3 "" H 3500 2250 60  0000 C CNN
	1    3500 2250
	1    0    0    -1  
$EndComp
$Comp
L 78L05 U1
U 1 1 5587667A
P 3550 1250
F 0 "U1" H 3700 1054 60  0000 C CNN
F 1 "78L05" H 3550 1450 60  0000 C CNN
F 2 "" H 3550 1250 60  0000 C CNN
F 3 "" H 3550 1250 60  0000 C CNN
	1    3550 1250
	1    0    0    -1  
$EndComp
$Comp
L PNP Q1
U 1 1 558817FD
P 10800 1150
F 0 "Q1" H 10800 1000 60  0000 R CNN
F 1 "2n3906" H 10800 1300 60  0000 R CNN
F 2 "~" H 10800 1150 60  0000 C CNN
F 3 "~" H 10800 1150 60  0000 C CNN
	1    10800 1150
	1    0    0    1   
$EndComp
Wire Wire Line
	10900 850  10900 950 
Wire Wire Line
	10900 1350 10900 1450
Wire Wire Line
	10900 1850 10900 1950
Wire Wire Line
	10900 2450 10900 2550
Text GLabel 9900 1150 0    60   Input ~ 0
eneable
$Comp
L R R3
U 1 1 55881A53
P 10250 1150
F 0 "R3" V 10330 1150 40  0000 C CNN
F 1 "10k" V 10257 1151 40  0000 C CNN
F 2 "~" V 10180 1150 30  0000 C CNN
F 3 "~" H 10250 1150 30  0000 C CNN
	1    10250 1150
	0    -1   -1   0   
$EndComp
Wire Wire Line
	10600 1150 10500 1150
Wire Wire Line
	10000 1150 9900 1150
$EndSCHEMATC
