%!PS-Adobe-3.0
%%Creator: PCBNEW
%%CreationDate: Mon Jun 22 11:02:59 2015
%%Title: /home/johnny/un/Sistemas_Embebidos/piccolo-Iflab/PCB/piccoloIfLab-B_Cu.ps
%%Pages: 1
%%PageOrder: Ascend
%%BoundingBox: 0 0 842 1191
%%DocumentMedia: A3 842 1191 0 () ()
%%Orientation: Landscape
%%EndComments
%%BeginProlog
/line { newpath moveto lineto stroke } bind def
/cir0 { newpath 0 360 arc stroke } bind def
/cir1 { newpath 0 360 arc gsave fill grestore stroke } bind def
/cir2 { newpath 0 360 arc gsave fill grestore stroke } bind def
/arc0 { newpath arc stroke } bind def
/arc1 { newpath 4 index 4 index moveto arc closepath gsave fill
    grestore stroke } bind def
/arc2 { newpath 4 index 4 index moveto arc closepath gsave fill
    grestore stroke } bind def
/poly0 { stroke } bind def
/poly1 { closepath gsave fill grestore stroke } bind def
/poly2 { closepath gsave fill grestore stroke } bind def
/rect0 { rectstroke } bind def
/rect1 { rectfill } bind def
/rect2 { rectfill } bind def
/linemode0 { 0 setlinecap 0 setlinejoin 0 setlinewidth } bind def
/linemode1 { 1 setlinecap 1 setlinejoin } bind def
/dashedline { [200] 100 setdash } bind def
/solidline { [] 0 setdash } bind def
/phantomshow { moveto
    /KicadFont findfont 0.000001 scalefont setfont
    show } bind def
/textshow { gsave
    findfont exch scalefont setfont concat 1 scale 0 0 moveto show
    } bind def
/reencodefont {
  findfont dup length dict begin
  { 1 index /FID ne
    { def }
    { pop pop } ifelse
  } forall
  /Encoding ISOLatin1Encoding def
  currentdict
  end } bind def
/KicadFont /Helvetica reencodefont definefont pop
/KicadFont-Bold /Helvetica-Bold reencodefont definefont pop
/KicadFont-Oblique /Helvetica-Oblique reencodefont definefont pop
/KicadFont-BoldOblique /Helvetica-BoldOblique reencodefont definefont pop
%%EndProlog
%%Page: 1 1
%%BeginPageSetup
gsave
0.0072 0.0072 scale
linemode1
116930 0 translate 90 rotate
59.0551 setlinewidth
%%EndPageSetup
0 0 0 setrgbcolor
0 0 0 setrgbcolor
59.0551 setlinewidth
newpath
24245.5 102185 moveto
23754.5 102185 lineto
23754.5 102675 lineto
24245.5 102675 lineto
24245.5 102185 lineto
poly1
0 0 0 setrgbcolor
24000 101430 245.472 cir1
0 0 0 setrgbcolor
25000 101430 245.472 cir1
0 0 0 setrgbcolor
newpath
12754.5 106685 moveto
12754.5 107175 lineto
13245.5 107175 lineto
13245.5 106685 lineto
12754.5 106685 lineto
poly1
0 0 0 setrgbcolor
14000 106930 245.472 cir1
0 0 0 setrgbcolor
15000 106930 245.472 cir1
0 0 0 setrgbcolor
16000 106930 245.472 cir1
0 0 0 setrgbcolor
17000 106930 245.472 cir1
0 0 0 setrgbcolor
18000 106930 245.472 cir1
0 0 0 setrgbcolor
19000 106930 245.472 cir1
0 0 0 setrgbcolor
20000 106930 245.472 cir1
0 0 0 setrgbcolor
21000 106930 245.472 cir1
0 0 0 setrgbcolor
24000 96930 245.472 cir1
0 0 0 setrgbcolor
24000 99930 245.472 cir1
0 0 0 setrgbcolor
22000 92930 245.472 cir1
0 0 0 setrgbcolor
22000 95930 245.472 cir1
0 0 0 setrgbcolor
22500 99930 245.472 cir1
0 0 0 setrgbcolor
22500 96930 245.472 cir1
0 0 0 setrgbcolor
newpath
10229.5 99200.5 moveto
10770.5 99200.5 lineto
10770.5 98659.5 lineto
10229.5 98659.5 lineto
10229.5 99200.5 lineto
poly1
0 0 0 setrgbcolor
10500 97930 270.472 cir1
0 0 0 setrgbcolor
10500 96930 270.472 cir1
0 0 0 setrgbcolor
newpath
11729.5 105200 moveto
12270.5 105200 lineto
12270.5 104660 lineto
11729.5 104660 lineto
11729.5 105200 lineto
poly1
0 0 0 setrgbcolor
13000 104930 270.472 cir1
0 0 0 setrgbcolor
12000 103930 270.472 cir1
0 0 0 setrgbcolor
13000 103930 270.472 cir1
0 0 0 setrgbcolor
12000 102930 270.472 cir1
0 0 0 setrgbcolor
13000 102930 270.472 cir1
0 0 0 setrgbcolor
12000 101930 270.472 cir1
0 0 0 setrgbcolor
13000 101930 270.472 cir1
0 0 0 setrgbcolor
12000 100930 270.472 cir1
0 0 0 setrgbcolor
13000 100930 270.472 cir1
0 0 0 setrgbcolor
12000 99930 270.472 cir1
0 0 0 setrgbcolor
13000 99930 270.472 cir1
0 0 0 setrgbcolor
12000 98930 270.472 cir1
0 0 0 setrgbcolor
13000 98930 270.472 cir1
0 0 0 setrgbcolor
12000 97930 270.472 cir1
0 0 0 setrgbcolor
13000 97930 270.472 cir1
0 0 0 setrgbcolor
12000 96930 270.472 cir1
0 0 0 setrgbcolor
13000 96930 270.472 cir1
0 0 0 setrgbcolor
12000 95930 270.472 cir1
0 0 0 setrgbcolor
13000 95930 270.472 cir1
0 0 0 setrgbcolor
12000 94930 270.472 cir1
0 0 0 setrgbcolor
13000 94930 270.472 cir1
0 0 0 setrgbcolor
12000 93930 270.472 cir1
0 0 0 setrgbcolor
13000 93930 270.472 cir1
0 0 0 setrgbcolor
29500 104430 320.472 cir1
0 0 0 setrgbcolor
newpath
29179.5 103110 moveto
29179.5 103750 lineto
29820.5 103750 lineto
29820.5 103110 lineto
29179.5 103110 lineto
poly1
0 0 0 setrgbcolor
29500 102430 320.472 cir1
0 0 0 setrgbcolor
29500 99930 320.472 cir1
0 0 0 setrgbcolor
newpath
29179.5 98609.5 moveto
29179.5 99250.5 lineto
29820.5 99250.5 lineto
29820.5 98609.5 lineto
29179.5 98609.5 lineto
poly1
0 0 0 setrgbcolor
29500 97930 320.472 cir1
0 0 0 setrgbcolor
23500 103430 300.472 cir1
0 0 0 setrgbcolor
22500 103430 300.472 cir1
0 0 0 setrgbcolor
24000 92930 300.472 cir1
0 0 0 setrgbcolor
23000 92930 300.472 cir1
0 0 0 setrgbcolor
30000 92930 915.472 cir1
0 0 0 setrgbcolor
newpath
28515.5 93845.5 moveto
28515.5 92014.5 lineto
26684.5 92014.5 lineto
26684.5 93845.5 lineto
28515.5 93845.5 lineto
poly1
0 0 0 setrgbcolor
29100 94930 915.472 cir1
0 0 0 setrgbcolor
newpath
15579.5 103710 moveto
16420.5 103710 lineto
16420.5 103150 lineto
15579.5 103150 lineto
15579.5 103710 lineto
poly1
0 0 0 setrgbcolor
620 setlinewidth
newpath
16140 102430 moveto
15860 102430 lineto
stroke
0 0 0 setrgbcolor
newpath
16140 101430 moveto
15860 101430 lineto
stroke
0 0 0 setrgbcolor
newpath
16140 100430 moveto
15860 100430 lineto
stroke
0 0 0 setrgbcolor
newpath
16140 99430 moveto
15860 99430 lineto
stroke
0 0 0 setrgbcolor
newpath
16140 98430 moveto
15860 98430 lineto
stroke
0 0 0 setrgbcolor
newpath
16140 97430 moveto
15860 97430 lineto
stroke
0 0 0 setrgbcolor
newpath
16140 96430 moveto
15860 96430 lineto
stroke
0 0 0 setrgbcolor
newpath
16140 95430 moveto
15860 95430 lineto
stroke
0 0 0 setrgbcolor
newpath
16140 94430 moveto
15860 94430 lineto
stroke
0 0 0 setrgbcolor
newpath
19140 94430 moveto
18860 94430 lineto
stroke
0 0 0 setrgbcolor
newpath
19140 95430 moveto
18860 95430 lineto
stroke
0 0 0 setrgbcolor
newpath
19140 96430 moveto
18860 96430 lineto
stroke
0 0 0 setrgbcolor
newpath
19140 97430 moveto
18860 97430 lineto
stroke
0 0 0 setrgbcolor
newpath
19140 98430 moveto
18860 98430 lineto
stroke
0 0 0 setrgbcolor
newpath
19140 99430 moveto
18860 99430 lineto
stroke
0 0 0 setrgbcolor
newpath
19140 100430 moveto
18860 100430 lineto
stroke
0 0 0 setrgbcolor
newpath
19140 101430 moveto
18860 101430 lineto
stroke
0 0 0 setrgbcolor
newpath
19140 102430 moveto
18860 102430 lineto
stroke
0 0 0 setrgbcolor
newpath
19140 103430 moveto
18860 103430 lineto
stroke
0 0 0 setrgbcolor
59.0551 setlinewidth
25000 92930 320.472 cir1
0 0 0 setrgbcolor
newpath
25320.5 97609.5 moveto
24679.5 97609.5 lineto
24679.5 98250.5 lineto
25320.5 98250.5 lineto
25320.5 97609.5 lineto
poly1
0 0 0 setrgbcolor
newpath
26229.5 100160 moveto
26229.5 100700 lineto
26770.5 100700 lineto
26770.5 100160 lineto
26229.5 100160 lineto
poly1
0 0 0 setrgbcolor
27500 100430 270.472 cir1
0 0 0 setrgbcolor
newpath
25270.5 105700 moveto
25270.5 105160 lineto
24729.5 105160 lineto
24729.5 105700 lineto
25270.5 105700 lineto
poly1
0 0 0 setrgbcolor
24000 105430 270.472 cir1
0 0 0 setrgbcolor
newpath
27270.5 104660 moveto
26729.5 104660 lineto
26729.5 105200 lineto
27270.5 105200 lineto
27270.5 104660 lineto
poly1
0 0 0 setrgbcolor
27000 105930 270.472 cir1
0 0 0 setrgbcolor
newpath
26229.5 97159.5 moveto
26229.5 97700.5 lineto
26770.5 97700.5 lineto
26770.5 97159.5 lineto
26229.5 97159.5 lineto
poly1
0 0 0 setrgbcolor
27500 97430 270.472 cir1
0 0 0 setrgbcolor
16000 105930 147.638 cir1
0 0 0 setrgbcolor
19000 105930 147.638 cir1
0 0 0 setrgbcolor
13500 96930 147.638 cir1
0 0 0 setrgbcolor
15000 103430 147.638 cir1
0 0 0 setrgbcolor
15000 99430 147.638 cir1
0 0 0 setrgbcolor
15000 97430 147.638 cir1
0 0 0 setrgbcolor
14000 93930 147.638 cir1
0 0 0 setrgbcolor
14500 92930 147.638 cir1
0 0 0 setrgbcolor
15500 98430 147.638 cir1
0 0 0 setrgbcolor
196.85 setlinewidth
newpath
26500 100430 moveto
26500 99930 lineto
stroke
0 0 0 setrgbcolor
newpath
28500 97930 moveto
29500 97930 lineto
stroke
0 0 0 setrgbcolor
newpath
26500 99930 moveto
28500 97930 lineto
stroke
0 0 0 setrgbcolor
newpath
26500 100430 moveto
26500 100930 lineto
stroke
0 0 0 setrgbcolor
newpath
25000 102430 moveto
24000 102430 lineto
stroke
0 0 0 setrgbcolor
newpath
26500 100930 moveto
25000 102430 lineto
stroke
0 0 0 setrgbcolor
newpath
10000 98930 moveto
10000 92430 lineto
stroke
0 0 0 setrgbcolor
newpath
10000 92430 moveto
16000 92430 lineto
stroke
0 0 0 setrgbcolor
newpath
29100 94930 moveto
29100 95830 lineto
stroke
0 0 0 setrgbcolor
newpath
29100 95830 moveto
27500 97430 lineto
stroke
0 0 0 setrgbcolor
newpath
31000 98930 moveto
31000 94930 lineto
stroke
0 0 0 setrgbcolor
newpath
31000 94930 moveto
29100 94930 lineto
stroke
0 0 0 setrgbcolor
newpath
13000 106930 moveto
13000 108430 lineto
stroke
0 0 0 setrgbcolor
newpath
31000 98930 moveto
29500 98930 lineto
stroke
0 0 0 setrgbcolor
newpath
31000 108430 moveto
31000 98930 lineto
stroke
0 0 0 setrgbcolor
newpath
13000 108430 moveto
31000 108430 lineto
stroke
0 0 0 setrgbcolor
newpath
24000 105430 moveto
25500 103930 lineto
stroke
0 0 0 setrgbcolor
newpath
27000 103430 moveto
27500 102930 lineto
stroke
0 0 0 setrgbcolor
newpath
26000 103430 moveto
27000 103430 lineto
stroke
0 0 0 setrgbcolor
newpath
25500 103930 moveto
26000 103430 lineto
stroke
0 0 0 setrgbcolor
newpath
27500 100430 moveto
28500 99430 lineto
stroke
0 0 0 setrgbcolor
newpath
28500 99430 moveto
28500 98930 lineto
stroke
0 0 0 setrgbcolor
newpath
28500 98930 moveto
29500 98930 lineto
stroke
0 0 0 setrgbcolor
newpath
29500 103430 moveto
28000 103430 lineto
stroke
0 0 0 setrgbcolor
newpath
28000 103430 moveto
27500 102930 lineto
stroke
0 0 0 setrgbcolor
newpath
27500 102930 moveto
27500 100430 lineto
stroke
0 0 0 setrgbcolor
newpath
27000 105930 moveto
26500 106430 lineto
stroke
0 0 0 setrgbcolor
newpath
24000 106430 moveto
24000 105430 lineto
stroke
0 0 0 setrgbcolor
newpath
26500 106430 moveto
24000 106430 lineto
stroke
0 0 0 setrgbcolor
newpath
19000 106930 moveto
19000 105930 lineto
stroke
0 0 0 setrgbcolor
newpath
16000 105930 moveto
16000 106930 lineto
stroke
0 0 0 setrgbcolor
newpath
16000 94430 moveto
16000 92430 lineto
stroke
0 0 0 setrgbcolor
newpath
20500 94430 moveto
22000 95930 lineto
stroke
0 0 0 setrgbcolor
newpath
16000 92430 moveto
20500 92430 lineto
stroke
0 0 0 setrgbcolor
newpath
20500 92430 moveto
20500 94430 lineto
stroke
0 0 0 setrgbcolor
newpath
22000 95930 moveto
22000 96430 lineto
stroke
0 0 0 setrgbcolor
newpath
22000 96430 moveto
22500 96930 lineto
stroke
0 0 0 setrgbcolor
newpath
13000 106930 moveto
11000 106930 lineto
stroke
0 0 0 setrgbcolor
newpath
10000 98930 moveto
10500 98930 lineto
stroke
0 0 0 setrgbcolor
newpath
10000 106930 moveto
10000 98930 lineto
stroke
0 0 0 setrgbcolor
newpath
11000 106930 moveto
10000 106930 lineto
stroke
0 0 0 setrgbcolor
newpath
30000 92930 moveto
30000 94030 lineto
stroke
0 0 0 setrgbcolor
newpath
30000 94030 moveto
29100 94930 lineto
stroke
0 0 0 setrgbcolor
newpath
15000 106930 moveto
15000 105930 lineto
stroke
0 0 0 setrgbcolor
newpath
20000 101430 moveto
19000 101430 lineto
stroke
0 0 0 setrgbcolor
newpath
20000 104930 moveto
20000 101430 lineto
stroke
0 0 0 setrgbcolor
newpath
18000 104930 moveto
20000 104930 lineto
stroke
0 0 0 setrgbcolor
newpath
17500 105430 moveto
18000 104930 lineto
stroke
0 0 0 setrgbcolor
newpath
15500 105430 moveto
17500 105430 lineto
stroke
0 0 0 setrgbcolor
newpath
15000 105930 moveto
15500 105430 lineto
stroke
0 0 0 setrgbcolor
newpath
18000 106930 moveto
18000 105930 lineto
stroke
0 0 0 setrgbcolor
newpath
20500 99430 moveto
19000 99430 lineto
stroke
0 0 0 setrgbcolor
newpath
20500 105430 moveto
20500 99430 lineto
stroke
0 0 0 setrgbcolor
newpath
18500 105430 moveto
20500 105430 lineto
stroke
0 0 0 setrgbcolor
newpath
18000 105930 moveto
18500 105430 lineto
stroke
0 0 0 setrgbcolor
newpath
19000 97430 moveto
20000 97430 lineto
stroke
0 0 0 setrgbcolor
newpath
21000 97430 moveto
21000 106930 lineto
stroke
0 0 0 setrgbcolor
newpath
20000 97430 moveto
21000 97430 lineto
stroke
0 0 0 setrgbcolor
newpath
22500 99930 moveto
22500 103430 lineto
stroke
0 0 0 setrgbcolor
newpath
25000 101430 moveto
25000 99430 lineto
stroke
0 0 0 setrgbcolor
newpath
24000 93930 moveto
24000 92930 lineto
stroke
0 0 0 setrgbcolor
newpath
23500 94430 moveto
24000 93930 lineto
stroke
0 0 0 setrgbcolor
newpath
23500 98430 moveto
23500 94430 lineto
stroke
0 0 0 setrgbcolor
newpath
24000 98430 moveto
23500 98430 lineto
stroke
0 0 0 setrgbcolor
newpath
25000 99430 moveto
24000 98430 lineto
stroke
0 0 0 setrgbcolor
newpath
22000 92930 moveto
23000 92930 lineto
stroke
0 0 0 setrgbcolor
newpath
24000 99930 moveto
24000 101930 lineto
stroke
0 0 0 setrgbcolor
newpath
24000 101930 moveto
24000 101430 lineto
stroke
0 0 0 setrgbcolor
newpath
27600 92930 moveto
25000 92930 lineto
stroke
0 0 0 setrgbcolor
newpath
25000 97930 moveto
26000 97930 lineto
stroke
0 0 0 setrgbcolor
newpath
26000 97930 moveto
26500 97430 lineto
stroke
0 0 0 setrgbcolor
newpath
25000 105430 moveto
26500 103930 lineto
stroke
0 0 0 setrgbcolor
newpath
28500 104430 moveto
29500 104430 lineto
stroke
0 0 0 setrgbcolor
newpath
28000 103930 moveto
28500 104430 lineto
stroke
0 0 0 setrgbcolor
newpath
26500 103930 moveto
28000 103930 lineto
stroke
0 0 0 setrgbcolor
newpath
10500 92930 moveto
10500 96930 lineto
stroke
0 0 0 setrgbcolor
newpath
13500 92930 moveto
10500 92930 lineto
stroke
0 0 0 setrgbcolor
newpath
13500 96930 moveto
13500 92930 lineto
stroke
0 0 0 setrgbcolor
newpath
23000 106930 moveto
23000 107930 lineto
stroke
0 0 0 setrgbcolor
newpath
19000 103430 moveto
19000 103930 lineto
stroke
0 0 0 setrgbcolor
newpath
14000 105930 moveto
14000 106930 lineto
stroke
0 0 0 setrgbcolor
newpath
14500 105430 moveto
14000 105930 lineto
stroke
0 0 0 setrgbcolor
newpath
15000 104930 moveto
14500 105430 lineto
stroke
0 0 0 setrgbcolor
newpath
17000 104930 moveto
15000 104930 lineto
stroke
0 0 0 setrgbcolor
newpath
17500 104430 moveto
17000 104930 lineto
stroke
0 0 0 setrgbcolor
newpath
18500 104430 moveto
17500 104430 lineto
stroke
0 0 0 setrgbcolor
newpath
19000 103930 moveto
18500 104430 lineto
stroke
0 0 0 setrgbcolor
newpath
27000 104930 moveto
28000 104930 lineto
stroke
0 0 0 setrgbcolor
newpath
23500 103930 moveto
23500 103430 lineto
stroke
0 0 0 setrgbcolor
newpath
22500 104930 moveto
23500 103930 lineto
stroke
0 0 0 setrgbcolor
newpath
22500 106430 moveto
22500 104930 lineto
stroke
0 0 0 setrgbcolor
newpath
23000 106930 moveto
22500 106430 lineto
stroke
0 0 0 setrgbcolor
newpath
28000 106930 moveto
23000 106930 lineto
stroke
0 0 0 setrgbcolor
newpath
28000 104930 moveto
28000 106930 lineto
stroke
0 0 0 setrgbcolor
newpath
17000 107930 moveto
14000 107930 lineto
stroke
0 0 0 setrgbcolor
newpath
14000 107930 moveto
14000 106930 lineto
stroke
0 0 0 setrgbcolor
newpath
20000 107930 moveto
17000 107930 lineto
stroke
0 0 0 setrgbcolor
newpath
17000 107930 moveto
17000 106930 lineto
stroke
0 0 0 setrgbcolor
newpath
29500 102430 moveto
30500 102430 lineto
stroke
0 0 0 setrgbcolor
newpath
30000 107930 moveto
23000 107930 lineto
stroke
0 0 0 setrgbcolor
newpath
30500 107430 moveto
30000 107930 lineto
stroke
0 0 0 setrgbcolor
newpath
30500 102430 moveto
30500 107430 lineto
stroke
0 0 0 setrgbcolor
newpath
20000 107930 moveto
20000 106930 lineto
stroke
0 0 0 setrgbcolor
newpath
23000 107930 moveto
20000 107930 lineto
stroke
0 0 0 setrgbcolor
newpath
15000 103430 moveto
16000 103430 lineto
stroke
0 0 0 setrgbcolor
newpath
15000 97430 moveto
15000 99430 lineto
stroke
0 0 0 setrgbcolor
newpath
14000 102430 moveto
16000 102430 lineto
stroke
0 0 0 setrgbcolor
newpath
14000 93930 moveto
14000 102430 lineto
stroke
0 0 0 setrgbcolor
newpath
14500 100430 moveto
16000 100430 lineto
stroke
0 0 0 setrgbcolor
newpath
14500 92930 moveto
14500 100430 lineto
stroke
0 0 0 setrgbcolor
newpath
15500 98430 moveto
16000 98430 lineto
stroke
0 0 0 setrgbcolor
59.0551 setlinewidth
newpath
18158.8 105278 moveto
18144.3 105278 lineto
17746.4 105676 lineto
17633.3 105752 lineto
17611.2 105756 lineto
17500 105778 lineto
17500 105778 lineto
16297.1 105778 lineto
16297.1 106562 lineto
16000 106859 lineto
15702.9 106562 lineto
15727.2 106469 lineto
15924.2 106400 lineto
16132.8 106411 lineto
16272.8 106469 lineto
16297.1 106562 lineto
16297.1 105778 lineto
15644.3 105778 lineto
15348.4 106074 lineto
15348.4 106536 lineto
15444.8 106632 lineto
15497.4 106759 lineto
15539.4 106657 lineto
15632.2 106633 lineto
15929.3 106930 lineto
15632.2 107227 lineto
15539.4 107203 lineto
15500.8 107093 lineto
15445.3 107227 lineto
15297.8 107375 lineto
15104.9 107455 lineto
14896 107455 lineto
14703 107375 lineto
14555.2 107228 lineto
14500 107095 lineto
14445.3 107227 lineto
14348.4 107324 lineto
14348.4 107582 lineto
16651.6 107582 lineto
16651.6 107324 lineto
16555.2 107228 lineto
16502.6 107101 lineto
16460.6 107203 lineto
16367.8 107227 lineto
16297.1 107156 lineto
16297.1 107298 lineto
16272.8 107391 lineto
16075.8 107460 lineto
15867.2 107449 lineto
15727.2 107391 lineto
15702.9 107298 lineto
16000 107001 lineto
16297.1 107298 lineto
16297.1 107156 lineto
16070.7 106930 lineto
16367.8 106633 lineto
16460.6 106657 lineto
16499.2 106767 lineto
16554.7 106633 lineto
16702.2 106485 lineto
16895.1 106405 lineto
17104 106405 lineto
17297 106485 lineto
17444.8 106632 lineto
17500 106765 lineto
17554.7 106633 lineto
17651.6 106536 lineto
17651.6 105930 lineto
17651.6 105930 lineto
17673.7 105819 lineto
17678.1 105797 lineto
17753.6 105684 lineto
18158.8 105278 lineto
poly1
100 setlinewidth
newpath
18158.8 105278 moveto
18144.3 105278 lineto
17746.4 105676 lineto
17633.3 105752 lineto
17611.2 105756 lineto
17500 105778 lineto
17500 105778 lineto
16297.1 105778 lineto
16297.1 106562 lineto
16000 106859 lineto
15702.9 106562 lineto
15727.2 106469 lineto
15924.2 106400 lineto
16132.8 106411 lineto
16272.8 106469 lineto
16297.1 106562 lineto
16297.1 105778 lineto
15644.3 105778 lineto
15348.4 106074 lineto
15348.4 106536 lineto
15444.8 106632 lineto
15497.4 106759 lineto
15539.4 106657 lineto
15632.2 106633 lineto
15929.3 106930 lineto
15632.2 107227 lineto
15539.4 107203 lineto
15500.8 107093 lineto
15445.3 107227 lineto
15297.8 107375 lineto
15104.9 107455 lineto
14896 107455 lineto
14703 107375 lineto
14555.2 107228 lineto
14500 107095 lineto
14445.3 107227 lineto
14348.4 107324 lineto
14348.4 107582 lineto
16651.6 107582 lineto
16651.6 107324 lineto
16555.2 107228 lineto
16502.6 107101 lineto
16460.6 107203 lineto
16367.8 107227 lineto
16297.1 107156 lineto
16297.1 107298 lineto
16272.8 107391 lineto
16075.8 107460 lineto
15867.2 107449 lineto
15727.2 107391 lineto
15702.9 107298 lineto
16000 107001 lineto
16297.1 107298 lineto
16297.1 107156 lineto
16070.7 106930 lineto
16367.8 106633 lineto
16460.6 106657 lineto
16499.2 106767 lineto
16554.7 106633 lineto
16702.2 106485 lineto
16895.1 106405 lineto
17104 106405 lineto
17297 106485 lineto
17444.8 106632 lineto
17500 106765 lineto
17554.7 106633 lineto
17651.6 106536 lineto
17651.6 105930 lineto
17651.6 105930 lineto
17673.7 105819 lineto
17678.1 105797 lineto
17753.6 105684 lineto
18158.8 105278 lineto
poly0
59.0551 setlinewidth
newpath
20651.6 105740 moveto
20633.3 105752 lineto
20500 105778 lineto
19297.1 105778 lineto
19297.1 106562 lineto
19000 106859 lineto
18702.9 106562 lineto
18727.2 106469 lineto
18924.2 106400 lineto
19132.8 106411 lineto
19272.8 106469 lineto
19297.1 106562 lineto
19297.1 105778 lineto
18644.3 105778 lineto
18348.4 106074 lineto
18348.4 106536 lineto
18444.8 106632 lineto
18497.4 106759 lineto
18539.4 106657 lineto
18632.2 106633 lineto
18929.3 106930 lineto
18632.2 107227 lineto
18539.4 107203 lineto
18500.8 107093 lineto
18445.3 107227 lineto
18297.8 107375 lineto
18104.9 107455 lineto
17896 107455 lineto
17703 107375 lineto
17555.2 107228 lineto
17500 107095 lineto
17445.3 107227 lineto
17348.4 107324 lineto
17348.4 107582 lineto
19651.6 107582 lineto
19651.6 107324 lineto
19555.2 107228 lineto
19502.6 107101 lineto
19460.6 107203 lineto
19367.8 107227 lineto
19297.1 107156 lineto
19297.1 107298 lineto
19272.8 107391 lineto
19075.8 107460 lineto
18867.2 107449 lineto
18727.2 107391 lineto
18702.9 107298 lineto
19000 107001 lineto
19297.1 107298 lineto
19297.1 107156 lineto
19070.7 106930 lineto
19367.8 106633 lineto
19460.6 106657 lineto
19499.2 106767 lineto
19554.7 106633 lineto
19702.2 106485 lineto
19895.1 106405 lineto
20104 106405 lineto
20297 106485 lineto
20444.8 106632 lineto
20500 106765 lineto
20554.7 106633 lineto
20651.6 106536 lineto
20651.6 105740 lineto
poly1
100 setlinewidth
newpath
20651.6 105740 moveto
20633.3 105752 lineto
20500 105778 lineto
19297.1 105778 lineto
19297.1 106562 lineto
19000 106859 lineto
18702.9 106562 lineto
18727.2 106469 lineto
18924.2 106400 lineto
19132.8 106411 lineto
19272.8 106469 lineto
19297.1 106562 lineto
19297.1 105778 lineto
18644.3 105778 lineto
18348.4 106074 lineto
18348.4 106536 lineto
18444.8 106632 lineto
18497.4 106759 lineto
18539.4 106657 lineto
18632.2 106633 lineto
18929.3 106930 lineto
18632.2 107227 lineto
18539.4 107203 lineto
18500.8 107093 lineto
18445.3 107227 lineto
18297.8 107375 lineto
18104.9 107455 lineto
17896 107455 lineto
17703 107375 lineto
17555.2 107228 lineto
17500 107095 lineto
17445.3 107227 lineto
17348.4 107324 lineto
17348.4 107582 lineto
19651.6 107582 lineto
19651.6 107324 lineto
19555.2 107228 lineto
19502.6 107101 lineto
19460.6 107203 lineto
19367.8 107227 lineto
19297.1 107156 lineto
19297.1 107298 lineto
19272.8 107391 lineto
19075.8 107460 lineto
18867.2 107449 lineto
18727.2 107391 lineto
18702.9 107298 lineto
19000 107001 lineto
19297.1 107298 lineto
19297.1 107156 lineto
19070.7 106930 lineto
19367.8 106633 lineto
19460.6 106657 lineto
19499.2 106767 lineto
19554.7 106633 lineto
19702.2 106485 lineto
19895.1 106405 lineto
20104 106405 lineto
20297 106485 lineto
20444.8 106632 lineto
20500 106765 lineto
20554.7 106633 lineto
20651.6 106536 lineto
20651.6 105740 lineto
poly0
59.0551 setlinewidth
newpath
31230.3 92199.7 moveto
30929.8 92199.7 lineto
31014.3 92254.9 lineto
31195.4 92694.4 lineto
31194.6 93169.8 lineto
31014.3 93605.1 lineto
30851.9 93711.2 lineto
30070.7 92930 lineto
30076.3 92924.4 lineto
30005.6 92853.7 lineto
30000 92859.3 lineto
29994.4 92853.7 lineto
29923.7 92924.4 lineto
29929.3 92930 lineto
29923.7 92935.6 lineto
29994.4 93006.3 lineto
30000 93000.7 lineto
30781.2 93781.9 lineto
30675.1 93944.3 lineto
30295.4 94100.8 lineto
30235.6 94125.4 lineto
29975.8 94125 lineto
29951.9 94148.8 lineto
30114.3 94254.9 lineto
30295.4 94694.4 lineto
30294.6 95169.8 lineto
30114.3 95605.1 lineto
29951.9 95711.2 lineto
29881.2 95640.5 lineto
29881.2 95781.9 lineto
29775.1 95944.3 lineto
29335.6 96125.4 lineto
28860.2 96124.6 lineto
28424.9 95944.3 lineto
28318.8 95781.9 lineto
29100 95000.7 lineto
29881.2 95781.9 lineto
29881.2 95640.5 lineto
29170.7 94930 lineto
29176.3 94924.4 lineto
29105.6 94853.7 lineto
29100 94859.3 lineto
29094.4 94853.7 lineto
29029.3 94918.9 lineto
29023.7 94924.4 lineto
29029.3 94930 lineto
28248.1 95711.2 lineto
28085.7 95605.1 lineto
28054.8 95530 lineto
28054.8 97348.2 lineto
28043.8 97566.8 lineto
27981.3 97717.9 lineto
27885.9 97745.2 lineto
27815.2 97674.5 lineto
27815.2 97815.9 lineto
27787.9 97911.3 lineto
27581.8 97984.8 lineto
27363.2 97973.8 lineto
27212.1 97911.3 lineto
27184.8 97815.9 lineto
27500 97500.7 lineto
27815.2 97815.9 lineto
27815.2 97674.5 lineto
27570.7 97430 lineto
27885.9 97114.8 lineto
27981.3 97142.1 lineto
28054.8 97348.2 lineto
28054.8 95530 lineto
27904.6 95165.6 lineto
27905.4 94690.2 lineto
28085.7 94254.9 lineto
28248.1 94148.8 lineto
28224.3 94125 lineto
27815.2 94125 lineto
27815.2 97044.1 lineto
27500 97359.3 lineto
27184.8 97044.1 lineto
27212.1 96948.7 lineto
27418.2 96875.2 lineto
27636.8 96886.2 lineto
27787.9 96948.7 lineto
27815.2 97044.1 lineto
27815.2 94125 lineto
26605.5 94125 lineto
26513.6 94087.1 lineto
26443.2 94016.8 lineto
26405 93924.9 lineto
26405 93825.5 lineto
26405 93278.4 lineto
25500 93278.4 lineto
25340.3 93438.4 lineto
25119.9 93529.9 lineto
24881.2 93530.1 lineto
24660.6 93439 lineto
24491.6 93270.3 lineto
24488.2 93261.9 lineto
24348.4 93401.9 lineto
24348.4 93930 lineto
24348.4 93930 lineto
24348.4 93930 lineto
24321.9 94063.3 lineto
24246.4 94176.4 lineto
24246.4 94176.4 lineto
23848.4 94574.3 lineto
23848.4 96424.5 lineto
23895.1 96405.1 lineto
24104 96404.9 lineto
24297 96484.7 lineto
24444.8 96632.2 lineto
24524.9 96825.1 lineto
24525.1 97034 lineto
24445.3 97227 lineto
24297.8 97374.8 lineto
24104.9 97454.9 lineto
23896 97455.1 lineto
23848.4 97435.4 lineto
23848.4 98081.6 lineto
24000 98081.6 lineto
24000 98081.6 lineto
24000 98081.6 lineto
24111.2 98103.7 lineto
24133.3 98108.1 lineto
24133.3 98108.1 lineto
24246.4 98183.6 lineto
24405.3 98342.5 lineto
24400 98329.9 lineto
24400 98230.5 lineto
24400 97530.5 lineto
24437.9 97438.6 lineto
24508.2 97368.2 lineto
24600.1 97330 lineto
24699.5 97330 lineto
25399.5 97330 lineto
25491.4 97367.9 lineto
25561.8 97438.2 lineto
25600 97530.1 lineto
25600 97581.6 lineto
25855.7 97581.6 lineto
25950 97487.3 lineto
25950 97080.5 lineto
25987.9 96988.6 lineto
26058.2 96918.2 lineto
26150.1 96880 lineto
26249.5 96880 lineto
26849.5 96880 lineto
26941.4 96917.9 lineto
27011.8 96988.2 lineto
27050 97080.1 lineto
27050 97133.2 lineto
27114.1 97114.8 lineto
27429.3 97430 lineto
27114.1 97745.2 lineto
27050 97726.8 lineto
27050 97779.5 lineto
27012.1 97871.4 lineto
26941.8 97941.8 lineto
26849.9 97980 lineto
26750.5 97980 lineto
26442.7 97980 lineto
26246.4 98176.4 lineto
26133.3 98251.9 lineto
26111.2 98256.3 lineto
26000 98278.4 lineto
26000 98278.4 lineto
25600 98278.4 lineto
25600 98329.5 lineto
25562.1 98421.4 lineto
25491.8 98491.8 lineto
25399.9 98530 lineto
25300.5 98530 lineto
24600.5 98530 lineto
24587.4 98524.6 lineto
25246.4 99183.6 lineto
25246.4 99183.6 lineto
25246.4 99183.6 lineto
25321.9 99296.7 lineto
25348.4 99430 lineto
25348.4 101036 lineto
25444.8 101132 lineto
25524.9 101325 lineto
25525 101412 lineto
26026.9 100910 lineto
25988.2 100872 lineto
25950 100780 lineto
25950 100680 lineto
25950 100080 lineto
25987.9 99988.6 lineto
26058.2 99918.2 lineto
26150.1 99880 lineto
26161.5 99880 lineto
26173.7 99818.8 lineto
26178.1 99796.7 lineto
26253.6 99683.6 lineto
28253.6 97683.6 lineto
28253.6 97683.6 lineto
28366.7 97608.1 lineto
28500 97581.6 lineto
28500 97581.6 lineto
28500 97581.6 lineto
29000 97581.6 lineto
29159.7 97421.6 lineto
29380.1 97330.1 lineto
29618.8 97329.9 lineto
29839.4 97421 lineto
30008.4 97589.7 lineto
30099.9 97810.1 lineto
30100.1 98048.8 lineto
30100.1 100049 lineto
30009 100269 lineto
29840.3 100438 lineto
29619.9 100530 lineto
29381.2 100530 lineto
29160.6 100439 lineto
28991.6 100270 lineto
28900.1 100050 lineto
28899.9 99811.2 lineto
28991 99590.6 lineto
29065.8 99515.7 lineto
29008.6 99492.1 lineto
28938.2 99421.8 lineto
28900 99329.9 lineto
28900 99230.5 lineto
28900 99042.5 lineto
28962.5 98980 lineto
29450 98980 lineto
29450 98987.9 lineto
29550 98987.9 lineto
29550 98980 lineto
30037.5 98980 lineto
30100 99042.5 lineto
30100 99230.5 lineto
30100 99329.9 lineto
30061.8 99421.8 lineto
29991.4 99492.1 lineto
29934.2 99515.7 lineto
30008.4 99589.7 lineto
30099.9 99810.1 lineto
30100.1 100049 lineto
30100.1 98048.8 lineto
30009 98269.4 lineto
29934.2 98344.3 lineto
29991.4 98367.9 lineto
30061.8 98438.2 lineto
30100 98530.1 lineto
30100 98629.5 lineto
30100 98817.5 lineto
30037.5 98880 lineto
29550 98880 lineto
29550 98872.1 lineto
29450 98872.1 lineto
29450 98880 lineto
28962.5 98880 lineto
28900 98817.5 lineto
28900 98629.5 lineto
28900 98530.1 lineto
28938.2 98438.2 lineto
29008.6 98367.9 lineto
29065.8 98344.3 lineto
28999.8 98278.4 lineto
28644.3 98278.4 lineto
28054.8 98868 lineto
28054.8 100348 lineto
28043.8 100567 lineto
27981.3 100718 lineto
27885.9 100745 lineto
27815.2 100674 lineto
27815.2 100816 lineto
27787.9 100911 lineto
27581.8 100985 lineto
27363.2 100974 lineto
27212.1 100911 lineto
27184.8 100816 lineto
27500 100501 lineto
27815.2 100816 lineto
27815.2 100674 lineto
27570.7 100430 lineto
27885.9 100115 lineto
27981.3 100142 lineto
28054.8 100348 lineto
28054.8 98868 lineto
27815.2 99107.5 lineto
27815.2 100044 lineto
27500 100359 lineto
27184.8 100044 lineto
27212.1 99948.7 lineto
27418.2 99875.2 lineto
27636.8 99886.2 lineto
27787.9 99948.7 lineto
27815.2 100044 lineto
27815.2 99107.5 lineto
26973.1 99949.6 lineto
27011.8 99988.2 lineto
27050 100080 lineto
27050 100133 lineto
27114.1 100115 lineto
27429.3 100430 lineto
27114.1 100745 lineto
27050 100727 lineto
27050 100780 lineto
27012.1 100871 lineto
26941.8 100942 lineto
26849.9 100980 lineto
26838.5 100980 lineto
26821.9 101063 lineto
26746.4 101176 lineto
26746.4 101176 lineto
25246.4 102676 lineto
25133.3 102752 lineto
25111.2 102756 lineto
25000 102778 lineto
25000 102778 lineto
24515.2 102778 lineto
24487.1 102846 lineto
24416.8 102917 lineto
24324.9 102955 lineto
24315.2 102955 lineto
24315.2 105044 lineto
24000 105359 lineto
23929.3 105289 lineto
23929.3 105430 lineto
23614.1 105745 lineto
23518.7 105718 lineto
23445.2 105512 lineto
23456.2 105293 lineto
23518.7 105142 lineto
23614.1 105115 lineto
23929.3 105430 lineto
23929.3 105289 lineto
23684.8 105044 lineto
23712.1 104949 lineto
23918.2 104875 lineto
24136.8 104886 lineto
24287.9 104949 lineto
24315.2 105044 lineto
24315.2 102955 lineto
24225.5 102955 lineto
23845.2 102955 lineto
23991.4 103101 lineto
24079.9 103314 lineto
24080.1 103545 lineto
23992 103758 lineto
23848.4 103902 lineto
23848.4 103930 lineto
23821.9 104063 lineto
23746.4 104176 lineto
23746.4 104176 lineto
22848.4 105074 lineto
22848.4 106286 lineto
23144.3 106582 lineto
27651.6 106582 lineto
27651.6 105278 lineto
27554.8 105278 lineto
27554.8 105848 lineto
27543.8 106067 lineto
27481.3 106218 lineto
27385.9 106245 lineto
27315.2 106174 lineto
27315.2 106316 lineto
27287.9 106411 lineto
27081.8 106485 lineto
26863.2 106474 lineto
26712.1 106411 lineto
26684.8 106316 lineto
27000 106001 lineto
27315.2 106316 lineto
27315.2 106174 lineto
27070.7 105930 lineto
27385.9 105615 lineto
27481.3 105642 lineto
27554.8 105848 lineto
27554.8 105278 lineto
27550 105278 lineto
27550 105280 lineto
27512.1 105371 lineto
27441.8 105442 lineto
27349.9 105480 lineto
27296.8 105480 lineto
27315.2 105544 lineto
27000 105859 lineto
26929.3 105789 lineto
26929.3 105930 lineto
26614.1 106245 lineto
26518.7 106218 lineto
26445.2 106012 lineto
26456.2 105793 lineto
26518.7 105642 lineto
26614.1 105615 lineto
26929.3 105930 lineto
26929.3 105789 lineto
26684.8 105544 lineto
26703.2 105480 lineto
26650.5 105480 lineto
26558.6 105442 lineto
26488.2 105372 lineto
26450 105280 lineto
26450 105180 lineto
26450 104580 lineto
26487.9 104489 lineto
26558.2 104418 lineto
26650.1 104380 lineto
26749.5 104380 lineto
27349.5 104380 lineto
27441.4 104418 lineto
27511.8 104488 lineto
27550 104580 lineto
27550 104582 lineto
28000 104582 lineto
28133.3 104608 lineto
28246.4 104684 lineto
28321.9 104797 lineto
28348.4 104930 lineto
28348.4 106930 lineto
28321.9 107063 lineto
28246.4 107176 lineto
28133.3 107252 lineto
28000 107278 lineto
23348.4 107278 lineto
23348.4 107582 lineto
29855.7 107582 lineto
30151.6 107286 lineto
30151.6 102778 lineto
30100.1 102778 lineto
30100.1 104549 lineto
30009 104769 lineto
29840.3 104938 lineto
29619.9 105030 lineto
29381.2 105030 lineto
29160.6 104939 lineto
28999.8 104778 lineto
28500 104778 lineto
28500 104778 lineto
28366.7 104752 lineto
28253.6 104676 lineto
28253.6 104676 lineto
27855.7 104278 lineto
26644.3 104278 lineto
25550 105373 lineto
25550 105780 lineto
25512.1 105871 lineto
25441.8 105942 lineto
25349.9 105980 lineto
25250.5 105980 lineto
24650.5 105980 lineto
24558.6 105942 lineto
24488.2 105872 lineto
24450 105780 lineto
24450 105727 lineto
24385.9 105745 lineto
24315.2 105674 lineto
24315.2 105816 lineto
24287.9 105911 lineto
24081.8 105985 lineto
23863.2 105974 lineto
23712.1 105911 lineto
23684.8 105816 lineto
24000 105501 lineto
24315.2 105816 lineto
24315.2 105674 lineto
24070.7 105430 lineto
24385.9 105115 lineto
24450 105133 lineto
24450 105080 lineto
24487.9 104989 lineto
24558.2 104918 lineto
24650.1 104880 lineto
24749.5 104880 lineto
25057.3 104880 lineto
26253.6 103684 lineto
26253.6 103684 lineto
26366.7 103608 lineto
26500 103582 lineto
28000 103582 lineto
28000 103582 lineto
28000 103582 lineto
28111.2 103604 lineto
28133.3 103608 lineto
28133.3 103608 lineto
28246.4 103684 lineto
28644.3 104082 lineto
29000 104082 lineto
29065.8 104016 lineto
29008.6 103992 lineto
28938.2 103922 lineto
28900 103830 lineto
28900 103730 lineto
28900 103542 lineto
28962.5 103480 lineto
29450 103480 lineto
29450 103488 lineto
29550 103488 lineto
29550 103480 lineto
30037.5 103480 lineto
30100 103542 lineto
30100 103730 lineto
30100 103830 lineto
30061.8 103922 lineto
29991.4 103992 lineto
29934.2 104016 lineto
30008.4 104090 lineto
30099.9 104310 lineto
30100.1 104549 lineto
30100.1 102778 lineto
30000 102778 lineto
29934.2 102844 lineto
29991.4 102868 lineto
30061.8 102938 lineto
30100 103030 lineto
30100 103130 lineto
30100 103318 lineto
30037.5 103380 lineto
29550 103380 lineto
29550 103372 lineto
29450 103372 lineto
29450 103380 lineto
28962.5 103380 lineto
28900 103318 lineto
28900 103130 lineto
28900 103030 lineto
28938.2 102938 lineto
29008.6 102868 lineto
29065.8 102844 lineto
28991.6 102770 lineto
28900.1 102550 lineto
28899.9 102311 lineto
28991 102091 lineto
29159.7 101922 lineto
29380.1 101830 lineto
29618.8 101830 lineto
29839.4 101921 lineto
30000.2 102082 lineto
30500 102082 lineto
30633.3 102108 lineto
30746.4 102184 lineto
30821.9 102297 lineto
30848.4 102430 lineto
30848.4 107430 lineto
30848.4 107430 lineto
30848.4 107430 lineto
30821.9 107563 lineto
30746.4 107676 lineto
30746.4 107676 lineto
30246.4 108176 lineto
30133.3 108252 lineto
30111.2 108256 lineto
30000 108278 lineto
30000 108278 lineto
23000 108278 lineto
20000 108278 lineto
17000 108278 lineto
14000 108278 lineto
13866.7 108252 lineto
13753.6 108176 lineto
13678.1 108063 lineto
13651.6 107930 lineto
13651.6 107324 lineto
13555.2 107228 lineto
13525 107155 lineto
13525 107155 lineto
13525 107255 lineto
13486.8 107347 lineto
13416.4 107417 lineto
13324.5 107455 lineto
13112.5 107455 lineto
13050 107392 lineto
13050 106980 lineto
13057.9 106980 lineto
13057.9 106880 lineto
13050 106880 lineto
13050 106468 lineto
13112.5 106405 lineto
13324.5 106405 lineto
13416.4 106443 lineto
13486.8 106513 lineto
13525 106605 lineto
13525 106705 lineto
13525 106705 lineto
13554.7 106633 lineto
13651.6 106536 lineto
13651.6 105930 lineto
13651.6 105930 lineto
13673.7 105819 lineto
13678.1 105797 lineto
13753.6 105684 lineto
14253.6 105184 lineto
14253.6 105184 lineto
14753.6 104684 lineto
14753.6 104684 lineto
14866.7 104608 lineto
15000 104582 lineto
15000 104582 lineto
15000 104582 lineto
16855.7 104582 lineto
17253.6 104184 lineto
17253.6 104184 lineto
17366.7 104108 lineto
17500 104082 lineto
17500 104082 lineto
17500 104082 lineto
18355.7 104082 lineto
18546.8 103890 lineto
18450.3 103826 lineto
18328.9 103644 lineto
18286.3 103430 lineto
18328.9 103216 lineto
18450.3 103034 lineto
18606 102930 lineto
18450.3 102826 lineto
18328.9 102644 lineto
18286.3 102430 lineto
18328.9 102216 lineto
18450.3 102034 lineto
18606 101930 lineto
18450.3 101826 lineto
18328.9 101644 lineto
18286.3 101430 lineto
18328.9 101216 lineto
18450.3 101034 lineto
18606 100930 lineto
18450.3 100826 lineto
18328.9 100644 lineto
18286.3 100430 lineto
18328.9 100216 lineto
18450.3 100034 lineto
18606 99930 lineto
18450.3 99826 lineto
18328.9 99644.3 lineto
18286.3 99430 lineto
18328.9 99215.7 lineto
18450.3 99034 lineto
18606 98930 lineto
18450.3 98826 lineto
18328.9 98644.3 lineto
18286.3 98430 lineto
18328.9 98215.7 lineto
18450.3 98034 lineto
18606 97930 lineto
18450.3 97826 lineto
18328.9 97644.3 lineto
18286.3 97430 lineto
18328.9 97215.7 lineto
18450.3 97034 lineto
18606 96930 lineto
18450.3 96826 lineto
18328.9 96644.3 lineto
18286.3 96430 lineto
18328.9 96215.7 lineto
18450.3 96034 lineto
18606 95930 lineto
18450.3 95826 lineto
18328.9 95644.3 lineto
18286.3 95430 lineto
18328.9 95215.7 lineto
18450.3 95034 lineto
18606 94930 lineto
18450.3 94826 lineto
18328.9 94644.3 lineto
18286.3 94430 lineto
18328.9 94215.7 lineto
18450.3 94034 lineto
18632 93912.6 lineto
18846.3 93870 lineto
19153.7 93870 lineto
19368 93912.6 lineto
19549.7 94034 lineto
19671.1 94215.7 lineto
19713.7 94430 lineto
19671.1 94644.3 lineto
19549.7 94826 lineto
19394 94930 lineto
19549.7 95034 lineto
19671.1 95215.7 lineto
19713.7 95430 lineto
19671.1 95644.3 lineto
19549.7 95826 lineto
19394 95930 lineto
19549.7 96034 lineto
19671.1 96215.7 lineto
19713.7 96430 lineto
19671.1 96644.3 lineto
19549.7 96826 lineto
19394 96930 lineto
19549.7 97034 lineto
19581.5 97081.6 lineto
20000 97081.6 lineto
21000 97081.6 lineto
21133.3 97108.1 lineto
21246.4 97183.6 lineto
21321.9 97296.7 lineto
21348.4 97430 lineto
21348.4 106536 lineto
21444.8 106632 lineto
21524.9 106825 lineto
21525.1 107034 lineto
21445.3 107227 lineto
21297.8 107375 lineto
21104.9 107455 lineto
20896 107455 lineto
20703 107375 lineto
20555.2 107228 lineto
20500 107095 lineto
20445.3 107227 lineto
20348.4 107324 lineto
20348.4 107582 lineto
22651.6 107582 lineto
22651.6 107074 lineto
22253.6 106676 lineto
22178.1 106563 lineto
22173.7 106541 lineto
22151.6 106430 lineto
22151.6 106430 lineto
22151.6 104930 lineto
22151.6 104930 lineto
22173.7 104819 lineto
22178.1 104797 lineto
22253.6 104684 lineto
23093.5 103844 lineto
23008.6 103759 lineto
23000.1 103739 lineto
22992 103758 lineto
22829 103921 lineto
22615.9 104010 lineto
22385.1 104010 lineto
22171.9 103922 lineto
22008.6 103759 lineto
21920.1 103546 lineto
21919.9 103315 lineto
22008 103102 lineto
22151.6 102958 lineto
22151.6 100324 lineto
22055.2 100228 lineto
21975.1 100035 lineto
21974.9 99826 lineto
22054.7 99633 lineto
22202.2 99485.2 lineto
22395.1 99405.1 lineto
22604 99404.9 lineto
22797 99484.7 lineto
22944.8 99632.2 lineto
23024.9 99825.1 lineto
23025.1 100034 lineto
22945.3 100227 lineto
22848.4 100324 lineto
22848.4 102958 lineto
22991.4 103101 lineto
22999.9 103121 lineto
23008 103102 lineto
23171 102939 lineto
23384.1 102850 lineto
23516.4 102850 lineto
23513.2 102847 lineto
23475 102755 lineto
23475 102655 lineto
23475 102105 lineto
23512.9 102014 lineto
23583.2 101943 lineto
23651.6 101915 lineto
23651.6 101824 lineto
23555.2 101728 lineto
23475.1 101535 lineto
23474.9 101326 lineto
23554.7 101133 lineto
23651.6 101036 lineto
23651.6 100324 lineto
23555.2 100228 lineto
23475.1 100035 lineto
23474.9 99826 lineto
23554.7 99633 lineto
23702.2 99485.2 lineto
23895.1 99405.1 lineto
24104 99404.9 lineto
24297 99484.7 lineto
24444.8 99632.2 lineto
24524.9 99825.1 lineto
24525.1 100034 lineto
24445.3 100227 lineto
24348.4 100324 lineto
24348.4 101036 lineto
24444.8 101132 lineto
24500 101265 lineto
24554.7 101133 lineto
24651.6 101036 lineto
24651.6 99574.3 lineto
23855.7 98778.4 lineto
23500 98778.4 lineto
23366.7 98751.9 lineto
23253.6 98676.4 lineto
23178.1 98563.3 lineto
23151.6 98430 lineto
23151.6 94430 lineto
23151.6 94430 lineto
23173.7 94318.8 lineto
23178.1 94296.7 lineto
23253.6 94183.6 lineto
23651.6 93785.7 lineto
23651.6 93401.7 lineto
23508.6 93259 lineto
23500.1 93238.5 lineto
23492 93258.1 lineto
23329 93421.4 lineto
23115.9 93509.9 lineto
23029.9 93510 lineto
23029.9 96854.2 lineto
23018.6 97062.8 lineto
22960.6 97202.8 lineto
22867.8 97227.1 lineto
22797.1 97156.4 lineto
22797.1 97297.8 lineto
22772.8 97390.6 lineto
22575.8 97459.9 lineto
22367.2 97448.6 lineto
22227.2 97390.6 lineto
22202.9 97297.8 lineto
22500 97000.7 lineto
22797.1 97297.8 lineto
22797.1 97156.4 lineto
22570.7 96930 lineto
22867.8 96632.9 lineto
22960.6 96657.2 lineto
23029.9 96854.2 lineto
23029.9 93510 lineto
22885.1 93510.1 lineto
22797.1 93473.7 lineto
22797.1 96562.2 lineto
22500 96859.3 lineto
22429.3 96788.6 lineto
22429.3 96930 lineto
22132.2 97227.1 lineto
22039.4 97202.8 lineto
21970.1 97005.8 lineto
21981.4 96797.2 lineto
22039.4 96657.2 lineto
22132.2 96632.9 lineto
22429.3 96930 lineto
22429.3 96788.6 lineto
22202.9 96562.2 lineto
22227.2 96469.4 lineto
22424.2 96400.1 lineto
22632.8 96411.4 lineto
22772.8 96469.4 lineto
22797.1 96562.2 lineto
22797.1 93473.7 lineto
22671.9 93422 lineto
22529.9 93280.2 lineto
22529.9 95854.2 lineto
22518.6 96062.8 lineto
22460.6 96202.8 lineto
22367.8 96227.1 lineto
22297.1 96156.4 lineto
22297.1 96297.8 lineto
22272.8 96390.6 lineto
22075.8 96459.9 lineto
21867.2 96448.6 lineto
21727.2 96390.6 lineto
21702.9 96297.8 lineto
22000 96000.7 lineto
22297.1 96297.8 lineto
22297.1 96156.4 lineto
22070.7 95930 lineto
22367.8 95632.9 lineto
22460.6 95657.2 lineto
22529.9 95854.2 lineto
22529.9 93280.2 lineto
22528.1 93278.4 lineto
22394 93278.4 lineto
22297.8 93374.8 lineto
22297.1 93375.1 lineto
22297.1 95562.2 lineto
22000 95859.3 lineto
21929.3 95788.6 lineto
21929.3 95930 lineto
21632.2 96227.1 lineto
21539.4 96202.8 lineto
21470.1 96005.8 lineto
21481.4 95797.2 lineto
21539.4 95657.2 lineto
21632.2 95632.9 lineto
21929.3 95930 lineto
21929.3 95788.6 lineto
21702.9 95562.2 lineto
21727.2 95469.4 lineto
21924.2 95400.1 lineto
22132.8 95411.4 lineto
22272.8 95469.4 lineto
22297.1 95562.2 lineto
22297.1 93375.1 lineto
22104.9 93454.9 lineto
21896 93455.1 lineto
21703 93375.3 lineto
21555.2 93227.8 lineto
21475.1 93034.9 lineto
21474.9 92826 lineto
21554.7 92633 lineto
21702.2 92485.2 lineto
21895.1 92405.1 lineto
22104 92404.9 lineto
22297 92484.7 lineto
22394.1 92581.6 lineto
22528.3 92581.6 lineto
22671 92438.6 lineto
22884.1 92350.1 lineto
23114.9 92349.9 lineto
23328.1 92438 lineto
23491.4 92601 lineto
23499.9 92621.5 lineto
23508 92601.9 lineto
23671 92438.6 lineto
23884.1 92350.1 lineto
24114.9 92349.9 lineto
24328.1 92438 lineto
24488.1 92597.7 lineto
24491 92590.6 lineto
24659.7 92421.6 lineto
24880.1 92330.1 lineto
25118.8 92329.9 lineto
25339.4 92421 lineto
25500.2 92581.6 lineto
26405 92581.6 lineto
26405 92199.7 lineto
16713.7 92199.7 lineto
16713.7 95430 lineto
16671.1 95644.3 lineto
16549.7 95826 lineto
16394 95930 lineto
16549.7 96034 lineto
16671.1 96215.7 lineto
16713.7 96430 lineto
16671.1 96644.3 lineto
16549.7 96826 lineto
16394 96930 lineto
16549.7 97034 lineto
16671.1 97215.7 lineto
16713.7 97430 lineto
16671.1 97644.3 lineto
16549.7 97826 lineto
16394 97930 lineto
16549.7 98034 lineto
16671.1 98215.7 lineto
16713.7 98430 lineto
16671.1 98644.3 lineto
16549.7 98826 lineto
16394 98930 lineto
16549.7 99034 lineto
16671.1 99215.7 lineto
16713.7 99430 lineto
16671.1 99644.3 lineto
16549.7 99826 lineto
16394 99930 lineto
16549.7 100034 lineto
16671.1 100216 lineto
16713.7 100430 lineto
16671.1 100644 lineto
16549.7 100826 lineto
16394 100930 lineto
16549.7 101034 lineto
16671.1 101216 lineto
16713.7 101430 lineto
16671.1 101644 lineto
16549.7 101826 lineto
16394 101930 lineto
16549.7 102034 lineto
16671.1 102216 lineto
16713.7 102430 lineto
16671.1 102644 lineto
16549.7 102826 lineto
16483.9 102870 lineto
16499.5 102870 lineto
16591.4 102908 lineto
16661.8 102978 lineto
16700 103070 lineto
16700 103170 lineto
16700 103790 lineto
16662.1 103881 lineto
16591.8 103952 lineto
16499.9 103990 lineto
16400.5 103990 lineto
15500.5 103990 lineto
15408.6 103952 lineto
15338.2 103882 lineto
15300 103790 lineto
15300 103778 lineto
15255.8 103778 lineto
15242.3 103792 lineto
15085.3 103857 lineto
14915.4 103857 lineto
14758.3 103792 lineto
14638.1 103672 lineto
14572.9 103515 lineto
14572.8 103345 lineto
14637.7 103188 lineto
14757.7 103068 lineto
14914.7 103003 lineto
15084.6 103003 lineto
15241.7 103068 lineto
15255.6 103082 lineto
15300 103082 lineto
15300 103070 lineto
15337.9 102979 lineto
15408.2 102908 lineto
15500.1 102870 lineto
15516.2 102870 lineto
15450.3 102826 lineto
15418.5 102778 lineto
14000 102778 lineto
13866.7 102752 lineto
13753.6 102676 lineto
13678.1 102563 lineto
13651.6 102430 lineto
13651.6 97329.6 lineto
13585.3 97357.1 lineto
13554.8 97357.1 lineto
13554.8 104848 lineto
13543.8 105067 lineto
13481.3 105218 lineto
13385.9 105245 lineto
13315.2 105174 lineto
13315.2 105316 lineto
13287.9 105411 lineto
13081.8 105485 lineto
12950 105478 lineto
12950 106468 lineto
12950 106880 lineto
12950 106980 lineto
12950 107392 lineto
12887.5 107455 lineto
12675.5 107455 lineto
12583.6 107417 lineto
12513.2 107347 lineto
12475 107255 lineto
12475 107155 lineto
12475 107042 lineto
12537.5 106980 lineto
12950 106980 lineto
12950 106880 lineto
12537.5 106880 lineto
12475 106818 lineto
12475 106705 lineto
12475 106605 lineto
12513.2 106513 lineto
12583.6 106443 lineto
12675.5 106405 lineto
12887.5 106405 lineto
12950 106468 lineto
12950 105478 lineto
12863.2 105474 lineto
12712.1 105411 lineto
12684.8 105316 lineto
13000 105001 lineto
13315.2 105316 lineto
13315.2 105174 lineto
13070.7 104930 lineto
13385.9 104615 lineto
13481.3 104642 lineto
13554.8 104848 lineto
13554.8 97357.1 lineto
13415.4 97357.2 lineto
13369.6 97338.3 lineto
13312 97396 lineto
13230.1 97430 lineto
13311.1 97463.5 lineto
13466 97618 lineto
13549.9 97820.1 lineto
13550.1 98038.9 lineto
13466.5 98241.1 lineto
13312 98396 lineto
13230.1 98430 lineto
13311.1 98463.5 lineto
13466 98618 lineto
13549.9 98820.1 lineto
13550.1 99038.9 lineto
13466.5 99241.1 lineto
13312 99396 lineto
13230.1 99430 lineto
13311.1 99463.5 lineto
13466 99618 lineto
13549.9 99820.1 lineto
13550.1 100039 lineto
13466.5 100241 lineto
13312 100396 lineto
13230.1 100430 lineto
13311.1 100463 lineto
13466 100618 lineto
13549.9 100820 lineto
13550.1 101039 lineto
13466.5 101241 lineto
13312 101396 lineto
13230.1 101430 lineto
13311.1 101463 lineto
13466 101618 lineto
13549.9 101820 lineto
13550.1 102039 lineto
13466.5 102241 lineto
13312 102396 lineto
13230.1 102430 lineto
13311.1 102463 lineto
13466 102618 lineto
13549.9 102820 lineto
13550.1 103039 lineto
13466.5 103241 lineto
13312 103396 lineto
13230.1 103430 lineto
13311.1 103463 lineto
13466 103618 lineto
13549.9 103820 lineto
13550.1 104039 lineto
13466.5 104241 lineto
13312 104396 lineto
13236.3 104427 lineto
13287.9 104449 lineto
13315.2 104544 lineto
13000 104859 lineto
12684.8 104544 lineto
12712.1 104449 lineto
12767.4 104429 lineto
12688.9 104397 lineto
12534 104242 lineto
12500 104160 lineto
12466.5 104241 lineto
12328 104380 lineto
12349.5 104380 lineto
12441.4 104418 lineto
12511.8 104488 lineto
12550 104580 lineto
12550 104633 lineto
12614.1 104615 lineto
12929.3 104930 lineto
12614.1 105245 lineto
12550 105227 lineto
12550 105280 lineto
12512.1 105371 lineto
12441.8 105442 lineto
12349.9 105480 lineto
12250.5 105480 lineto
11650.5 105480 lineto
11558.6 105442 lineto
11488.2 105372 lineto
11450 105280 lineto
11450 105180 lineto
11450 104580 lineto
11487.9 104489 lineto
11558.2 104418 lineto
11650.1 104380 lineto
11672.3 104380 lineto
11534 104242 lineto
11450.1 104040 lineto
11449.9 103821 lineto
11533.5 103619 lineto
11688 103464 lineto
11769.9 103430 lineto
11688.9 103397 lineto
11534 103242 lineto
11450.1 103040 lineto
11449.9 102821 lineto
11533.5 102619 lineto
11688 102464 lineto
11769.9 102430 lineto
11688.9 102397 lineto
11534 102242 lineto
11450.1 102040 lineto
11449.9 101821 lineto
11533.5 101619 lineto
11688 101464 lineto
11769.9 101430 lineto
11688.9 101397 lineto
11534 101242 lineto
11450.1 101040 lineto
11449.9 100821 lineto
11533.5 100619 lineto
11688 100464 lineto
11769.9 100430 lineto
11688.9 100397 lineto
11534 100242 lineto
11450.1 100040 lineto
11449.9 99821.1 lineto
11533.5 99618.9 lineto
11688 99464 lineto
11769.9 99430 lineto
11688.9 99396.5 lineto
11534 99242 lineto
11450.1 99039.9 lineto
11449.9 98821.1 lineto
11533.5 98618.9 lineto
11688 98464 lineto
11769.9 98430 lineto
11688.9 98396.5 lineto
11534 98242 lineto
11450.1 98039.9 lineto
11449.9 97821.1 lineto
11533.5 97618.9 lineto
11688 97464 lineto
11769.9 97430 lineto
11688.9 97396.5 lineto
11534 97242 lineto
11450.1 97039.9 lineto
11449.9 96821.1 lineto
11533.5 96618.9 lineto
11688 96464 lineto
11769.9 96430 lineto
11688.9 96396.5 lineto
11534 96242 lineto
11450.1 96039.9 lineto
11449.9 95821.1 lineto
11533.5 95618.9 lineto
11688 95464 lineto
11769.9 95430 lineto
11688.9 95396.5 lineto
11534 95242 lineto
11450.1 95039.9 lineto
11449.9 94821.1 lineto
11533.5 94618.9 lineto
11688 94464 lineto
11769.9 94430 lineto
11688.9 94396.5 lineto
11534 94242 lineto
11450.1 94039.9 lineto
11449.9 93821.1 lineto
11533.5 93618.9 lineto
11688 93464 lineto
11890.1 93380.1 lineto
12108.9 93379.9 lineto
12311.1 93463.5 lineto
12466 93618 lineto
12500 93699.9 lineto
12533.5 93618.9 lineto
12688 93464 lineto
12890.1 93380.1 lineto
13108.9 93379.9 lineto
13151.6 93397.5 lineto
13151.6 93278.4 lineto
10848.4 93278.4 lineto
10848.4 96500.7 lineto
10966 96618 lineto
11049.9 96820.1 lineto
11050.1 97038.9 lineto
10966.5 97241.1 lineto
10812 97396 lineto
10730.1 97430 lineto
10811.1 97463.5 lineto
10966 97618 lineto
11049.9 97820.1 lineto
11050.1 98038.9 lineto
10966.5 98241.1 lineto
10827.9 98380 lineto
10849.9 98380 lineto
10941.8 98418.2 lineto
11012.1 98488.6 lineto
11050 98580.5 lineto
11050 99279.5 lineto
11012.1 99371.4 lineto
10941.8 99441.8 lineto
10849.9 99480 lineto
10750.5 99480 lineto
10612.5 99480 lineto
10550 99417.5 lineto
10550 98980 lineto
10987.5 98980 lineto
11050 99042.5 lineto
11050 99279.5 lineto
11050 98580.5 lineto
11050 98817.5 lineto
10987.5 98880 lineto
10550 98880 lineto
10550 98872.1 lineto
10450 98872.1 lineto
10450 98880 lineto
10450 98980 lineto
10450 99417.5 lineto
10387.5 99480 lineto
10249.5 99480 lineto
10150.1 99480 lineto
10058.2 99441.8 lineto
9987.94 99371.4 lineto
9949.96 99279.5 lineto
9950 99042.5 lineto
10012.5 98980 lineto
10450 98980 lineto
10450 98880 lineto
10012.5 98880 lineto
9950 98817.5 lineto
9949.96 98580.5 lineto
9987.94 98488.6 lineto
10058.2 98418.2 lineto
10150.1 98380 lineto
10172.3 98380 lineto
10034 98242 lineto
9950.1 98039.9 lineto
9949.91 97821.1 lineto
10033.5 97618.9 lineto
10188 97464 lineto
10269.9 97430 lineto
10188.9 97396.5 lineto
10034 97242 lineto
9950.1 97039.9 lineto
9949.91 96821.1 lineto
10033.5 96618.9 lineto
10151.6 96500.5 lineto
10151.6 92930 lineto
10178.1 92796.7 lineto
10253.6 92683.6 lineto
10366.7 92608.1 lineto
10500 92581.6 lineto
13500 92581.6 lineto
13633.3 92608.1 lineto
13746.4 92683.6 lineto
13821.9 92796.7 lineto
13848.4 92930 lineto
13848.4 93530.4 lineto
13914.7 93502.9 lineto
14084.6 93502.8 lineto
14151.6 93530.4 lineto
14151.6 93185.8 lineto
14138.1 93172.3 lineto
14072.9 93015.3 lineto
14072.8 92845.4 lineto
14137.7 92688.3 lineto
14257.7 92568.1 lineto
14414.7 92502.9 lineto
14584.6 92502.8 lineto
14741.7 92567.7 lineto
14861.9 92687.7 lineto
14927.1 92844.7 lineto
14927.2 93014.6 lineto
14862.3 93171.7 lineto
14848.4 93185.6 lineto
14848.4 97030.4 lineto
14914.7 97002.9 lineto
15084.6 97002.8 lineto
15241.7 97067.7 lineto
15353.3 97179.1 lineto
15450.3 97034 lineto
15606 96930 lineto
15450.3 96826 lineto
15328.9 96644.3 lineto
15286.3 96430 lineto
15328.9 96215.7 lineto
15450.3 96034 lineto
15606 95930 lineto
15450.3 95826 lineto
15328.9 95644.3 lineto
15286.3 95430 lineto
15328.9 95215.7 lineto
15450.3 95034 lineto
15605.8 94930.1 lineto
15599.5 94928.2 lineto
15428.7 94790.6 lineto
15323.5 94598.1 lineto
15316.9 94566.6 lineto
15365 94480 lineto
15950 94480 lineto
15950 94487.9 lineto
16050 94487.9 lineto
16050 94480 lineto
16635 94480 lineto
16683.1 94566.6 lineto
16676.5 94598.1 lineto
16571.3 94790.6 lineto
16400.5 94928.2 lineto
16394.2 94930.1 lineto
16549.7 95034 lineto
16671.1 95215.7 lineto
16713.7 95430 lineto
16713.7 92199.7 lineto
16683.1 92199.7 lineto
16683.1 94293.4 lineto
16635 94380 lineto
16050 94380 lineto
16050 93870 lineto
16190 93870 lineto
16400.5 93931.8 lineto
16571.3 94069.4 lineto
16676.5 94261.9 lineto
16683.1 94293.4 lineto
16683.1 92199.7 lineto
15950 92199.7 lineto
15950 93870 lineto
15950 94380 lineto
15365 94380 lineto
15316.9 94293.4 lineto
15323.5 94261.9 lineto
15428.7 94069.4 lineto
15599.5 93931.8 lineto
15810 93870 lineto
15950 93870 lineto
15950 92199.7 lineto
9769.69 92199.7 lineto
9769.69 108660 lineto
31230.3 108660 lineto
31230.3 92199.7 lineto
poly1
100 setlinewidth
newpath
31230.3 92199.7 moveto
30929.8 92199.7 lineto
31014.3 92254.9 lineto
31195.4 92694.4 lineto
31194.6 93169.8 lineto
31014.3 93605.1 lineto
30851.9 93711.2 lineto
30070.7 92930 lineto
30076.3 92924.4 lineto
30005.6 92853.7 lineto
30000 92859.3 lineto
29994.4 92853.7 lineto
29923.7 92924.4 lineto
29929.3 92930 lineto
29923.7 92935.6 lineto
29994.4 93006.3 lineto
30000 93000.7 lineto
30781.2 93781.9 lineto
30675.1 93944.3 lineto
30295.4 94100.8 lineto
30235.6 94125.4 lineto
29975.8 94125 lineto
29951.9 94148.8 lineto
30114.3 94254.9 lineto
30295.4 94694.4 lineto
30294.6 95169.8 lineto
30114.3 95605.1 lineto
29951.9 95711.2 lineto
29881.2 95640.5 lineto
29881.2 95781.9 lineto
29775.1 95944.3 lineto
29335.6 96125.4 lineto
28860.2 96124.6 lineto
28424.9 95944.3 lineto
28318.8 95781.9 lineto
29100 95000.7 lineto
29881.2 95781.9 lineto
29881.2 95640.5 lineto
29170.7 94930 lineto
29176.3 94924.4 lineto
29105.6 94853.7 lineto
29100 94859.3 lineto
29094.4 94853.7 lineto
29029.3 94918.9 lineto
29023.7 94924.4 lineto
29029.3 94930 lineto
28248.1 95711.2 lineto
28085.7 95605.1 lineto
28054.8 95530 lineto
28054.8 97348.2 lineto
28043.8 97566.8 lineto
27981.3 97717.9 lineto
27885.9 97745.2 lineto
27815.2 97674.5 lineto
27815.2 97815.9 lineto
27787.9 97911.3 lineto
27581.8 97984.8 lineto
27363.2 97973.8 lineto
27212.1 97911.3 lineto
27184.8 97815.9 lineto
27500 97500.7 lineto
27815.2 97815.9 lineto
27815.2 97674.5 lineto
27570.7 97430 lineto
27885.9 97114.8 lineto
27981.3 97142.1 lineto
28054.8 97348.2 lineto
28054.8 95530 lineto
27904.6 95165.6 lineto
27905.4 94690.2 lineto
28085.7 94254.9 lineto
28248.1 94148.8 lineto
28224.3 94125 lineto
27815.2 94125 lineto
27815.2 97044.1 lineto
27500 97359.3 lineto
27184.8 97044.1 lineto
27212.1 96948.7 lineto
27418.2 96875.2 lineto
27636.8 96886.2 lineto
27787.9 96948.7 lineto
27815.2 97044.1 lineto
27815.2 94125 lineto
26605.5 94125 lineto
26513.6 94087.1 lineto
26443.2 94016.8 lineto
26405 93924.9 lineto
26405 93825.5 lineto
26405 93278.4 lineto
25500 93278.4 lineto
25340.3 93438.4 lineto
25119.9 93529.9 lineto
24881.2 93530.1 lineto
24660.6 93439 lineto
24491.6 93270.3 lineto
24488.2 93261.9 lineto
24348.4 93401.9 lineto
24348.4 93930 lineto
24348.4 93930 lineto
24348.4 93930 lineto
24321.9 94063.3 lineto
24246.4 94176.4 lineto
24246.4 94176.4 lineto
23848.4 94574.3 lineto
23848.4 96424.5 lineto
23895.1 96405.1 lineto
24104 96404.9 lineto
24297 96484.7 lineto
24444.8 96632.2 lineto
24524.9 96825.1 lineto
24525.1 97034 lineto
24445.3 97227 lineto
24297.8 97374.8 lineto
24104.9 97454.9 lineto
23896 97455.1 lineto
23848.4 97435.4 lineto
23848.4 98081.6 lineto
24000 98081.6 lineto
24000 98081.6 lineto
24000 98081.6 lineto
24111.2 98103.7 lineto
24133.3 98108.1 lineto
24133.3 98108.1 lineto
24246.4 98183.6 lineto
24405.3 98342.5 lineto
24400 98329.9 lineto
24400 98230.5 lineto
24400 97530.5 lineto
24437.9 97438.6 lineto
24508.2 97368.2 lineto
24600.1 97330 lineto
24699.5 97330 lineto
25399.5 97330 lineto
25491.4 97367.9 lineto
25561.8 97438.2 lineto
25600 97530.1 lineto
25600 97581.6 lineto
25855.7 97581.6 lineto
25950 97487.3 lineto
25950 97080.5 lineto
25987.9 96988.6 lineto
26058.2 96918.2 lineto
26150.1 96880 lineto
26249.5 96880 lineto
26849.5 96880 lineto
26941.4 96917.9 lineto
27011.8 96988.2 lineto
27050 97080.1 lineto
27050 97133.2 lineto
27114.1 97114.8 lineto
27429.3 97430 lineto
27114.1 97745.2 lineto
27050 97726.8 lineto
27050 97779.5 lineto
27012.1 97871.4 lineto
26941.8 97941.8 lineto
26849.9 97980 lineto
26750.5 97980 lineto
26442.7 97980 lineto
26246.4 98176.4 lineto
26133.3 98251.9 lineto
26111.2 98256.3 lineto
26000 98278.4 lineto
26000 98278.4 lineto
25600 98278.4 lineto
25600 98329.5 lineto
25562.1 98421.4 lineto
25491.8 98491.8 lineto
25399.9 98530 lineto
25300.5 98530 lineto
24600.5 98530 lineto
24587.4 98524.6 lineto
25246.4 99183.6 lineto
25246.4 99183.6 lineto
25246.4 99183.6 lineto
25321.9 99296.7 lineto
25348.4 99430 lineto
25348.4 101036 lineto
25444.8 101132 lineto
25524.9 101325 lineto
25525 101412 lineto
26026.9 100910 lineto
25988.2 100872 lineto
25950 100780 lineto
25950 100680 lineto
25950 100080 lineto
25987.9 99988.6 lineto
26058.2 99918.2 lineto
26150.1 99880 lineto
26161.5 99880 lineto
26173.7 99818.8 lineto
26178.1 99796.7 lineto
26253.6 99683.6 lineto
28253.6 97683.6 lineto
28253.6 97683.6 lineto
28366.7 97608.1 lineto
28500 97581.6 lineto
28500 97581.6 lineto
28500 97581.6 lineto
29000 97581.6 lineto
29159.7 97421.6 lineto
29380.1 97330.1 lineto
29618.8 97329.9 lineto
29839.4 97421 lineto
30008.4 97589.7 lineto
30099.9 97810.1 lineto
30100.1 98048.8 lineto
30100.1 100049 lineto
30009 100269 lineto
29840.3 100438 lineto
29619.9 100530 lineto
29381.2 100530 lineto
29160.6 100439 lineto
28991.6 100270 lineto
28900.1 100050 lineto
28899.9 99811.2 lineto
28991 99590.6 lineto
29065.8 99515.7 lineto
29008.6 99492.1 lineto
28938.2 99421.8 lineto
28900 99329.9 lineto
28900 99230.5 lineto
28900 99042.5 lineto
28962.5 98980 lineto
29450 98980 lineto
29450 98987.9 lineto
29550 98987.9 lineto
29550 98980 lineto
30037.5 98980 lineto
30100 99042.5 lineto
30100 99230.5 lineto
30100 99329.9 lineto
30061.8 99421.8 lineto
29991.4 99492.1 lineto
29934.2 99515.7 lineto
30008.4 99589.7 lineto
30099.9 99810.1 lineto
30100.1 100049 lineto
30100.1 98048.8 lineto
30009 98269.4 lineto
29934.2 98344.3 lineto
29991.4 98367.9 lineto
30061.8 98438.2 lineto
30100 98530.1 lineto
30100 98629.5 lineto
30100 98817.5 lineto
30037.5 98880 lineto
29550 98880 lineto
29550 98872.1 lineto
29450 98872.1 lineto
29450 98880 lineto
28962.5 98880 lineto
28900 98817.5 lineto
28900 98629.5 lineto
28900 98530.1 lineto
28938.2 98438.2 lineto
29008.6 98367.9 lineto
29065.8 98344.3 lineto
28999.8 98278.4 lineto
28644.3 98278.4 lineto
28054.8 98868 lineto
28054.8 100348 lineto
28043.8 100567 lineto
27981.3 100718 lineto
27885.9 100745 lineto
27815.2 100674 lineto
27815.2 100816 lineto
27787.9 100911 lineto
27581.8 100985 lineto
27363.2 100974 lineto
27212.1 100911 lineto
27184.8 100816 lineto
27500 100501 lineto
27815.2 100816 lineto
27815.2 100674 lineto
27570.7 100430 lineto
27885.9 100115 lineto
27981.3 100142 lineto
28054.8 100348 lineto
28054.8 98868 lineto
27815.2 99107.5 lineto
27815.2 100044 lineto
27500 100359 lineto
27184.8 100044 lineto
27212.1 99948.7 lineto
27418.2 99875.2 lineto
27636.8 99886.2 lineto
27787.9 99948.7 lineto
27815.2 100044 lineto
27815.2 99107.5 lineto
26973.1 99949.6 lineto
27011.8 99988.2 lineto
27050 100080 lineto
27050 100133 lineto
27114.1 100115 lineto
27429.3 100430 lineto
27114.1 100745 lineto
27050 100727 lineto
27050 100780 lineto
27012.1 100871 lineto
26941.8 100942 lineto
26849.9 100980 lineto
26838.5 100980 lineto
26821.9 101063 lineto
26746.4 101176 lineto
26746.4 101176 lineto
25246.4 102676 lineto
25133.3 102752 lineto
25111.2 102756 lineto
25000 102778 lineto
25000 102778 lineto
24515.2 102778 lineto
24487.1 102846 lineto
24416.8 102917 lineto
24324.9 102955 lineto
24315.2 102955 lineto
24315.2 105044 lineto
24000 105359 lineto
23929.3 105289 lineto
23929.3 105430 lineto
23614.1 105745 lineto
23518.7 105718 lineto
23445.2 105512 lineto
23456.2 105293 lineto
23518.7 105142 lineto
23614.1 105115 lineto
23929.3 105430 lineto
23929.3 105289 lineto
23684.8 105044 lineto
23712.1 104949 lineto
23918.2 104875 lineto
24136.8 104886 lineto
24287.9 104949 lineto
24315.2 105044 lineto
24315.2 102955 lineto
24225.5 102955 lineto
23845.2 102955 lineto
23991.4 103101 lineto
24079.9 103314 lineto
24080.1 103545 lineto
23992 103758 lineto
23848.4 103902 lineto
23848.4 103930 lineto
23821.9 104063 lineto
23746.4 104176 lineto
23746.4 104176 lineto
22848.4 105074 lineto
22848.4 106286 lineto
23144.3 106582 lineto
27651.6 106582 lineto
27651.6 105278 lineto
27554.8 105278 lineto
27554.8 105848 lineto
27543.8 106067 lineto
27481.3 106218 lineto
27385.9 106245 lineto
27315.2 106174 lineto
27315.2 106316 lineto
27287.9 106411 lineto
27081.8 106485 lineto
26863.2 106474 lineto
26712.1 106411 lineto
26684.8 106316 lineto
27000 106001 lineto
27315.2 106316 lineto
27315.2 106174 lineto
27070.7 105930 lineto
27385.9 105615 lineto
27481.3 105642 lineto
27554.8 105848 lineto
27554.8 105278 lineto
27550 105278 lineto
27550 105280 lineto
27512.1 105371 lineto
27441.8 105442 lineto
27349.9 105480 lineto
27296.8 105480 lineto
27315.2 105544 lineto
27000 105859 lineto
26929.3 105789 lineto
26929.3 105930 lineto
26614.1 106245 lineto
26518.7 106218 lineto
26445.2 106012 lineto
26456.2 105793 lineto
26518.7 105642 lineto
26614.1 105615 lineto
26929.3 105930 lineto
26929.3 105789 lineto
26684.8 105544 lineto
26703.2 105480 lineto
26650.5 105480 lineto
26558.6 105442 lineto
26488.2 105372 lineto
26450 105280 lineto
26450 105180 lineto
26450 104580 lineto
26487.9 104489 lineto
26558.2 104418 lineto
26650.1 104380 lineto
26749.5 104380 lineto
27349.5 104380 lineto
27441.4 104418 lineto
27511.8 104488 lineto
27550 104580 lineto
27550 104582 lineto
28000 104582 lineto
28133.3 104608 lineto
28246.4 104684 lineto
28321.9 104797 lineto
28348.4 104930 lineto
28348.4 106930 lineto
28321.9 107063 lineto
28246.4 107176 lineto
28133.3 107252 lineto
28000 107278 lineto
23348.4 107278 lineto
23348.4 107582 lineto
29855.7 107582 lineto
30151.6 107286 lineto
30151.6 102778 lineto
30100.1 102778 lineto
30100.1 104549 lineto
30009 104769 lineto
29840.3 104938 lineto
29619.9 105030 lineto
29381.2 105030 lineto
29160.6 104939 lineto
28999.8 104778 lineto
28500 104778 lineto
28500 104778 lineto
28366.7 104752 lineto
28253.6 104676 lineto
28253.6 104676 lineto
27855.7 104278 lineto
26644.3 104278 lineto
25550 105373 lineto
25550 105780 lineto
25512.1 105871 lineto
25441.8 105942 lineto
25349.9 105980 lineto
25250.5 105980 lineto
24650.5 105980 lineto
24558.6 105942 lineto
24488.2 105872 lineto
24450 105780 lineto
24450 105727 lineto
24385.9 105745 lineto
24315.2 105674 lineto
24315.2 105816 lineto
24287.9 105911 lineto
24081.8 105985 lineto
23863.2 105974 lineto
23712.1 105911 lineto
23684.8 105816 lineto
24000 105501 lineto
24315.2 105816 lineto
24315.2 105674 lineto
24070.7 105430 lineto
24385.9 105115 lineto
24450 105133 lineto
24450 105080 lineto
24487.9 104989 lineto
24558.2 104918 lineto
24650.1 104880 lineto
24749.5 104880 lineto
25057.3 104880 lineto
26253.6 103684 lineto
26253.6 103684 lineto
26366.7 103608 lineto
26500 103582 lineto
28000 103582 lineto
28000 103582 lineto
28000 103582 lineto
28111.2 103604 lineto
28133.3 103608 lineto
28133.3 103608 lineto
28246.4 103684 lineto
28644.3 104082 lineto
29000 104082 lineto
29065.8 104016 lineto
29008.6 103992 lineto
28938.2 103922 lineto
28900 103830 lineto
28900 103730 lineto
28900 103542 lineto
28962.5 103480 lineto
29450 103480 lineto
29450 103488 lineto
29550 103488 lineto
29550 103480 lineto
30037.5 103480 lineto
30100 103542 lineto
30100 103730 lineto
30100 103830 lineto
30061.8 103922 lineto
29991.4 103992 lineto
29934.2 104016 lineto
30008.4 104090 lineto
30099.9 104310 lineto
30100.1 104549 lineto
30100.1 102778 lineto
30000 102778 lineto
29934.2 102844 lineto
29991.4 102868 lineto
30061.8 102938 lineto
30100 103030 lineto
30100 103130 lineto
30100 103318 lineto
30037.5 103380 lineto
29550 103380 lineto
29550 103372 lineto
29450 103372 lineto
29450 103380 lineto
28962.5 103380 lineto
28900 103318 lineto
28900 103130 lineto
28900 103030 lineto
28938.2 102938 lineto
29008.6 102868 lineto
29065.8 102844 lineto
28991.6 102770 lineto
28900.1 102550 lineto
28899.9 102311 lineto
28991 102091 lineto
29159.7 101922 lineto
29380.1 101830 lineto
29618.8 101830 lineto
29839.4 101921 lineto
30000.2 102082 lineto
30500 102082 lineto
30633.3 102108 lineto
30746.4 102184 lineto
30821.9 102297 lineto
30848.4 102430 lineto
30848.4 107430 lineto
30848.4 107430 lineto
30848.4 107430 lineto
30821.9 107563 lineto
30746.4 107676 lineto
30746.4 107676 lineto
30246.4 108176 lineto
30133.3 108252 lineto
30111.2 108256 lineto
30000 108278 lineto
30000 108278 lineto
23000 108278 lineto
20000 108278 lineto
17000 108278 lineto
14000 108278 lineto
13866.7 108252 lineto
13753.6 108176 lineto
13678.1 108063 lineto
13651.6 107930 lineto
13651.6 107324 lineto
13555.2 107228 lineto
13525 107155 lineto
13525 107155 lineto
13525 107255 lineto
13486.8 107347 lineto
13416.4 107417 lineto
13324.5 107455 lineto
13112.5 107455 lineto
13050 107392 lineto
13050 106980 lineto
13057.9 106980 lineto
13057.9 106880 lineto
13050 106880 lineto
13050 106468 lineto
13112.5 106405 lineto
13324.5 106405 lineto
13416.4 106443 lineto
13486.8 106513 lineto
13525 106605 lineto
13525 106705 lineto
13525 106705 lineto
13554.7 106633 lineto
13651.6 106536 lineto
13651.6 105930 lineto
13651.6 105930 lineto
13673.7 105819 lineto
13678.1 105797 lineto
13753.6 105684 lineto
14253.6 105184 lineto
14253.6 105184 lineto
14753.6 104684 lineto
14753.6 104684 lineto
14866.7 104608 lineto
15000 104582 lineto
15000 104582 lineto
15000 104582 lineto
16855.7 104582 lineto
17253.6 104184 lineto
17253.6 104184 lineto
17366.7 104108 lineto
17500 104082 lineto
17500 104082 lineto
17500 104082 lineto
18355.7 104082 lineto
18546.8 103890 lineto
18450.3 103826 lineto
18328.9 103644 lineto
18286.3 103430 lineto
18328.9 103216 lineto
18450.3 103034 lineto
18606 102930 lineto
18450.3 102826 lineto
18328.9 102644 lineto
18286.3 102430 lineto
18328.9 102216 lineto
18450.3 102034 lineto
18606 101930 lineto
18450.3 101826 lineto
18328.9 101644 lineto
18286.3 101430 lineto
18328.9 101216 lineto
18450.3 101034 lineto
18606 100930 lineto
18450.3 100826 lineto
18328.9 100644 lineto
18286.3 100430 lineto
18328.9 100216 lineto
18450.3 100034 lineto
18606 99930 lineto
18450.3 99826 lineto
18328.9 99644.3 lineto
18286.3 99430 lineto
18328.9 99215.7 lineto
18450.3 99034 lineto
18606 98930 lineto
18450.3 98826 lineto
18328.9 98644.3 lineto
18286.3 98430 lineto
18328.9 98215.7 lineto
18450.3 98034 lineto
18606 97930 lineto
18450.3 97826 lineto
18328.9 97644.3 lineto
18286.3 97430 lineto
18328.9 97215.7 lineto
18450.3 97034 lineto
18606 96930 lineto
18450.3 96826 lineto
18328.9 96644.3 lineto
18286.3 96430 lineto
18328.9 96215.7 lineto
18450.3 96034 lineto
18606 95930 lineto
18450.3 95826 lineto
18328.9 95644.3 lineto
18286.3 95430 lineto
18328.9 95215.7 lineto
18450.3 95034 lineto
18606 94930 lineto
18450.3 94826 lineto
18328.9 94644.3 lineto
18286.3 94430 lineto
18328.9 94215.7 lineto
18450.3 94034 lineto
18632 93912.6 lineto
18846.3 93870 lineto
19153.7 93870 lineto
19368 93912.6 lineto
19549.7 94034 lineto
19671.1 94215.7 lineto
19713.7 94430 lineto
19671.1 94644.3 lineto
19549.7 94826 lineto
19394 94930 lineto
19549.7 95034 lineto
19671.1 95215.7 lineto
19713.7 95430 lineto
19671.1 95644.3 lineto
19549.7 95826 lineto
19394 95930 lineto
19549.7 96034 lineto
19671.1 96215.7 lineto
19713.7 96430 lineto
19671.1 96644.3 lineto
19549.7 96826 lineto
19394 96930 lineto
19549.7 97034 lineto
19581.5 97081.6 lineto
20000 97081.6 lineto
21000 97081.6 lineto
21133.3 97108.1 lineto
21246.4 97183.6 lineto
21321.9 97296.7 lineto
21348.4 97430 lineto
21348.4 106536 lineto
21444.8 106632 lineto
21524.9 106825 lineto
21525.1 107034 lineto
21445.3 107227 lineto
21297.8 107375 lineto
21104.9 107455 lineto
20896 107455 lineto
20703 107375 lineto
20555.2 107228 lineto
20500 107095 lineto
20445.3 107227 lineto
20348.4 107324 lineto
20348.4 107582 lineto
22651.6 107582 lineto
22651.6 107074 lineto
22253.6 106676 lineto
22178.1 106563 lineto
22173.7 106541 lineto
22151.6 106430 lineto
22151.6 106430 lineto
22151.6 104930 lineto
22151.6 104930 lineto
22173.7 104819 lineto
22178.1 104797 lineto
22253.6 104684 lineto
23093.5 103844 lineto
23008.6 103759 lineto
23000.1 103739 lineto
22992 103758 lineto
22829 103921 lineto
22615.9 104010 lineto
22385.1 104010 lineto
22171.9 103922 lineto
22008.6 103759 lineto
21920.1 103546 lineto
21919.9 103315 lineto
22008 103102 lineto
22151.6 102958 lineto
22151.6 100324 lineto
22055.2 100228 lineto
21975.1 100035 lineto
21974.9 99826 lineto
22054.7 99633 lineto
22202.2 99485.2 lineto
22395.1 99405.1 lineto
22604 99404.9 lineto
22797 99484.7 lineto
22944.8 99632.2 lineto
23024.9 99825.1 lineto
23025.1 100034 lineto
22945.3 100227 lineto
22848.4 100324 lineto
22848.4 102958 lineto
22991.4 103101 lineto
22999.9 103121 lineto
23008 103102 lineto
23171 102939 lineto
23384.1 102850 lineto
23516.4 102850 lineto
23513.2 102847 lineto
23475 102755 lineto
23475 102655 lineto
23475 102105 lineto
23512.9 102014 lineto
23583.2 101943 lineto
23651.6 101915 lineto
23651.6 101824 lineto
23555.2 101728 lineto
23475.1 101535 lineto
23474.9 101326 lineto
23554.7 101133 lineto
23651.6 101036 lineto
23651.6 100324 lineto
23555.2 100228 lineto
23475.1 100035 lineto
23474.9 99826 lineto
23554.7 99633 lineto
23702.2 99485.2 lineto
23895.1 99405.1 lineto
24104 99404.9 lineto
24297 99484.7 lineto
24444.8 99632.2 lineto
24524.9 99825.1 lineto
24525.1 100034 lineto
24445.3 100227 lineto
24348.4 100324 lineto
24348.4 101036 lineto
24444.8 101132 lineto
24500 101265 lineto
24554.7 101133 lineto
24651.6 101036 lineto
24651.6 99574.3 lineto
23855.7 98778.4 lineto
23500 98778.4 lineto
23366.7 98751.9 lineto
23253.6 98676.4 lineto
23178.1 98563.3 lineto
23151.6 98430 lineto
23151.6 94430 lineto
23151.6 94430 lineto
23173.7 94318.8 lineto
23178.1 94296.7 lineto
23253.6 94183.6 lineto
23651.6 93785.7 lineto
23651.6 93401.7 lineto
23508.6 93259 lineto
23500.1 93238.5 lineto
23492 93258.1 lineto
23329 93421.4 lineto
23115.9 93509.9 lineto
23029.9 93510 lineto
23029.9 96854.2 lineto
23018.6 97062.8 lineto
22960.6 97202.8 lineto
22867.8 97227.1 lineto
22797.1 97156.4 lineto
22797.1 97297.8 lineto
22772.8 97390.6 lineto
22575.8 97459.9 lineto
22367.2 97448.6 lineto
22227.2 97390.6 lineto
22202.9 97297.8 lineto
22500 97000.7 lineto
22797.1 97297.8 lineto
22797.1 97156.4 lineto
22570.7 96930 lineto
22867.8 96632.9 lineto
22960.6 96657.2 lineto
23029.9 96854.2 lineto
23029.9 93510 lineto
22885.1 93510.1 lineto
22797.1 93473.7 lineto
22797.1 96562.2 lineto
22500 96859.3 lineto
22429.3 96788.6 lineto
22429.3 96930 lineto
22132.2 97227.1 lineto
22039.4 97202.8 lineto
21970.1 97005.8 lineto
21981.4 96797.2 lineto
22039.4 96657.2 lineto
22132.2 96632.9 lineto
22429.3 96930 lineto
22429.3 96788.6 lineto
22202.9 96562.2 lineto
22227.2 96469.4 lineto
22424.2 96400.1 lineto
22632.8 96411.4 lineto
22772.8 96469.4 lineto
22797.1 96562.2 lineto
22797.1 93473.7 lineto
22671.9 93422 lineto
22529.9 93280.2 lineto
22529.9 95854.2 lineto
22518.6 96062.8 lineto
22460.6 96202.8 lineto
22367.8 96227.1 lineto
22297.1 96156.4 lineto
22297.1 96297.8 lineto
22272.8 96390.6 lineto
22075.8 96459.9 lineto
21867.2 96448.6 lineto
21727.2 96390.6 lineto
21702.9 96297.8 lineto
22000 96000.7 lineto
22297.1 96297.8 lineto
22297.1 96156.4 lineto
22070.7 95930 lineto
22367.8 95632.9 lineto
22460.6 95657.2 lineto
22529.9 95854.2 lineto
22529.9 93280.2 lineto
22528.1 93278.4 lineto
22394 93278.4 lineto
22297.8 93374.8 lineto
22297.1 93375.1 lineto
22297.1 95562.2 lineto
22000 95859.3 lineto
21929.3 95788.6 lineto
21929.3 95930 lineto
21632.2 96227.1 lineto
21539.4 96202.8 lineto
21470.1 96005.8 lineto
21481.4 95797.2 lineto
21539.4 95657.2 lineto
21632.2 95632.9 lineto
21929.3 95930 lineto
21929.3 95788.6 lineto
21702.9 95562.2 lineto
21727.2 95469.4 lineto
21924.2 95400.1 lineto
22132.8 95411.4 lineto
22272.8 95469.4 lineto
22297.1 95562.2 lineto
22297.1 93375.1 lineto
22104.9 93454.9 lineto
21896 93455.1 lineto
21703 93375.3 lineto
21555.2 93227.8 lineto
21475.1 93034.9 lineto
21474.9 92826 lineto
21554.7 92633 lineto
21702.2 92485.2 lineto
21895.1 92405.1 lineto
22104 92404.9 lineto
22297 92484.7 lineto
22394.1 92581.6 lineto
22528.3 92581.6 lineto
22671 92438.6 lineto
22884.1 92350.1 lineto
23114.9 92349.9 lineto
23328.1 92438 lineto
23491.4 92601 lineto
23499.9 92621.5 lineto
23508 92601.9 lineto
23671 92438.6 lineto
23884.1 92350.1 lineto
24114.9 92349.9 lineto
24328.1 92438 lineto
24488.1 92597.7 lineto
24491 92590.6 lineto
24659.7 92421.6 lineto
24880.1 92330.1 lineto
25118.8 92329.9 lineto
25339.4 92421 lineto
25500.2 92581.6 lineto
26405 92581.6 lineto
26405 92199.7 lineto
16713.7 92199.7 lineto
16713.7 95430 lineto
16671.1 95644.3 lineto
16549.7 95826 lineto
16394 95930 lineto
16549.7 96034 lineto
16671.1 96215.7 lineto
16713.7 96430 lineto
16671.1 96644.3 lineto
16549.7 96826 lineto
16394 96930 lineto
16549.7 97034 lineto
16671.1 97215.7 lineto
16713.7 97430 lineto
16671.1 97644.3 lineto
16549.7 97826 lineto
16394 97930 lineto
16549.7 98034 lineto
16671.1 98215.7 lineto
16713.7 98430 lineto
16671.1 98644.3 lineto
16549.7 98826 lineto
16394 98930 lineto
16549.7 99034 lineto
16671.1 99215.7 lineto
16713.7 99430 lineto
16671.1 99644.3 lineto
16549.7 99826 lineto
16394 99930 lineto
16549.7 100034 lineto
16671.1 100216 lineto
16713.7 100430 lineto
16671.1 100644 lineto
16549.7 100826 lineto
16394 100930 lineto
16549.7 101034 lineto
16671.1 101216 lineto
16713.7 101430 lineto
16671.1 101644 lineto
16549.7 101826 lineto
16394 101930 lineto
16549.7 102034 lineto
16671.1 102216 lineto
16713.7 102430 lineto
16671.1 102644 lineto
16549.7 102826 lineto
16483.9 102870 lineto
16499.5 102870 lineto
16591.4 102908 lineto
16661.8 102978 lineto
16700 103070 lineto
16700 103170 lineto
16700 103790 lineto
16662.1 103881 lineto
16591.8 103952 lineto
16499.9 103990 lineto
16400.5 103990 lineto
15500.5 103990 lineto
15408.6 103952 lineto
15338.2 103882 lineto
15300 103790 lineto
15300 103778 lineto
15255.8 103778 lineto
15242.3 103792 lineto
15085.3 103857 lineto
14915.4 103857 lineto
14758.3 103792 lineto
14638.1 103672 lineto
14572.9 103515 lineto
14572.8 103345 lineto
14637.7 103188 lineto
14757.7 103068 lineto
14914.7 103003 lineto
15084.6 103003 lineto
15241.7 103068 lineto
15255.6 103082 lineto
15300 103082 lineto
15300 103070 lineto
15337.9 102979 lineto
15408.2 102908 lineto
15500.1 102870 lineto
15516.2 102870 lineto
15450.3 102826 lineto
15418.5 102778 lineto
14000 102778 lineto
13866.7 102752 lineto
13753.6 102676 lineto
13678.1 102563 lineto
13651.6 102430 lineto
13651.6 97329.6 lineto
13585.3 97357.1 lineto
13554.8 97357.1 lineto
13554.8 104848 lineto
13543.8 105067 lineto
13481.3 105218 lineto
13385.9 105245 lineto
13315.2 105174 lineto
13315.2 105316 lineto
13287.9 105411 lineto
13081.8 105485 lineto
12950 105478 lineto
12950 106468 lineto
12950 106880 lineto
12950 106980 lineto
12950 107392 lineto
12887.5 107455 lineto
12675.5 107455 lineto
12583.6 107417 lineto
12513.2 107347 lineto
12475 107255 lineto
12475 107155 lineto
12475 107042 lineto
12537.5 106980 lineto
12950 106980 lineto
12950 106880 lineto
12537.5 106880 lineto
12475 106818 lineto
12475 106705 lineto
12475 106605 lineto
12513.2 106513 lineto
12583.6 106443 lineto
12675.5 106405 lineto
12887.5 106405 lineto
12950 106468 lineto
12950 105478 lineto
12863.2 105474 lineto
12712.1 105411 lineto
12684.8 105316 lineto
13000 105001 lineto
13315.2 105316 lineto
13315.2 105174 lineto
13070.7 104930 lineto
13385.9 104615 lineto
13481.3 104642 lineto
13554.8 104848 lineto
13554.8 97357.1 lineto
13415.4 97357.2 lineto
13369.6 97338.3 lineto
13312 97396 lineto
13230.1 97430 lineto
13311.1 97463.5 lineto
13466 97618 lineto
13549.9 97820.1 lineto
13550.1 98038.9 lineto
13466.5 98241.1 lineto
13312 98396 lineto
13230.1 98430 lineto
13311.1 98463.5 lineto
13466 98618 lineto
13549.9 98820.1 lineto
13550.1 99038.9 lineto
13466.5 99241.1 lineto
13312 99396 lineto
13230.1 99430 lineto
13311.1 99463.5 lineto
13466 99618 lineto
13549.9 99820.1 lineto
13550.1 100039 lineto
13466.5 100241 lineto
13312 100396 lineto
13230.1 100430 lineto
13311.1 100463 lineto
13466 100618 lineto
13549.9 100820 lineto
13550.1 101039 lineto
13466.5 101241 lineto
13312 101396 lineto
13230.1 101430 lineto
13311.1 101463 lineto
13466 101618 lineto
13549.9 101820 lineto
13550.1 102039 lineto
13466.5 102241 lineto
13312 102396 lineto
13230.1 102430 lineto
13311.1 102463 lineto
13466 102618 lineto
13549.9 102820 lineto
13550.1 103039 lineto
13466.5 103241 lineto
13312 103396 lineto
13230.1 103430 lineto
13311.1 103463 lineto
13466 103618 lineto
13549.9 103820 lineto
13550.1 104039 lineto
13466.5 104241 lineto
13312 104396 lineto
13236.3 104427 lineto
13287.9 104449 lineto
13315.2 104544 lineto
13000 104859 lineto
12684.8 104544 lineto
12712.1 104449 lineto
12767.4 104429 lineto
12688.9 104397 lineto
12534 104242 lineto
12500 104160 lineto
12466.5 104241 lineto
12328 104380 lineto
12349.5 104380 lineto
12441.4 104418 lineto
12511.8 104488 lineto
12550 104580 lineto
12550 104633 lineto
12614.1 104615 lineto
12929.3 104930 lineto
12614.1 105245 lineto
12550 105227 lineto
12550 105280 lineto
12512.1 105371 lineto
12441.8 105442 lineto
12349.9 105480 lineto
12250.5 105480 lineto
11650.5 105480 lineto
11558.6 105442 lineto
11488.2 105372 lineto
11450 105280 lineto
11450 105180 lineto
11450 104580 lineto
11487.9 104489 lineto
11558.2 104418 lineto
11650.1 104380 lineto
11672.3 104380 lineto
11534 104242 lineto
11450.1 104040 lineto
11449.9 103821 lineto
11533.5 103619 lineto
11688 103464 lineto
11769.9 103430 lineto
11688.9 103397 lineto
11534 103242 lineto
11450.1 103040 lineto
11449.9 102821 lineto
11533.5 102619 lineto
11688 102464 lineto
11769.9 102430 lineto
11688.9 102397 lineto
11534 102242 lineto
11450.1 102040 lineto
11449.9 101821 lineto
11533.5 101619 lineto
11688 101464 lineto
11769.9 101430 lineto
11688.9 101397 lineto
11534 101242 lineto
11450.1 101040 lineto
11449.9 100821 lineto
11533.5 100619 lineto
11688 100464 lineto
11769.9 100430 lineto
11688.9 100397 lineto
11534 100242 lineto
11450.1 100040 lineto
11449.9 99821.1 lineto
11533.5 99618.9 lineto
11688 99464 lineto
11769.9 99430 lineto
11688.9 99396.5 lineto
11534 99242 lineto
11450.1 99039.9 lineto
11449.9 98821.1 lineto
11533.5 98618.9 lineto
11688 98464 lineto
11769.9 98430 lineto
11688.9 98396.5 lineto
11534 98242 lineto
11450.1 98039.9 lineto
11449.9 97821.1 lineto
11533.5 97618.9 lineto
11688 97464 lineto
11769.9 97430 lineto
11688.9 97396.5 lineto
11534 97242 lineto
11450.1 97039.9 lineto
11449.9 96821.1 lineto
11533.5 96618.9 lineto
11688 96464 lineto
11769.9 96430 lineto
11688.9 96396.5 lineto
11534 96242 lineto
11450.1 96039.9 lineto
11449.9 95821.1 lineto
11533.5 95618.9 lineto
11688 95464 lineto
11769.9 95430 lineto
11688.9 95396.5 lineto
11534 95242 lineto
11450.1 95039.9 lineto
11449.9 94821.1 lineto
11533.5 94618.9 lineto
11688 94464 lineto
11769.9 94430 lineto
11688.9 94396.5 lineto
11534 94242 lineto
11450.1 94039.9 lineto
11449.9 93821.1 lineto
11533.5 93618.9 lineto
11688 93464 lineto
11890.1 93380.1 lineto
12108.9 93379.9 lineto
12311.1 93463.5 lineto
12466 93618 lineto
12500 93699.9 lineto
12533.5 93618.9 lineto
12688 93464 lineto
12890.1 93380.1 lineto
13108.9 93379.9 lineto
13151.6 93397.5 lineto
13151.6 93278.4 lineto
10848.4 93278.4 lineto
10848.4 96500.7 lineto
10966 96618 lineto
11049.9 96820.1 lineto
11050.1 97038.9 lineto
10966.5 97241.1 lineto
10812 97396 lineto
10730.1 97430 lineto
10811.1 97463.5 lineto
10966 97618 lineto
11049.9 97820.1 lineto
11050.1 98038.9 lineto
10966.5 98241.1 lineto
10827.9 98380 lineto
10849.9 98380 lineto
10941.8 98418.2 lineto
11012.1 98488.6 lineto
11050 98580.5 lineto
11050 99279.5 lineto
11012.1 99371.4 lineto
10941.8 99441.8 lineto
10849.9 99480 lineto
10750.5 99480 lineto
10612.5 99480 lineto
10550 99417.5 lineto
10550 98980 lineto
10987.5 98980 lineto
11050 99042.5 lineto
11050 99279.5 lineto
11050 98580.5 lineto
11050 98817.5 lineto
10987.5 98880 lineto
10550 98880 lineto
10550 98872.1 lineto
10450 98872.1 lineto
10450 98880 lineto
10450 98980 lineto
10450 99417.5 lineto
10387.5 99480 lineto
10249.5 99480 lineto
10150.1 99480 lineto
10058.2 99441.8 lineto
9987.94 99371.4 lineto
9949.96 99279.5 lineto
9950 99042.5 lineto
10012.5 98980 lineto
10450 98980 lineto
10450 98880 lineto
10012.5 98880 lineto
9950 98817.5 lineto
9949.96 98580.5 lineto
9987.94 98488.6 lineto
10058.2 98418.2 lineto
10150.1 98380 lineto
10172.3 98380 lineto
10034 98242 lineto
9950.1 98039.9 lineto
9949.91 97821.1 lineto
10033.5 97618.9 lineto
10188 97464 lineto
10269.9 97430 lineto
10188.9 97396.5 lineto
10034 97242 lineto
9950.1 97039.9 lineto
9949.91 96821.1 lineto
10033.5 96618.9 lineto
10151.6 96500.5 lineto
10151.6 92930 lineto
10178.1 92796.7 lineto
10253.6 92683.6 lineto
10366.7 92608.1 lineto
10500 92581.6 lineto
13500 92581.6 lineto
13633.3 92608.1 lineto
13746.4 92683.6 lineto
13821.9 92796.7 lineto
13848.4 92930 lineto
13848.4 93530.4 lineto
13914.7 93502.9 lineto
14084.6 93502.8 lineto
14151.6 93530.4 lineto
14151.6 93185.8 lineto
14138.1 93172.3 lineto
14072.9 93015.3 lineto
14072.8 92845.4 lineto
14137.7 92688.3 lineto
14257.7 92568.1 lineto
14414.7 92502.9 lineto
14584.6 92502.8 lineto
14741.7 92567.7 lineto
14861.9 92687.7 lineto
14927.1 92844.7 lineto
14927.2 93014.6 lineto
14862.3 93171.7 lineto
14848.4 93185.6 lineto
14848.4 97030.4 lineto
14914.7 97002.9 lineto
15084.6 97002.8 lineto
15241.7 97067.7 lineto
15353.3 97179.1 lineto
15450.3 97034 lineto
15606 96930 lineto
15450.3 96826 lineto
15328.9 96644.3 lineto
15286.3 96430 lineto
15328.9 96215.7 lineto
15450.3 96034 lineto
15606 95930 lineto
15450.3 95826 lineto
15328.9 95644.3 lineto
15286.3 95430 lineto
15328.9 95215.7 lineto
15450.3 95034 lineto
15605.8 94930.1 lineto
15599.5 94928.2 lineto
15428.7 94790.6 lineto
15323.5 94598.1 lineto
15316.9 94566.6 lineto
15365 94480 lineto
15950 94480 lineto
15950 94487.9 lineto
16050 94487.9 lineto
16050 94480 lineto
16635 94480 lineto
16683.1 94566.6 lineto
16676.5 94598.1 lineto
16571.3 94790.6 lineto
16400.5 94928.2 lineto
16394.2 94930.1 lineto
16549.7 95034 lineto
16671.1 95215.7 lineto
16713.7 95430 lineto
16713.7 92199.7 lineto
16683.1 92199.7 lineto
16683.1 94293.4 lineto
16635 94380 lineto
16050 94380 lineto
16050 93870 lineto
16190 93870 lineto
16400.5 93931.8 lineto
16571.3 94069.4 lineto
16676.5 94261.9 lineto
16683.1 94293.4 lineto
16683.1 92199.7 lineto
15950 92199.7 lineto
15950 93870 lineto
15950 94380 lineto
15365 94380 lineto
15316.9 94293.4 lineto
15323.5 94261.9 lineto
15428.7 94069.4 lineto
15599.5 93931.8 lineto
15810 93870 lineto
15950 93870 lineto
15950 92199.7 lineto
9769.69 92199.7 lineto
9769.69 108660 lineto
31230.3 108660 lineto
31230.3 92199.7 lineto
poly0
showpage
grestore
%%EOF
