ARM GAS  /tmp/cc791jEN.s 			page 1


   1              		.syntax unified
   2              		.cpu cortex-m3
   3              		.fpu softvfp
   4              		.eabi_attribute 20, 1
   5              		.eabi_attribute 21, 1
   6              		.eabi_attribute 23, 3
   7              		.eabi_attribute 24, 1
   8              		.eabi_attribute 25, 1
   9              		.eabi_attribute 26, 1
  10              		.eabi_attribute 30, 2
  11              		.eabi_attribute 34, 1
  12              		.eabi_attribute 18, 4
  13              		.thumb
  14              		.file	"chcore_v7m.c"
  15              		.text
  16              	.Ltext0:
  17              		.cfi_sections	.debug_frame
  18              		.section	.text._port_switch_from_isr,"ax",%progbits
  19              		.align	2
  20              		.p2align 4,,15
  21              		.global	_port_switch_from_isr
  22              		.thumb
  23              		.thumb_func
  24              		.type	_port_switch_from_isr, %function
  25              	_port_switch_from_isr:
  26              	.LFB11:
  27              		.file 1 "../../os/ports/GCC/ARMCMx/chcore_v7m.c"
  28              		.loc 1 207 0
  29              		.cfi_startproc
  30              		@ Naked Function: prologue and epilogue provided by programmer.
  31              		@ args = 0, pretend = 0, frame = 0
  32              		@ frame_needed = 0, uses_anonymous_args = 0
  33              		.loc 1 210 0
  34 0000 FFF7FEFF 		bl	chSchDoReschedule
  35              		.loc 1 212 0
  36              	@ 212 "../../os/ports/GCC/ARMCMx/chcore_v7m.c" 1
  37              		_port_exit_from_isr:
  38              	@ 0 "" 2
  39              		.loc 1 214 0
  40              	@ 214 "../../os/ports/GCC/ARMCMx/chcore_v7m.c" 1
  41 0004 00DF     		svc     #0
  42              	@ 0 "" 2
  43              		.loc 1 221 0
  44              		.thumb
  45              		.cfi_endproc
  46              	.LFE11:
  47              		.size	_port_switch_from_isr, .-_port_switch_from_isr
  48 0006 00BFAFF3 		.section	.text.SVCallVector,"ax",%progbits
  48      0080AFF3 
  48      0080
  49              		.align	2
  50              		.p2align 4,,15
  51              		.global	SVCallVector
  52              		.thumb
  53              		.thumb_func
  54              		.type	SVCallVector, %function
  55              	SVCallVector:
ARM GAS  /tmp/cc791jEN.s 			page 2


  56              	.LFB8:
  57              		.loc 1 65 0
  58              		.cfi_startproc
  59              		@ args = 0, pretend = 0, frame = 0
  60              		@ frame_needed = 0, uses_anonymous_args = 0
  61              		@ link register save eliminated.
  62              		.loc 1 69 0
  63              	@ 69 "../../os/ports/GCC/ARMCMx/chcore_v7m.c" 1
  64 0000 EFF30983 		mrs     r3, PSP
  65              	@ 0 "" 2
  66              	.LVL0:
  67              		.loc 1 73 0
  68              		.thumb
  69 0004 2033     		adds	r3, r3, #32
  70              	.LVL1:
  71              		.loc 1 80 0
  72              	@ 80 "../../os/ports/GCC/ARMCMx/chcore_v7m.c" 1
  73 0006 83F30988 		msr     PSP, r3
  74              	@ 0 "" 2
  75              		.thumb
  76              	.LBB2:
  77              		.loc 1 81 0
  78 000a 0023     		movs	r3, #0
  79              	.LVL2:
  80              	@ 81 "../../os/ports/GCC/ARMCMx/chcore_v7m.c" 1
  81 000c 83F31188 		msr     BASEPRI, r3
  82              	@ 0 "" 2
  83              	.LVL3:
  84              		.thumb
  85              	.LBE2:
  86              		.loc 1 82 0
  87 0010 7047     		bx	lr
  88              		.cfi_endproc
  89              	.LFE8:
  90              		.size	SVCallVector, .-SVCallVector
  91 0012 00BFAFF3 		.section	.text._port_init,"ax",%progbits
  91      0080AFF3 
  91      0080AFF3 
  91      0080
  92              		.align	2
  93              		.p2align 4,,15
  94              		.global	_port_init
  95              		.thumb
  96              		.thumb_func
  97              		.type	_port_init, %function
  98              	_port_init:
  99              	.LFB9:
 100              		.loc 1 118 0
 101              		.cfi_startproc
 102              		@ args = 0, pretend = 0, frame = 0
 103              		@ frame_needed = 0, uses_anonymous_args = 0
 104 0000 08B5     		push	{r3, lr}
 105              	.LCFI0:
 106              		.cfi_def_cfa_offset 8
 107              		.cfi_offset 14, -4
 108              		.cfi_offset 3, -8
 109              		.loc 1 122 0
ARM GAS  /tmp/cc791jEN.s 			page 3


 110 0002 0022     		movs	r2, #0
 111              		.loc 1 121 0
 112 0004 4FF46D43 		mov	r3, #60672
 113 0008 CEF20003 		movt	r3, 57344
 114              		.loc 1 122 0
 115 000c C0F2FA52 		movt	r2, 1530
 116              		.loc 1 121 0
 117 0010 0021     		movs	r1, #0
 118 0012 9960     		str	r1, [r3, #8]
 119              		.loc 1 125 0
 120 0014 0720     		movs	r0, #7
 121 0016 1021     		movs	r1, #16
 122              		.loc 1 122 0
 123 0018 DA60     		str	r2, [r3, #12]
 124              		.loc 1 125 0
 125 001a FFF7FEFF 		bl	nvicSetSystemHandlerPriority
 126              		.loc 1 127 0
 127 001e 0A20     		movs	r0, #10
 128 0020 4FF40071 		mov	r1, #512
 129 0024 FFF7FEFF 		bl	nvicSetSystemHandlerPriority
 130              		.loc 1 129 0
 131 0028 0B20     		movs	r0, #11
 132 002a 8021     		movs	r1, #128
 133              		.loc 1 131 0
 134 002c BDE80840 		pop	{r3, lr}
 135              		.loc 1 129 0
 136 0030 FFF7FEBF 		b	nvicSetSystemHandlerPriority
 137              		.cfi_endproc
 138              	.LFE9:
 139              		.size	_port_init, .-_port_init
 140 0034 AFF30080 		.section	.text._port_irq_epilogue,"ax",%progbits
 140      AFF30080 
 140      AFF30080 
 141              		.align	2
 142              		.p2align 4,,15
 143              		.global	_port_irq_epilogue
 144              		.thumb
 145              		.thumb_func
 146              		.type	_port_irq_epilogue, %function
 147              	_port_irq_epilogue:
 148              	.LFB10:
 149              		.loc 1 148 0
 150              		.cfi_startproc
 151              		@ args = 0, pretend = 0, frame = 0
 152              		@ frame_needed = 0, uses_anonymous_args = 0
 153              		@ link register save eliminated.
 154              	.LBB3:
 155              		.loc 1 150 0
 156 0000 2023     		movs	r3, #32
 157              	.LVL4:
 158              	@ 150 "../../os/ports/GCC/ARMCMx/chcore_v7m.c" 1
 159 0002 83F31188 		msr     BASEPRI, r3
 160              	@ 0 "" 2
 161              	.LVL5:
 162              		.thumb
 163              	.LBE3:
 164              		.loc 1 151 0
ARM GAS  /tmp/cc791jEN.s 			page 4


 165 0006 4FF46D40 		mov	r0, #60672
 166 000a CEF20000 		movt	r0, 57344
 167 000e 4368     		ldr	r3, [r0, #4]
 168              	.LVL6:
 169 0010 13F40063 		ands	r3, r3, #2048
 170 0014 1FD0     		beq	.L5
 171              	.LBB4:
 172              		.loc 1 155 0
 173              	@ 155 "../../os/ports/GCC/ARMCMx/chcore_v7m.c" 1
 174 0016 EFF30982 		mrs     r2, PSP
 175              	@ 0 "" 2
 176              	.LVL7:
 177              		.loc 1 159 0
 178              		.thumb
 179 001a A2F1200C 		sub	ip, r2, #32
 180              		.loc 1 160 0
 181              	@ 160 "../../os/ports/GCC/ARMCMx/chcore_v7m.c" 1
 182 001e 8CF30988 		msr     PSP, ip
 183              	@ 0 "" 2
 184              		.loc 1 165 0
 185              		.thumb
 186 0022 40F20003 		movw	r3, #:lower16:rlist
 187 0026 C0F20003 		movt	r3, #:upper16:rlist
 188 002a 9969     		ldr	r1, [r3, #24]
 189              		.loc 1 161 0
 190 002c 4FF08070 		mov	r0, #16777216
 191 0030 42F8040C 		str	r0, [r2, #-4]
 192              		.loc 1 165 0
 193 0034 91B1     		cbz	r1, .L6
 194              		.loc 1 165 0 is_stmt 0 discriminator 1
 195 0036 1868     		ldr	r0, [r3, #0]
 196 0038 DB69     		ldr	r3, [r3, #28]
 197 003a 8168     		ldr	r1, [r0, #8]
 198 003c 9B68     		ldr	r3, [r3, #8]
 199 003e 9942     		cmp	r1, r3
 200 0040 94BF     		ite	ls
 201 0042 0023     		movls	r3, #0
 202 0044 0123     		movhi	r3, #1
 203 0046 9BB1     		cbz	r3, .L8
 204              	.L11:
 205              		.loc 1 167 0 is_stmt 1
 206 0048 40F20001 		movw	r1, #:lower16:_port_switch_from_isr
 207 004c C0F20001 		movt	r1, #:upper16:_port_switch_from_isr
 208 0050 42F8081C 		str	r1, [r2, #-8]
 209 0054 7047     		bx	lr
 210              	.LVL8:
 211              	.L5:
 212              	.LBE4:
 213              	.LBB5:
 214              		.loc 1 197 0
 215              	@ 197 "../../os/ports/GCC/ARMCMx/chcore_v7m.c" 1
 216 0056 83F31188 		msr     BASEPRI, r3
 217              	@ 0 "" 2
 218              	.LVL9:
 219              		.thumb
 220 005a 7047     		bx	lr
 221              	.LVL10:
ARM GAS  /tmp/cc791jEN.s 			page 5


 222              	.L6:
 223              	.LBE5:
 224              	.LBB6:
 225              		.loc 1 165 0 discriminator 2
 226 005c 1868     		ldr	r0, [r3, #0]
 227 005e DB69     		ldr	r3, [r3, #28]
 228 0060 8168     		ldr	r1, [r0, #8]
 229 0062 9B68     		ldr	r3, [r3, #8]
 230 0064 9942     		cmp	r1, r3
 231 0066 34BF     		ite	cc
 232 0068 0023     		movcc	r3, #0
 233 006a 0123     		movcs	r3, #1
 234 006c 002B     		cmp	r3, #0
 235 006e EBD1     		bne	.L11
 236              	.L8:
 237              		.loc 1 176 0
 238 0070 40F20003 		movw	r3, #:lower16:_port_exit_from_isr
 239 0074 C0F20003 		movt	r3, #:upper16:_port_exit_from_isr
 240 0078 42F8083C 		str	r3, [r2, #-8]
 241 007c 7047     		bx	lr
 242              	.LBE6:
 243              		.cfi_endproc
 244              	.LFE10:
 245              		.size	_port_irq_epilogue, .-_port_irq_epilogue
 246 007e 00BF     		.section	.text.SysTickVector,"ax",%progbits
 247              		.align	2
 248              		.p2align 4,,15
 249              		.global	SysTickVector
 250              		.thumb
 251              		.thumb_func
 252              		.type	SysTickVector, %function
 253              	SysTickVector:
 254              	.LFB7:
 255              		.loc 1 47 0
 256              		.cfi_startproc
 257              		@ args = 0, pretend = 0, frame = 0
 258              		@ frame_needed = 0, uses_anonymous_args = 0
 259 0000 08B5     		push	{r3, lr}
 260              	.LCFI1:
 261              		.cfi_def_cfa_offset 8
 262              		.cfi_offset 14, -4
 263              		.cfi_offset 3, -8
 264              	.LBB7:
 265              		.loc 1 51 0
 266 0002 2023     		movs	r3, #32
 267              	.LVL11:
 268              	@ 51 "../../os/ports/GCC/ARMCMx/chcore_v7m.c" 1
 269 0004 83F31188 		msr     BASEPRI, r3
 270              	@ 0 "" 2
 271              	.LVL12:
 272              		.thumb
 273              	.LBE7:
 274              		.loc 1 52 0
 275 0008 FFF7FEFF 		bl	chSysTimerHandlerI
 276              	.LVL13:
 277              	.LBB8:
 278              		.loc 1 53 0
ARM GAS  /tmp/cc791jEN.s 			page 6


 279 000c 0023     		movs	r3, #0
 280              	.LVL14:
 281              	@ 53 "../../os/ports/GCC/ARMCMx/chcore_v7m.c" 1
 282 000e 83F31188 		msr     BASEPRI, r3
 283              	@ 0 "" 2
 284              	.LVL15:
 285              		.thumb
 286              	.LBE8:
 287              		.loc 1 56 0
 288 0012 BDE80840 		pop	{r3, lr}
 289              		.loc 1 55 0
 290 0016 FFF7FEBF 		b	_port_irq_epilogue
 291              	.LVL16:
 292              		.cfi_endproc
 293              	.LFE7:
 294              		.size	SysTickVector, .-SysTickVector
 295              		.section	.text._port_switch,"ax",%progbits
 296              		.align	2
 297              		.p2align 4,,15
 298              		.global	_port_switch
 299              		.thumb
 300              		.thumb_func
 301              		.type	_port_switch, %function
 302              	_port_switch:
 303              	.LFB12:
 304              		.loc 1 236 0
 305              		.cfi_startproc
 306              		@ Naked Function: prologue and epilogue provided by programmer.
 307              		@ args = 0, pretend = 0, frame = 0
 308              		@ frame_needed = 0, uses_anonymous_args = 0
 309              	.LVL17:
 310              		.loc 1 238 0
 311              	@ 238 "../../os/ports/GCC/ARMCMx/chcore_v7m.c" 1
 312 0000 2DE9F04F 		push    {r4, r5, r6, r7, r8, r9, r10, r11, lr}
 313              	@ 0 "" 2
 314              		.loc 1 244 0
 315              	@ 244 "../../os/ports/GCC/ARMCMx/chcore_v7m.c" 1
 316 0004 C1F80CD0 		str     sp, [r1, #12]                          
 317 0008 D0F80CD0 		ldr     sp, [r0, #12]
 318              	@ 0 "" 2
 319              		.loc 1 250 0
 320              	@ 250 "../../os/ports/GCC/ARMCMx/chcore_v7m.c" 1
 321 000c BDE8F08F 		pop     {r4, r5, r6, r7, r8, r9, r10, r11, pc}
 322              	@ 0 "" 2
 323              		.loc 1 252 0
 324              		.thumb
 325              		.cfi_endproc
 326              	.LFE12:
 327              		.size	_port_switch, .-_port_switch
 328              		.section	.text._port_thread_start,"ax",%progbits
 329              		.align	2
 330              		.p2align 4,,15
 331              		.global	_port_thread_start
 332              		.thumb
 333              		.thumb_func
 334              		.type	_port_thread_start, %function
 335              	_port_thread_start:
ARM GAS  /tmp/cc791jEN.s 			page 7


 336              	.LFB13:
 337              		.loc 1 259 0
 338              		.cfi_startproc
 339              		@ args = 0, pretend = 0, frame = 0
 340              		@ frame_needed = 0, uses_anonymous_args = 0
 341              		@ link register save eliminated.
 342              	.LBB9:
 343              		.loc 1 261 0
 344 0000 0023     		movs	r3, #0
 345              	.LVL18:
 346              	@ 261 "../../os/ports/GCC/ARMCMx/chcore_v7m.c" 1
 347 0002 83F31188 		msr     BASEPRI, r3
 348              	@ 0 "" 2
 349              	.LVL19:
 350              		.thumb
 351              	.LBE9:
 352              		.loc 1 262 0
 353              	@ 262 "../../os/ports/GCC/ARMCMx/chcore_v7m.c" 1
 354 0006 2846     		mov     r0, r5                                 
 355 0008 A047     		blx     r4                                     
 356 000a FFF7FEFF 		bl      chThdExit
 357              	@ 0 "" 2
 358              		.loc 1 265 0
 359              		.thumb
 360 000e 7047     		bx	lr
 361              		.cfi_endproc
 362              	.LFE13:
 363              		.size	_port_thread_start, .-_port_thread_start
 364              		.text
 365              	.Letext0:
 366              		.file 2 "/opt/arm-2011q3/bin/../lib/gcc/arm-none-eabi/4.6.1/../../../../arm-none-eabi/include/stdi
 367              		.file 3 "../../os/ports/GCC/ARMCMx/chtypes.h"
 368              		.file 4 "../../os/kernel/include/chlists.h"
 369              		.file 5 "../../os/kernel/include/chthreads.h"
 370              		.file 6 "../../os/ports/GCC/ARMCMx/chcore_v7m.h"
 371              		.file 7 "../../os/ports/common/ARMCMx/nvic.h"
 372              		.file 8 "../../os/kernel/include/chschd.h"
 373              		.file 9 "../../os/kernel/include/chmtx.h"
 374              		.section	.debug_info,"",%progbits
 375              	.Ldebug_info0:
 376 0000 E6070000 		.4byte	0x7e6
 377 0004 0200     		.2byte	0x2
 378 0006 00000000 		.4byte	.Ldebug_abbrev0
 379 000a 04       		.byte	0x4
 380 000b 01       		.uleb128 0x1
 381 000c 60020000 		.4byte	.LASF89
 382 0010 01       		.byte	0x1
 383 0011 C8020000 		.4byte	.LASF90
 384 0015 6C020000 		.4byte	.LASF91
 385 0019 00000000 		.4byte	0
 386 001d 00000000 		.4byte	0
 387 0021 18000000 		.4byte	.Ldebug_ranges0+0x18
 388 0025 00000000 		.4byte	.Ldebug_line0
 389 0029 02       		.uleb128 0x2
 390 002a 04       		.byte	0x4
 391 002b 05       		.byte	0x5
 392 002c 696E7400 		.ascii	"int\000"
ARM GAS  /tmp/cc791jEN.s 			page 8


 393 0030 03       		.uleb128 0x3
 394 0031 04       		.byte	0x4
 395 0032 07       		.byte	0x7
 396 0033 C3000000 		.4byte	.LASF0
 397 0037 03       		.uleb128 0x3
 398 0038 01       		.byte	0x1
 399 0039 06       		.byte	0x6
 400 003a 5E000000 		.4byte	.LASF1
 401 003e 04       		.uleb128 0x4
 402 003f 5C030000 		.4byte	.LASF5
 403 0043 02       		.byte	0x2
 404 0044 2A       		.byte	0x2a
 405 0045 49000000 		.4byte	0x49
 406 0049 03       		.uleb128 0x3
 407 004a 01       		.byte	0x1
 408 004b 08       		.byte	0x8
 409 004c DE010000 		.4byte	.LASF2
 410 0050 03       		.uleb128 0x3
 411 0051 02       		.byte	0x2
 412 0052 05       		.byte	0x5
 413 0053 FC010000 		.4byte	.LASF3
 414 0057 03       		.uleb128 0x3
 415 0058 02       		.byte	0x2
 416 0059 07       		.byte	0x7
 417 005a 20010000 		.4byte	.LASF4
 418 005e 04       		.uleb128 0x4
 419 005f D6010000 		.4byte	.LASF6
 420 0063 02       		.byte	0x2
 421 0064 4F       		.byte	0x4f
 422 0065 69000000 		.4byte	0x69
 423 0069 03       		.uleb128 0x3
 424 006a 04       		.byte	0x4
 425 006b 05       		.byte	0x5
 426 006c 7A000000 		.4byte	.LASF7
 427 0070 04       		.uleb128 0x4
 428 0071 42020000 		.4byte	.LASF8
 429 0075 02       		.byte	0x2
 430 0076 50       		.byte	0x50
 431 0077 7B000000 		.4byte	0x7b
 432 007b 03       		.uleb128 0x3
 433 007c 04       		.byte	0x4
 434 007d 07       		.byte	0x7
 435 007e EB000000 		.4byte	.LASF9
 436 0082 03       		.uleb128 0x3
 437 0083 08       		.byte	0x8
 438 0084 05       		.byte	0x5
 439 0085 50000000 		.4byte	.LASF10
 440 0089 03       		.uleb128 0x3
 441 008a 08       		.byte	0x8
 442 008b 07       		.byte	0x7
 443 008c 23000000 		.4byte	.LASF11
 444 0090 04       		.uleb128 0x4
 445 0091 62010000 		.4byte	.LASF12
 446 0095 03       		.byte	0x3
 447 0096 2F       		.byte	0x2f
 448 0097 3E000000 		.4byte	0x3e
 449 009b 04       		.uleb128 0x4
ARM GAS  /tmp/cc791jEN.s 			page 9


 450 009c 83000000 		.4byte	.LASF13
 451 00a0 03       		.byte	0x3
 452 00a1 30       		.byte	0x30
 453 00a2 3E000000 		.4byte	0x3e
 454 00a6 04       		.uleb128 0x4
 455 00a7 BA010000 		.4byte	.LASF14
 456 00ab 03       		.byte	0x3
 457 00ac 31       		.byte	0x31
 458 00ad 3E000000 		.4byte	0x3e
 459 00b1 04       		.uleb128 0x4
 460 00b2 CE010000 		.4byte	.LASF15
 461 00b6 03       		.byte	0x3
 462 00b7 32       		.byte	0x32
 463 00b8 70000000 		.4byte	0x70
 464 00bc 04       		.uleb128 0x4
 465 00bd 38010000 		.4byte	.LASF16
 466 00c1 03       		.byte	0x3
 467 00c2 33       		.byte	0x33
 468 00c3 5E000000 		.4byte	0x5e
 469 00c7 04       		.uleb128 0x4
 470 00c8 76010000 		.4byte	.LASF17
 471 00cc 03       		.byte	0x3
 472 00cd 35       		.byte	0x35
 473 00ce 70000000 		.4byte	0x70
 474 00d2 04       		.uleb128 0x4
 475 00d3 F6020000 		.4byte	.LASF18
 476 00d7 03       		.byte	0x3
 477 00d8 36       		.byte	0x36
 478 00d9 70000000 		.4byte	0x70
 479 00dd 04       		.uleb128 0x4
 480 00de BD000000 		.4byte	.LASF19
 481 00e2 03       		.byte	0x3
 482 00e3 37       		.byte	0x37
 483 00e4 5E000000 		.4byte	0x5e
 484 00e8 04       		.uleb128 0x4
 485 00e9 30020000 		.4byte	.LASF20
 486 00ed 04       		.byte	0x4
 487 00ee 2A       		.byte	0x2a
 488 00ef F3000000 		.4byte	0xf3
 489 00f3 05       		.uleb128 0x5
 490 00f4 30020000 		.4byte	.LASF20
 491 00f8 48       		.byte	0x48
 492 00f9 05       		.byte	0x5
 493 00fa 5E       		.byte	0x5e
 494 00fb 0A020000 		.4byte	0x20a
 495 00ff 06       		.uleb128 0x6
 496 0100 21020000 		.4byte	.LASF21
 497 0104 05       		.byte	0x5
 498 0105 5F       		.byte	0x5f
 499 0106 2F020000 		.4byte	0x22f
 500 010a 02       		.byte	0x2
 501 010b 23       		.byte	0x23
 502 010c 00       		.uleb128 0
 503 010d 06       		.uleb128 0x6
 504 010e C7010000 		.4byte	.LASF22
 505 0112 05       		.byte	0x5
 506 0113 61       		.byte	0x61
ARM GAS  /tmp/cc791jEN.s 			page 10


 507 0114 2F020000 		.4byte	0x22f
 508 0118 02       		.byte	0x2
 509 0119 23       		.byte	0x23
 510 011a 04       		.uleb128 0x4
 511 011b 06       		.uleb128 0x6
 512 011c 49000000 		.4byte	.LASF23
 513 0120 05       		.byte	0x5
 514 0121 63       		.byte	0x63
 515 0122 B1000000 		.4byte	0xb1
 516 0126 02       		.byte	0x2
 517 0127 23       		.byte	0x23
 518 0128 08       		.uleb128 0x8
 519 0129 06       		.uleb128 0x6
 520 012a 90030000 		.4byte	.LASF24
 521 012e 05       		.byte	0x5
 522 012f 64       		.byte	0x64
 523 0130 74030000 		.4byte	0x374
 524 0134 02       		.byte	0x2
 525 0135 23       		.byte	0x23
 526 0136 0C       		.uleb128 0xc
 527 0137 06       		.uleb128 0x6
 528 0138 9F000000 		.4byte	.LASF25
 529 013c 05       		.byte	0x5
 530 013d 66       		.byte	0x66
 531 013e 2F020000 		.4byte	0x22f
 532 0142 02       		.byte	0x2
 533 0143 23       		.byte	0x23
 534 0144 10       		.uleb128 0x10
 535 0145 06       		.uleb128 0x6
 536 0146 8D010000 		.4byte	.LASF26
 537 014a 05       		.byte	0x5
 538 014b 67       		.byte	0x67
 539 014c 2F020000 		.4byte	0x22f
 540 0150 02       		.byte	0x2
 541 0151 23       		.byte	0x23
 542 0152 14       		.uleb128 0x14
 543 0153 06       		.uleb128 0x6
 544 0154 76030000 		.4byte	.LASF27
 545 0158 05       		.byte	0x5
 546 0159 6E       		.byte	0x6e
 547 015a 28060000 		.4byte	0x628
 548 015e 02       		.byte	0x2
 549 015f 23       		.byte	0x23
 550 0160 18       		.uleb128 0x18
 551 0161 06       		.uleb128 0x6
 552 0162 06020000 		.4byte	.LASF28
 553 0166 05       		.byte	0x5
 554 0167 79       		.byte	0x79
 555 0168 9B000000 		.4byte	0x9b
 556 016c 02       		.byte	0x2
 557 016d 23       		.byte	0x23
 558 016e 1C       		.uleb128 0x1c
 559 016f 06       		.uleb128 0x6
 560 0170 28020000 		.4byte	.LASF29
 561 0174 05       		.byte	0x5
 562 0175 7D       		.byte	0x7d
 563 0176 90000000 		.4byte	0x90
ARM GAS  /tmp/cc791jEN.s 			page 11


 564 017a 02       		.byte	0x2
 565 017b 23       		.byte	0x23
 566 017c 1D       		.uleb128 0x1d
 567 017d 06       		.uleb128 0x6
 568 017e 40030000 		.4byte	.LASF30
 569 0182 05       		.byte	0x5
 570 0183 82       		.byte	0x82
 571 0184 A6000000 		.4byte	0xa6
 572 0188 02       		.byte	0x2
 573 0189 23       		.byte	0x23
 574 018a 1E       		.uleb128 0x1e
 575 018b 06       		.uleb128 0x6
 576 018c 22030000 		.4byte	.LASF31
 577 0190 05       		.byte	0x5
 578 0191 89       		.byte	0x89
 579 0192 30050000 		.4byte	0x530
 580 0196 02       		.byte	0x2
 581 0197 23       		.byte	0x23
 582 0198 20       		.uleb128 0x20
 583 0199 07       		.uleb128 0x7
 584 019a 705F7500 		.ascii	"p_u\000"
 585 019e 05       		.byte	0x5
 586 019f AE       		.byte	0xae
 587 01a0 F3050000 		.4byte	0x5f3
 588 01a4 02       		.byte	0x2
 589 01a5 23       		.byte	0x23
 590 01a6 24       		.uleb128 0x24
 591 01a7 06       		.uleb128 0x6
 592 01a8 96030000 		.4byte	.LASF32
 593 01ac 05       		.byte	0x5
 594 01ad B3       		.byte	0xb3
 595 01ae 57020000 		.4byte	0x257
 596 01b2 02       		.byte	0x2
 597 01b3 23       		.byte	0x23
 598 01b4 28       		.uleb128 0x28
 599 01b5 06       		.uleb128 0x6
 600 01b6 35030000 		.4byte	.LASF33
 601 01ba 05       		.byte	0x5
 602 01bb B9       		.byte	0xb9
 603 01bc 35020000 		.4byte	0x235
 604 01c0 02       		.byte	0x2
 605 01c1 23       		.byte	0x23
 606 01c2 2C       		.uleb128 0x2c
 607 01c3 06       		.uleb128 0x6
 608 01c4 00000000 		.4byte	.LASF34
 609 01c8 05       		.byte	0x5
 610 01c9 BD       		.byte	0xbd
 611 01ca BC000000 		.4byte	0xbc
 612 01ce 02       		.byte	0x2
 613 01cf 23       		.byte	0x23
 614 01d0 34       		.uleb128 0x34
 615 01d1 06       		.uleb128 0x6
 616 01d2 37020000 		.4byte	.LASF35
 617 01d6 05       		.byte	0x5
 618 01d7 C3       		.byte	0xc3
 619 01d8 C7000000 		.4byte	0xc7
 620 01dc 02       		.byte	0x2
ARM GAS  /tmp/cc791jEN.s 			page 12


 621 01dd 23       		.byte	0x23
 622 01de 38       		.uleb128 0x38
 623 01df 06       		.uleb128 0x6
 624 01e0 F2010000 		.4byte	.LASF36
 625 01e4 05       		.byte	0x5
 626 01e5 CA       		.byte	0xca
 627 01e6 3A060000 		.4byte	0x63a
 628 01ea 02       		.byte	0x2
 629 01eb 23       		.byte	0x23
 630 01ec 3C       		.uleb128 0x3c
 631 01ed 06       		.uleb128 0x6
 632 01ee 00030000 		.4byte	.LASF37
 633 01f2 05       		.byte	0x5
 634 01f3 CE       		.byte	0xce
 635 01f4 B1000000 		.4byte	0xb1
 636 01f8 02       		.byte	0x2
 637 01f9 23       		.byte	0x23
 638 01fa 40       		.uleb128 0x40
 639 01fb 06       		.uleb128 0x6
 640 01fc 6A000000 		.4byte	.LASF38
 641 0200 05       		.byte	0x5
 642 0201 D4       		.byte	0xd4
 643 0202 6D020000 		.4byte	0x26d
 644 0206 02       		.byte	0x2
 645 0207 23       		.byte	0x23
 646 0208 44       		.uleb128 0x44
 647 0209 00       		.byte	0
 648 020a 08       		.uleb128 0x8
 649 020b 08       		.byte	0x8
 650 020c 04       		.byte	0x4
 651 020d 61       		.byte	0x61
 652 020e 2F020000 		.4byte	0x22f
 653 0212 06       		.uleb128 0x6
 654 0213 21020000 		.4byte	.LASF21
 655 0217 04       		.byte	0x4
 656 0218 62       		.byte	0x62
 657 0219 2F020000 		.4byte	0x22f
 658 021d 02       		.byte	0x2
 659 021e 23       		.byte	0x23
 660 021f 00       		.uleb128 0
 661 0220 06       		.uleb128 0x6
 662 0221 C7010000 		.4byte	.LASF22
 663 0225 04       		.byte	0x4
 664 0226 64       		.byte	0x64
 665 0227 2F020000 		.4byte	0x22f
 666 022b 02       		.byte	0x2
 667 022c 23       		.byte	0x23
 668 022d 04       		.uleb128 0x4
 669 022e 00       		.byte	0
 670 022f 09       		.uleb128 0x9
 671 0230 04       		.byte	0x4
 672 0231 E8000000 		.4byte	0xe8
 673 0235 04       		.uleb128 0x4
 674 0236 9B010000 		.4byte	.LASF39
 675 023a 04       		.byte	0x4
 676 023b 66       		.byte	0x66
 677 023c 0A020000 		.4byte	0x20a
ARM GAS  /tmp/cc791jEN.s 			page 13


 678 0240 08       		.uleb128 0x8
 679 0241 04       		.byte	0x4
 680 0242 04       		.byte	0x4
 681 0243 6B       		.byte	0x6b
 682 0244 57020000 		.4byte	0x257
 683 0248 06       		.uleb128 0x6
 684 0249 21020000 		.4byte	.LASF21
 685 024d 04       		.byte	0x4
 686 024e 6D       		.byte	0x6d
 687 024f 2F020000 		.4byte	0x22f
 688 0253 02       		.byte	0x2
 689 0254 23       		.byte	0x23
 690 0255 00       		.uleb128 0
 691 0256 00       		.byte	0
 692 0257 04       		.uleb128 0x4
 693 0258 6A010000 		.4byte	.LASF40
 694 025c 04       		.byte	0x4
 695 025d 70       		.byte	0x70
 696 025e 40020000 		.4byte	0x240
 697 0262 04       		.uleb128 0x4
 698 0263 B4000000 		.4byte	.LASF41
 699 0267 06       		.byte	0x6
 700 0268 D7       		.byte	0xd7
 701 0269 6D020000 		.4byte	0x26d
 702 026d 0A       		.uleb128 0xa
 703 026e 04       		.byte	0x4
 704 026f 05       		.uleb128 0x5
 705 0270 D7000000 		.4byte	.LASF42
 706 0274 20       		.byte	0x20
 707 0275 06       		.byte	0x6
 708 0276 DF       		.byte	0xdf
 709 0277 E7020000 		.4byte	0x2e7
 710 027b 07       		.uleb128 0x7
 711 027c 723000   		.ascii	"r0\000"
 712 027f 06       		.byte	0x6
 713 0280 E0       		.byte	0xe0
 714 0281 62020000 		.4byte	0x262
 715 0285 02       		.byte	0x2
 716 0286 23       		.byte	0x23
 717 0287 00       		.uleb128 0
 718 0288 07       		.uleb128 0x7
 719 0289 723100   		.ascii	"r1\000"
 720 028c 06       		.byte	0x6
 721 028d E1       		.byte	0xe1
 722 028e 62020000 		.4byte	0x262
 723 0292 02       		.byte	0x2
 724 0293 23       		.byte	0x23
 725 0294 04       		.uleb128 0x4
 726 0295 07       		.uleb128 0x7
 727 0296 723200   		.ascii	"r2\000"
 728 0299 06       		.byte	0x6
 729 029a E2       		.byte	0xe2
 730 029b 62020000 		.4byte	0x262
 731 029f 02       		.byte	0x2
 732 02a0 23       		.byte	0x23
 733 02a1 08       		.uleb128 0x8
 734 02a2 07       		.uleb128 0x7
ARM GAS  /tmp/cc791jEN.s 			page 14


 735 02a3 723300   		.ascii	"r3\000"
 736 02a6 06       		.byte	0x6
 737 02a7 E3       		.byte	0xe3
 738 02a8 62020000 		.4byte	0x262
 739 02ac 02       		.byte	0x2
 740 02ad 23       		.byte	0x23
 741 02ae 0C       		.uleb128 0xc
 742 02af 07       		.uleb128 0x7
 743 02b0 72313200 		.ascii	"r12\000"
 744 02b4 06       		.byte	0x6
 745 02b5 E4       		.byte	0xe4
 746 02b6 62020000 		.4byte	0x262
 747 02ba 02       		.byte	0x2
 748 02bb 23       		.byte	0x23
 749 02bc 10       		.uleb128 0x10
 750 02bd 06       		.uleb128 0x6
 751 02be D0000000 		.4byte	.LASF43
 752 02c2 06       		.byte	0x6
 753 02c3 E5       		.byte	0xe5
 754 02c4 62020000 		.4byte	0x262
 755 02c8 02       		.byte	0x2
 756 02c9 23       		.byte	0x23
 757 02ca 14       		.uleb128 0x14
 758 02cb 07       		.uleb128 0x7
 759 02cc 706300   		.ascii	"pc\000"
 760 02cf 06       		.byte	0x6
 761 02d0 E6       		.byte	0xe6
 762 02d1 62020000 		.4byte	0x262
 763 02d5 02       		.byte	0x2
 764 02d6 23       		.byte	0x23
 765 02d7 18       		.uleb128 0x18
 766 02d8 06       		.uleb128 0x6
 767 02d9 0E020000 		.4byte	.LASF44
 768 02dd 06       		.byte	0x6
 769 02de E7       		.byte	0xe7
 770 02df 62020000 		.4byte	0x262
 771 02e3 02       		.byte	0x2
 772 02e4 23       		.byte	0x23
 773 02e5 1C       		.uleb128 0x1c
 774 02e6 00       		.byte	0
 775 02e7 05       		.uleb128 0x5
 776 02e8 2E030000 		.4byte	.LASF45
 777 02ec 24       		.byte	0x24
 778 02ed 06       		.byte	0x6
 779 02ee FE       		.byte	0xfe
 780 02ef 74030000 		.4byte	0x374
 781 02f3 0B       		.uleb128 0xb
 782 02f4 723400   		.ascii	"r4\000"
 783 02f7 06       		.byte	0x6
 784 02f8 1101     		.2byte	0x111
 785 02fa 62020000 		.4byte	0x262
 786 02fe 02       		.byte	0x2
 787 02ff 23       		.byte	0x23
 788 0300 00       		.uleb128 0
 789 0301 0B       		.uleb128 0xb
 790 0302 723500   		.ascii	"r5\000"
 791 0305 06       		.byte	0x6
ARM GAS  /tmp/cc791jEN.s 			page 15


 792 0306 1201     		.2byte	0x112
 793 0308 62020000 		.4byte	0x262
 794 030c 02       		.byte	0x2
 795 030d 23       		.byte	0x23
 796 030e 04       		.uleb128 0x4
 797 030f 0B       		.uleb128 0xb
 798 0310 723600   		.ascii	"r6\000"
 799 0313 06       		.byte	0x6
 800 0314 1301     		.2byte	0x113
 801 0316 62020000 		.4byte	0x262
 802 031a 02       		.byte	0x2
 803 031b 23       		.byte	0x23
 804 031c 08       		.uleb128 0x8
 805 031d 0B       		.uleb128 0xb
 806 031e 723700   		.ascii	"r7\000"
 807 0321 06       		.byte	0x6
 808 0322 1401     		.2byte	0x114
 809 0324 62020000 		.4byte	0x262
 810 0328 02       		.byte	0x2
 811 0329 23       		.byte	0x23
 812 032a 0C       		.uleb128 0xc
 813 032b 0B       		.uleb128 0xb
 814 032c 723800   		.ascii	"r8\000"
 815 032f 06       		.byte	0x6
 816 0330 1501     		.2byte	0x115
 817 0332 62020000 		.4byte	0x262
 818 0336 02       		.byte	0x2
 819 0337 23       		.byte	0x23
 820 0338 10       		.uleb128 0x10
 821 0339 0B       		.uleb128 0xb
 822 033a 723900   		.ascii	"r9\000"
 823 033d 06       		.byte	0x6
 824 033e 1601     		.2byte	0x116
 825 0340 62020000 		.4byte	0x262
 826 0344 02       		.byte	0x2
 827 0345 23       		.byte	0x23
 828 0346 14       		.uleb128 0x14
 829 0347 0B       		.uleb128 0xb
 830 0348 72313000 		.ascii	"r10\000"
 831 034c 06       		.byte	0x6
 832 034d 1701     		.2byte	0x117
 833 034f 62020000 		.4byte	0x262
 834 0353 02       		.byte	0x2
 835 0354 23       		.byte	0x23
 836 0355 18       		.uleb128 0x18
 837 0356 0B       		.uleb128 0xb
 838 0357 72313100 		.ascii	"r11\000"
 839 035b 06       		.byte	0x6
 840 035c 1801     		.2byte	0x118
 841 035e 62020000 		.4byte	0x262
 842 0362 02       		.byte	0x2
 843 0363 23       		.byte	0x23
 844 0364 1C       		.uleb128 0x1c
 845 0365 0B       		.uleb128 0xb
 846 0366 6C7200   		.ascii	"lr\000"
 847 0369 06       		.byte	0x6
 848 036a 1901     		.2byte	0x119
ARM GAS  /tmp/cc791jEN.s 			page 16


 849 036c 62020000 		.4byte	0x262
 850 0370 02       		.byte	0x2
 851 0371 23       		.byte	0x23
 852 0372 20       		.uleb128 0x20
 853 0373 00       		.byte	0
 854 0374 0C       		.uleb128 0xc
 855 0375 18010000 		.4byte	.LASF46
 856 0379 04       		.byte	0x4
 857 037a 06       		.byte	0x6
 858 037b 2301     		.2byte	0x123
 859 037d 91030000 		.4byte	0x391
 860 0381 0B       		.uleb128 0xb
 861 0382 72313300 		.ascii	"r13\000"
 862 0386 06       		.byte	0x6
 863 0387 2401     		.2byte	0x124
 864 0389 91030000 		.4byte	0x391
 865 038d 02       		.byte	0x2
 866 038e 23       		.byte	0x23
 867 038f 00       		.uleb128 0
 868 0390 00       		.byte	0
 869 0391 09       		.uleb128 0x9
 870 0392 04       		.byte	0x4
 871 0393 E7020000 		.4byte	0x2e7
 872 0397 0D       		.uleb128 0xd
 873 0398 7B000000 		.4byte	0x7b
 874 039c 08       		.uleb128 0x8
 875 039d 8C       		.byte	0x8c
 876 039e 07       		.byte	0x7
 877 039f 89       		.byte	0x89
 878 03a0 CC040000 		.4byte	0x4cc
 879 03a4 06       		.uleb128 0x6
 880 03a5 43000000 		.4byte	.LASF47
 881 03a9 07       		.byte	0x7
 882 03aa 8A       		.byte	0x8a
 883 03ab 97030000 		.4byte	0x397
 884 03af 02       		.byte	0x2
 885 03b0 23       		.byte	0x23
 886 03b1 00       		.uleb128 0
 887 03b2 06       		.uleb128 0x6
 888 03b3 33010000 		.4byte	.LASF48
 889 03b7 07       		.byte	0x7
 890 03b8 8B       		.byte	0x8b
 891 03b9 97030000 		.4byte	0x397
 892 03bd 02       		.byte	0x2
 893 03be 23       		.byte	0x23
 894 03bf 04       		.uleb128 0x4
 895 03c0 06       		.uleb128 0x6
 896 03c1 FD000000 		.4byte	.LASF49
 897 03c5 07       		.byte	0x7
 898 03c6 8C       		.byte	0x8c
 899 03c7 97030000 		.4byte	0x397
 900 03cb 02       		.byte	0x2
 901 03cc 23       		.byte	0x23
 902 03cd 08       		.uleb128 0x8
 903 03ce 06       		.uleb128 0x6
 904 03cf 3E010000 		.4byte	.LASF50
 905 03d3 07       		.byte	0x7
ARM GAS  /tmp/cc791jEN.s 			page 17


 906 03d4 8D       		.byte	0x8d
 907 03d5 97030000 		.4byte	0x397
 908 03d9 02       		.byte	0x2
 909 03da 23       		.byte	0x23
 910 03db 0C       		.uleb128 0xc
 911 03dc 07       		.uleb128 0x7
 912 03dd 53435200 		.ascii	"SCR\000"
 913 03e1 07       		.byte	0x7
 914 03e2 8E       		.byte	0x8e
 915 03e3 97030000 		.4byte	0x397
 916 03e7 02       		.byte	0x2
 917 03e8 23       		.byte	0x23
 918 03e9 10       		.uleb128 0x10
 919 03ea 07       		.uleb128 0x7
 920 03eb 43435200 		.ascii	"CCR\000"
 921 03ef 07       		.byte	0x7
 922 03f0 8F       		.byte	0x8f
 923 03f1 97030000 		.4byte	0x397
 924 03f5 02       		.byte	0x2
 925 03f6 23       		.byte	0x23
 926 03f7 14       		.uleb128 0x14
 927 03f8 06       		.uleb128 0x6
 928 03f9 29030000 		.4byte	.LASF51
 929 03fd 07       		.byte	0x7
 930 03fe 90       		.byte	0x90
 931 03ff DC040000 		.4byte	0x4dc
 932 0403 02       		.byte	0x2
 933 0404 23       		.byte	0x23
 934 0405 18       		.uleb128 0x18
 935 0406 06       		.uleb128 0x6
 936 0407 EC010000 		.4byte	.LASF52
 937 040b 07       		.byte	0x7
 938 040c 91       		.byte	0x91
 939 040d 97030000 		.4byte	0x397
 940 0411 02       		.byte	0x2
 941 0412 23       		.byte	0x23
 942 0413 24       		.uleb128 0x24
 943 0414 06       		.uleb128 0x6
 944 0415 88010000 		.4byte	.LASF53
 945 0419 07       		.byte	0x7
 946 041a 92       		.byte	0x92
 947 041b 97030000 		.4byte	0x397
 948 041f 02       		.byte	0x2
 949 0420 23       		.byte	0x23
 950 0421 28       		.uleb128 0x28
 951 0422 06       		.uleb128 0x6
 952 0423 83030000 		.4byte	.LASF54
 953 0427 07       		.byte	0x7
 954 0428 93       		.byte	0x93
 955 0429 97030000 		.4byte	0x397
 956 042d 02       		.byte	0x2
 957 042e 23       		.byte	0x23
 958 042f 2C       		.uleb128 0x2c
 959 0430 06       		.uleb128 0x6
 960 0431 44010000 		.4byte	.LASF55
 961 0435 07       		.byte	0x7
 962 0436 94       		.byte	0x94
ARM GAS  /tmp/cc791jEN.s 			page 18


 963 0437 97030000 		.4byte	0x397
 964 043b 02       		.byte	0x2
 965 043c 23       		.byte	0x23
 966 043d 30       		.uleb128 0x30
 967 043e 06       		.uleb128 0x6
 968 043f 49010000 		.4byte	.LASF56
 969 0443 07       		.byte	0x7
 970 0444 95       		.byte	0x95
 971 0445 97030000 		.4byte	0x397
 972 0449 02       		.byte	0x2
 973 044a 23       		.byte	0x23
 974 044b 34       		.uleb128 0x34
 975 044c 06       		.uleb128 0x6
 976 044d A7000000 		.4byte	.LASF57
 977 0451 07       		.byte	0x7
 978 0452 96       		.byte	0x96
 979 0453 97030000 		.4byte	0x397
 980 0457 02       		.byte	0x2
 981 0458 23       		.byte	0x23
 982 0459 38       		.uleb128 0x38
 983 045a 06       		.uleb128 0x6
 984 045b 53020000 		.4byte	.LASF58
 985 045f 07       		.byte	0x7
 986 0460 97       		.byte	0x97
 987 0461 97030000 		.4byte	0x397
 988 0465 02       		.byte	0x2
 989 0466 23       		.byte	0x23
 990 0467 3C       		.uleb128 0x3c
 991 0468 07       		.uleb128 0x7
 992 0469 50465200 		.ascii	"PFR\000"
 993 046d 07       		.byte	0x7
 994 046e 98       		.byte	0x98
 995 046f F1040000 		.4byte	0x4f1
 996 0473 02       		.byte	0x2
 997 0474 23       		.byte	0x23
 998 0475 40       		.uleb128 0x40
 999 0476 07       		.uleb128 0x7
 1000 0477 44465200 		.ascii	"DFR\000"
 1001 047b 07       		.byte	0x7
 1002 047c 99       		.byte	0x99
 1003 047d 97030000 		.4byte	0x397
 1004 0481 02       		.byte	0x2
 1005 0482 23       		.byte	0x23
 1006 0483 48       		.uleb128 0x48
 1007 0484 07       		.uleb128 0x7
 1008 0485 41445200 		.ascii	"ADR\000"
 1009 0489 07       		.byte	0x7
 1010 048a 9A       		.byte	0x9a
 1011 048b 97030000 		.4byte	0x397
 1012 048f 02       		.byte	0x2
 1013 0490 23       		.byte	0x23
 1014 0491 4C       		.uleb128 0x4c
 1015 0492 06       		.uleb128 0x6
 1016 0493 51030000 		.4byte	.LASF59
 1017 0497 07       		.byte	0x7
 1018 0498 9B       		.byte	0x9b
 1019 0499 06050000 		.4byte	0x506
ARM GAS  /tmp/cc791jEN.s 			page 19


 1020 049d 02       		.byte	0x2
 1021 049e 23       		.byte	0x23
 1022 049f 50       		.uleb128 0x50
 1023 04a0 07       		.uleb128 0x7
 1024 04a1 53415200 		.ascii	"SAR\000"
 1025 04a5 07       		.byte	0x7
 1026 04a6 9C       		.byte	0x9c
 1027 04a7 1B050000 		.4byte	0x51b
 1028 04ab 02       		.byte	0x2
 1029 04ac 23       		.byte	0x23
 1030 04ad 60       		.uleb128 0x60
 1031 04ae 06       		.uleb128 0x6
 1032 04af 58020000 		.4byte	.LASF60
 1033 04b3 07       		.byte	0x7
 1034 04b4 9D       		.byte	0x9d
 1035 04b5 20050000 		.4byte	0x520
 1036 04b9 02       		.byte	0x2
 1037 04ba 23       		.byte	0x23
 1038 04bb 74       		.uleb128 0x74
 1039 04bc 06       		.uleb128 0x6
 1040 04bd 7D030000 		.4byte	.LASF61
 1041 04c1 07       		.byte	0x7
 1042 04c2 9E       		.byte	0x9e
 1043 04c3 97030000 		.4byte	0x397
 1044 04c7 03       		.byte	0x3
 1045 04c8 23       		.byte	0x23
 1046 04c9 8801     		.uleb128 0x88
 1047 04cb 00       		.byte	0
 1048 04cc 0E       		.uleb128 0xe
 1049 04cd 7B000000 		.4byte	0x7b
 1050 04d1 DC040000 		.4byte	0x4dc
 1051 04d5 0F       		.uleb128 0xf
 1052 04d6 30000000 		.4byte	0x30
 1053 04da 02       		.byte	0x2
 1054 04db 00       		.byte	0
 1055 04dc 0D       		.uleb128 0xd
 1056 04dd CC040000 		.4byte	0x4cc
 1057 04e1 0E       		.uleb128 0xe
 1058 04e2 7B000000 		.4byte	0x7b
 1059 04e6 F1040000 		.4byte	0x4f1
 1060 04ea 0F       		.uleb128 0xf
 1061 04eb 30000000 		.4byte	0x30
 1062 04ef 01       		.byte	0x1
 1063 04f0 00       		.byte	0
 1064 04f1 0D       		.uleb128 0xd
 1065 04f2 E1040000 		.4byte	0x4e1
 1066 04f6 0E       		.uleb128 0xe
 1067 04f7 7B000000 		.4byte	0x7b
 1068 04fb 06050000 		.4byte	0x506
 1069 04ff 0F       		.uleb128 0xf
 1070 0500 30000000 		.4byte	0x30
 1071 0504 03       		.byte	0x3
 1072 0505 00       		.byte	0
 1073 0506 0D       		.uleb128 0xd
 1074 0507 F6040000 		.4byte	0x4f6
 1075 050b 0E       		.uleb128 0xe
 1076 050c 7B000000 		.4byte	0x7b
ARM GAS  /tmp/cc791jEN.s 			page 20


 1077 0510 1B050000 		.4byte	0x51b
 1078 0514 0F       		.uleb128 0xf
 1079 0515 30000000 		.4byte	0x30
 1080 0519 04       		.byte	0x4
 1081 051a 00       		.byte	0
 1082 051b 0D       		.uleb128 0xd
 1083 051c 0B050000 		.4byte	0x50b
 1084 0520 0D       		.uleb128 0xd
 1085 0521 0B050000 		.4byte	0x50b
 1086 0525 04       		.uleb128 0x4
 1087 0526 0D000000 		.4byte	.LASF62
 1088 052a 07       		.byte	0x7
 1089 052b 9F       		.byte	0x9f
 1090 052c 9C030000 		.4byte	0x39c
 1091 0530 0D       		.uleb128 0xd
 1092 0531 D2000000 		.4byte	0xd2
 1093 0535 08       		.uleb128 0x8
 1094 0536 20       		.byte	0x20
 1095 0537 08       		.byte	0x8
 1096 0538 5E       		.byte	0x5e
 1097 0539 A0050000 		.4byte	0x5a0
 1098 053d 06       		.uleb128 0x6
 1099 053e 4B020000 		.4byte	.LASF63
 1100 0542 08       		.byte	0x8
 1101 0543 5F       		.byte	0x5f
 1102 0544 35020000 		.4byte	0x235
 1103 0548 02       		.byte	0x2
 1104 0549 23       		.byte	0x23
 1105 054a 00       		.uleb128 0
 1106 054b 06       		.uleb128 0x6
 1107 054c 13020000 		.4byte	.LASF64
 1108 0550 08       		.byte	0x8
 1109 0551 60       		.byte	0x60
 1110 0552 B1000000 		.4byte	0xb1
 1111 0556 02       		.byte	0x2
 1112 0557 23       		.byte	0x23
 1113 0558 08       		.uleb128 0x8
 1114 0559 06       		.uleb128 0x6
 1115 055a 95010000 		.4byte	.LASF65
 1116 055e 08       		.byte	0x8
 1117 055f 62       		.byte	0x62
 1118 0560 74030000 		.4byte	0x374
 1119 0564 02       		.byte	0x2
 1120 0565 23       		.byte	0x23
 1121 0566 0C       		.uleb128 0xc
 1122 0567 06       		.uleb128 0x6
 1123 0568 AC000000 		.4byte	.LASF66
 1124 056c 08       		.byte	0x8
 1125 056d 65       		.byte	0x65
 1126 056e 2F020000 		.4byte	0x22f
 1127 0572 02       		.byte	0x2
 1128 0573 23       		.byte	0x23
 1129 0574 10       		.uleb128 0x10
 1130 0575 06       		.uleb128 0x6
 1131 0576 B2010000 		.4byte	.LASF67
 1132 057a 08       		.byte	0x8
 1133 057b 66       		.byte	0x66
ARM GAS  /tmp/cc791jEN.s 			page 21


 1134 057c 2F020000 		.4byte	0x22f
 1135 0580 02       		.byte	0x2
 1136 0581 23       		.byte	0x23
 1137 0582 14       		.uleb128 0x14
 1138 0583 06       		.uleb128 0x6
 1139 0584 18030000 		.4byte	.LASF68
 1140 0588 08       		.byte	0x8
 1141 0589 6A       		.byte	0x6a
 1142 058a DD000000 		.4byte	0xdd
 1143 058e 02       		.byte	0x2
 1144 058f 23       		.byte	0x23
 1145 0590 18       		.uleb128 0x18
 1146 0591 06       		.uleb128 0x6
 1147 0592 A8010000 		.4byte	.LASF69
 1148 0596 08       		.byte	0x8
 1149 0597 6C       		.byte	0x6c
 1150 0598 2F020000 		.4byte	0x22f
 1151 059c 02       		.byte	0x2
 1152 059d 23       		.byte	0x23
 1153 059e 1C       		.uleb128 0x1c
 1154 059f 00       		.byte	0
 1155 05a0 04       		.uleb128 0x4
 1156 05a1 47030000 		.4byte	.LASF70
 1157 05a5 08       		.byte	0x8
 1158 05a6 6E       		.byte	0x6e
 1159 05a7 35050000 		.4byte	0x535
 1160 05ab 05       		.uleb128 0x5
 1161 05ac 82010000 		.4byte	.LASF71
 1162 05b0 10       		.byte	0x10
 1163 05b1 09       		.byte	0x9
 1164 05b2 2C       		.byte	0x2c
 1165 05b3 E2050000 		.4byte	0x5e2
 1166 05b7 06       		.uleb128 0x6
 1167 05b8 72000000 		.4byte	.LASF72
 1168 05bc 09       		.byte	0x9
 1169 05bd 2D       		.byte	0x2d
 1170 05be 35020000 		.4byte	0x235
 1171 05c2 02       		.byte	0x2
 1172 05c3 23       		.byte	0x23
 1173 05c4 00       		.uleb128 0
 1174 05c5 06       		.uleb128 0x6
 1175 05c6 88030000 		.4byte	.LASF73
 1176 05ca 09       		.byte	0x9
 1177 05cb 2F       		.byte	0x2f
 1178 05cc 2F020000 		.4byte	0x22f
 1179 05d0 02       		.byte	0x2
 1180 05d1 23       		.byte	0x23
 1181 05d2 08       		.uleb128 0x8
 1182 05d3 06       		.uleb128 0x6
 1183 05d4 EF020000 		.4byte	.LASF74
 1184 05d8 09       		.byte	0x9
 1185 05d9 31       		.byte	0x31
 1186 05da E2050000 		.4byte	0x5e2
 1187 05de 02       		.byte	0x2
 1188 05df 23       		.byte	0x23
 1189 05e0 0C       		.uleb128 0xc
 1190 05e1 00       		.byte	0
ARM GAS  /tmp/cc791jEN.s 			page 22


 1191 05e2 09       		.uleb128 0x9
 1192 05e3 04       		.byte	0x4
 1193 05e4 AB050000 		.4byte	0x5ab
 1194 05e8 04       		.uleb128 0x4
 1195 05e9 82010000 		.4byte	.LASF71
 1196 05ed 09       		.byte	0x9
 1197 05ee 33       		.byte	0x33
 1198 05ef AB050000 		.4byte	0x5ab
 1199 05f3 10       		.uleb128 0x10
 1200 05f4 04       		.byte	0x4
 1201 05f5 05       		.byte	0x5
 1202 05f6 90       		.byte	0x90
 1203 05f7 28060000 		.4byte	0x628
 1204 05fb 11       		.uleb128 0x11
 1205 05fc 06000000 		.4byte	.LASF75
 1206 0600 05       		.byte	0x5
 1207 0601 97       		.byte	0x97
 1208 0602 BC000000 		.4byte	0xbc
 1209 0606 11       		.uleb128 0x11
 1210 0607 3A000000 		.4byte	.LASF76
 1211 060b 05       		.byte	0x5
 1212 060c 9E       		.byte	0x9e
 1213 060d BC000000 		.4byte	0xbc
 1214 0611 11       		.uleb128 0x11
 1215 0612 6F030000 		.4byte	.LASF77
 1216 0616 05       		.byte	0x5
 1217 0617 A5       		.byte	0xa5
 1218 0618 6D020000 		.4byte	0x26d
 1219 061c 11       		.uleb128 0x11
 1220 061d 1A020000 		.4byte	.LASF78
 1221 0621 05       		.byte	0x5
 1222 0622 AC       		.byte	0xac
 1223 0623 C7000000 		.4byte	0xc7
 1224 0627 00       		.byte	0
 1225 0628 09       		.uleb128 0x9
 1226 0629 04       		.byte	0x4
 1227 062a 2E060000 		.4byte	0x62e
 1228 062e 12       		.uleb128 0x12
 1229 062f 33060000 		.4byte	0x633
 1230 0633 03       		.uleb128 0x3
 1231 0634 01       		.byte	0x1
 1232 0635 08       		.byte	0x8
 1233 0636 C3020000 		.4byte	.LASF79
 1234 063a 09       		.uleb128 0x9
 1235 063b 04       		.byte	0x4
 1236 063c E8050000 		.4byte	0x5e8
 1237 0640 13       		.uleb128 0x13
 1238 0641 01       		.byte	0x1
 1239 0642 02010000 		.4byte	.LASF81
 1240 0646 01       		.byte	0x1
 1241 0647 CF       		.byte	0xcf
 1242 0648 01       		.byte	0x1
 1243 0649 00000000 		.4byte	.LFB11
 1244 064d 06000000 		.4byte	.LFE11
 1245 0651 02       		.byte	0x2
 1246 0652 7D       		.byte	0x7d
 1247 0653 00       		.sleb128 0
ARM GAS  /tmp/cc791jEN.s 			page 23


 1248 0654 14       		.uleb128 0x14
 1249 0655 01       		.byte	0x1
 1250 0656 0B030000 		.4byte	.LASF83
 1251 065a 01       		.byte	0x1
 1252 065b 41       		.byte	0x41
 1253 065c 01       		.byte	0x1
 1254 065d 00000000 		.4byte	.LFB8
 1255 0661 12000000 		.4byte	.LFE8
 1256 0665 02       		.byte	0x2
 1257 0666 7D       		.byte	0x7d
 1258 0667 00       		.sleb128 0
 1259 0668 95060000 		.4byte	0x695
 1260 066c 15       		.uleb128 0x15
 1261 066d C2010000 		.4byte	.LASF80
 1262 0671 01       		.byte	0x1
 1263 0672 42       		.byte	0x42
 1264 0673 95060000 		.4byte	0x695
 1265 0677 00000000 		.4byte	.LLST0
 1266 067b 16       		.uleb128 0x16
 1267 067c 0A000000 		.4byte	.LBB2
 1268 0680 10000000 		.4byte	.LBE2
 1269 0684 17       		.uleb128 0x17
 1270 0685 746D7000 		.ascii	"tmp\000"
 1271 0689 01       		.byte	0x1
 1272 068a 51       		.byte	0x51
 1273 068b 70000000 		.4byte	0x70
 1274 068f 20000000 		.4byte	.LLST1
 1275 0693 00       		.byte	0
 1276 0694 00       		.byte	0
 1277 0695 09       		.uleb128 0x9
 1278 0696 04       		.byte	0x4
 1279 0697 6F020000 		.4byte	0x26f
 1280 069b 18       		.uleb128 0x18
 1281 069c 01       		.byte	0x1
 1282 069d 64030000 		.4byte	.LASF82
 1283 06a1 01       		.byte	0x1
 1284 06a2 76       		.byte	0x76
 1285 06a3 01       		.byte	0x1
 1286 06a4 00000000 		.4byte	.LFB9
 1287 06a8 34000000 		.4byte	.LFE9
 1288 06ac 33000000 		.4byte	.LLST2
 1289 06b0 14       		.uleb128 0x14
 1290 06b1 01       		.byte	0x1
 1291 06b2 4F010000 		.4byte	.LASF84
 1292 06b6 01       		.byte	0x1
 1293 06b7 94       		.byte	0x94
 1294 06b8 01       		.byte	0x1
 1295 06b9 00000000 		.4byte	.LFB10
 1296 06bd 7E000000 		.4byte	.LFE10
 1297 06c1 02       		.byte	0x2
 1298 06c2 7D       		.byte	0x7d
 1299 06c3 00       		.sleb128 0
 1300 06c4 18070000 		.4byte	0x718
 1301 06c8 19       		.uleb128 0x19
 1302 06c9 00000000 		.4byte	.LBB3
 1303 06cd 06000000 		.4byte	.LBE3
 1304 06d1 E5060000 		.4byte	0x6e5
ARM GAS  /tmp/cc791jEN.s 			page 24


 1305 06d5 17       		.uleb128 0x17
 1306 06d6 746D7000 		.ascii	"tmp\000"
 1307 06da 01       		.byte	0x1
 1308 06db 96       		.byte	0x96
 1309 06dc 70000000 		.4byte	0x70
 1310 06e0 53000000 		.4byte	.LLST3
 1311 06e4 00       		.byte	0
 1312 06e5 1A       		.uleb128 0x1a
 1313 06e6 00000000 		.4byte	.Ldebug_ranges0+0
 1314 06ea FE060000 		.4byte	0x6fe
 1315 06ee 15       		.uleb128 0x15
 1316 06ef C2010000 		.4byte	.LASF80
 1317 06f3 01       		.byte	0x1
 1318 06f4 98       		.byte	0x98
 1319 06f5 95060000 		.4byte	0x695
 1320 06f9 66000000 		.4byte	.LLST4
 1321 06fd 00       		.byte	0
 1322 06fe 16       		.uleb128 0x16
 1323 06ff 56000000 		.4byte	.LBB5
 1324 0703 5C000000 		.4byte	.LBE5
 1325 0707 17       		.uleb128 0x17
 1326 0708 746D7000 		.ascii	"tmp\000"
 1327 070c 01       		.byte	0x1
 1328 070d C5       		.byte	0xc5
 1329 070e 70000000 		.4byte	0x70
 1330 0712 86000000 		.4byte	.LLST5
 1331 0716 00       		.byte	0
 1332 0717 00       		.byte	0
 1333 0718 1B       		.uleb128 0x1b
 1334 0719 01       		.byte	0x1
 1335 071a 15000000 		.4byte	.LASF85
 1336 071e 01       		.byte	0x1
 1337 071f 2F       		.byte	0x2f
 1338 0720 01       		.byte	0x1
 1339 0721 00000000 		.4byte	.LFB7
 1340 0725 1A000000 		.4byte	.LFE7
 1341 0729 99000000 		.4byte	.LLST6
 1342 072d 68070000 		.4byte	0x768
 1343 0731 19       		.uleb128 0x19
 1344 0732 02000000 		.4byte	.LBB7
 1345 0736 08000000 		.4byte	.LBE7
 1346 073a 4E070000 		.4byte	0x74e
 1347 073e 17       		.uleb128 0x17
 1348 073f 746D7000 		.ascii	"tmp\000"
 1349 0743 01       		.byte	0x1
 1350 0744 33       		.byte	0x33
 1351 0745 70000000 		.4byte	0x70
 1352 0749 B9000000 		.4byte	.LLST7
 1353 074d 00       		.byte	0
 1354 074e 16       		.uleb128 0x16
 1355 074f 0C000000 		.4byte	.LBB8
 1356 0753 12000000 		.4byte	.LBE8
 1357 0757 17       		.uleb128 0x17
 1358 0758 746D7000 		.ascii	"tmp\000"
 1359 075c 01       		.byte	0x1
 1360 075d 35       		.byte	0x35
 1361 075e 70000000 		.4byte	0x70
ARM GAS  /tmp/cc791jEN.s 			page 25


 1362 0762 CC000000 		.4byte	.LLST8
 1363 0766 00       		.byte	0
 1364 0767 00       		.byte	0
 1365 0768 14       		.uleb128 0x14
 1366 0769 01       		.byte	0x1
 1367 076a DE000000 		.4byte	.LASF86
 1368 076e 01       		.byte	0x1
 1369 076f EC       		.byte	0xec
 1370 0770 01       		.byte	0x1
 1371 0771 00000000 		.4byte	.LFB12
 1372 0775 10000000 		.4byte	.LFE12
 1373 0779 02       		.byte	0x2
 1374 077a 7D       		.byte	0x7d
 1375 077b 00       		.sleb128 0
 1376 077c 9B070000 		.4byte	0x79b
 1377 0780 1C       		.uleb128 0x1c
 1378 0781 6E747000 		.ascii	"ntp\000"
 1379 0785 01       		.byte	0x1
 1380 0786 EC       		.byte	0xec
 1381 0787 2F020000 		.4byte	0x22f
 1382 078b 01       		.byte	0x1
 1383 078c 50       		.byte	0x50
 1384 078d 1C       		.uleb128 0x1c
 1385 078e 6F747000 		.ascii	"otp\000"
 1386 0792 01       		.byte	0x1
 1387 0793 EC       		.byte	0xec
 1388 0794 2F020000 		.4byte	0x22f
 1389 0798 01       		.byte	0x1
 1390 0799 51       		.byte	0x51
 1391 079a 00       		.byte	0
 1392 079b 1D       		.uleb128 0x1d
 1393 079c 01       		.byte	0x1
 1394 079d 8C000000 		.4byte	.LASF87
 1395 07a1 01       		.byte	0x1
 1396 07a2 0301     		.2byte	0x103
 1397 07a4 01       		.byte	0x1
 1398 07a5 00000000 		.4byte	.LFB13
 1399 07a9 10000000 		.4byte	.LFE13
 1400 07ad 02       		.byte	0x2
 1401 07ae 7D       		.byte	0x7d
 1402 07af 00       		.sleb128 0
 1403 07b0 CF070000 		.4byte	0x7cf
 1404 07b4 16       		.uleb128 0x16
 1405 07b5 00000000 		.4byte	.LBB9
 1406 07b9 06000000 		.4byte	.LBE9
 1407 07bd 1E       		.uleb128 0x1e
 1408 07be 746D7000 		.ascii	"tmp\000"
 1409 07c2 01       		.byte	0x1
 1410 07c3 0501     		.2byte	0x105
 1411 07c5 70000000 		.4byte	0x70
 1412 07c9 DF000000 		.4byte	.LLST9
 1413 07cd 00       		.byte	0
 1414 07ce 00       		.byte	0
 1415 07cf 1F       		.uleb128 0x1f
 1416 07d0 56030000 		.4byte	.LASF88
 1417 07d4 08       		.byte	0x8
 1418 07d5 72       		.byte	0x72
ARM GAS  /tmp/cc791jEN.s 			page 26


 1419 07d6 A0050000 		.4byte	0x5a0
 1420 07da 01       		.byte	0x1
 1421 07db 01       		.byte	0x1
 1422 07dc 1F       		.uleb128 0x1f
 1423 07dd 56030000 		.4byte	.LASF88
 1424 07e1 08       		.byte	0x8
 1425 07e2 72       		.byte	0x72
 1426 07e3 A0050000 		.4byte	0x5a0
 1427 07e7 01       		.byte	0x1
 1428 07e8 01       		.byte	0x1
 1429 07e9 00       		.byte	0
 1430              		.section	.debug_abbrev,"",%progbits
 1431              	.Ldebug_abbrev0:
 1432 0000 01       		.uleb128 0x1
 1433 0001 11       		.uleb128 0x11
 1434 0002 01       		.byte	0x1
 1435 0003 25       		.uleb128 0x25
 1436 0004 0E       		.uleb128 0xe
 1437 0005 13       		.uleb128 0x13
 1438 0006 0B       		.uleb128 0xb
 1439 0007 03       		.uleb128 0x3
 1440 0008 0E       		.uleb128 0xe
 1441 0009 1B       		.uleb128 0x1b
 1442 000a 0E       		.uleb128 0xe
 1443 000b 11       		.uleb128 0x11
 1444 000c 01       		.uleb128 0x1
 1445 000d 52       		.uleb128 0x52
 1446 000e 01       		.uleb128 0x1
 1447 000f 55       		.uleb128 0x55
 1448 0010 06       		.uleb128 0x6
 1449 0011 10       		.uleb128 0x10
 1450 0012 06       		.uleb128 0x6
 1451 0013 00       		.byte	0
 1452 0014 00       		.byte	0
 1453 0015 02       		.uleb128 0x2
 1454 0016 24       		.uleb128 0x24
 1455 0017 00       		.byte	0
 1456 0018 0B       		.uleb128 0xb
 1457 0019 0B       		.uleb128 0xb
 1458 001a 3E       		.uleb128 0x3e
 1459 001b 0B       		.uleb128 0xb
 1460 001c 03       		.uleb128 0x3
 1461 001d 08       		.uleb128 0x8
 1462 001e 00       		.byte	0
 1463 001f 00       		.byte	0
 1464 0020 03       		.uleb128 0x3
 1465 0021 24       		.uleb128 0x24
 1466 0022 00       		.byte	0
 1467 0023 0B       		.uleb128 0xb
 1468 0024 0B       		.uleb128 0xb
 1469 0025 3E       		.uleb128 0x3e
 1470 0026 0B       		.uleb128 0xb
 1471 0027 03       		.uleb128 0x3
 1472 0028 0E       		.uleb128 0xe
 1473 0029 00       		.byte	0
 1474 002a 00       		.byte	0
 1475 002b 04       		.uleb128 0x4
ARM GAS  /tmp/cc791jEN.s 			page 27


 1476 002c 16       		.uleb128 0x16
 1477 002d 00       		.byte	0
 1478 002e 03       		.uleb128 0x3
 1479 002f 0E       		.uleb128 0xe
 1480 0030 3A       		.uleb128 0x3a
 1481 0031 0B       		.uleb128 0xb
 1482 0032 3B       		.uleb128 0x3b
 1483 0033 0B       		.uleb128 0xb
 1484 0034 49       		.uleb128 0x49
 1485 0035 13       		.uleb128 0x13
 1486 0036 00       		.byte	0
 1487 0037 00       		.byte	0
 1488 0038 05       		.uleb128 0x5
 1489 0039 13       		.uleb128 0x13
 1490 003a 01       		.byte	0x1
 1491 003b 03       		.uleb128 0x3
 1492 003c 0E       		.uleb128 0xe
 1493 003d 0B       		.uleb128 0xb
 1494 003e 0B       		.uleb128 0xb
 1495 003f 3A       		.uleb128 0x3a
 1496 0040 0B       		.uleb128 0xb
 1497 0041 3B       		.uleb128 0x3b
 1498 0042 0B       		.uleb128 0xb
 1499 0043 01       		.uleb128 0x1
 1500 0044 13       		.uleb128 0x13
 1501 0045 00       		.byte	0
 1502 0046 00       		.byte	0
 1503 0047 06       		.uleb128 0x6
 1504 0048 0D       		.uleb128 0xd
 1505 0049 00       		.byte	0
 1506 004a 03       		.uleb128 0x3
 1507 004b 0E       		.uleb128 0xe
 1508 004c 3A       		.uleb128 0x3a
 1509 004d 0B       		.uleb128 0xb
 1510 004e 3B       		.uleb128 0x3b
 1511 004f 0B       		.uleb128 0xb
 1512 0050 49       		.uleb128 0x49
 1513 0051 13       		.uleb128 0x13
 1514 0052 38       		.uleb128 0x38
 1515 0053 0A       		.uleb128 0xa
 1516 0054 00       		.byte	0
 1517 0055 00       		.byte	0
 1518 0056 07       		.uleb128 0x7
 1519 0057 0D       		.uleb128 0xd
 1520 0058 00       		.byte	0
 1521 0059 03       		.uleb128 0x3
 1522 005a 08       		.uleb128 0x8
 1523 005b 3A       		.uleb128 0x3a
 1524 005c 0B       		.uleb128 0xb
 1525 005d 3B       		.uleb128 0x3b
 1526 005e 0B       		.uleb128 0xb
 1527 005f 49       		.uleb128 0x49
 1528 0060 13       		.uleb128 0x13
 1529 0061 38       		.uleb128 0x38
 1530 0062 0A       		.uleb128 0xa
 1531 0063 00       		.byte	0
 1532 0064 00       		.byte	0
ARM GAS  /tmp/cc791jEN.s 			page 28


 1533 0065 08       		.uleb128 0x8
 1534 0066 13       		.uleb128 0x13
 1535 0067 01       		.byte	0x1
 1536 0068 0B       		.uleb128 0xb
 1537 0069 0B       		.uleb128 0xb
 1538 006a 3A       		.uleb128 0x3a
 1539 006b 0B       		.uleb128 0xb
 1540 006c 3B       		.uleb128 0x3b
 1541 006d 0B       		.uleb128 0xb
 1542 006e 01       		.uleb128 0x1
 1543 006f 13       		.uleb128 0x13
 1544 0070 00       		.byte	0
 1545 0071 00       		.byte	0
 1546 0072 09       		.uleb128 0x9
 1547 0073 0F       		.uleb128 0xf
 1548 0074 00       		.byte	0
 1549 0075 0B       		.uleb128 0xb
 1550 0076 0B       		.uleb128 0xb
 1551 0077 49       		.uleb128 0x49
 1552 0078 13       		.uleb128 0x13
 1553 0079 00       		.byte	0
 1554 007a 00       		.byte	0
 1555 007b 0A       		.uleb128 0xa
 1556 007c 0F       		.uleb128 0xf
 1557 007d 00       		.byte	0
 1558 007e 0B       		.uleb128 0xb
 1559 007f 0B       		.uleb128 0xb
 1560 0080 00       		.byte	0
 1561 0081 00       		.byte	0
 1562 0082 0B       		.uleb128 0xb
 1563 0083 0D       		.uleb128 0xd
 1564 0084 00       		.byte	0
 1565 0085 03       		.uleb128 0x3
 1566 0086 08       		.uleb128 0x8
 1567 0087 3A       		.uleb128 0x3a
 1568 0088 0B       		.uleb128 0xb
 1569 0089 3B       		.uleb128 0x3b
 1570 008a 05       		.uleb128 0x5
 1571 008b 49       		.uleb128 0x49
 1572 008c 13       		.uleb128 0x13
 1573 008d 38       		.uleb128 0x38
 1574 008e 0A       		.uleb128 0xa
 1575 008f 00       		.byte	0
 1576 0090 00       		.byte	0
 1577 0091 0C       		.uleb128 0xc
 1578 0092 13       		.uleb128 0x13
 1579 0093 01       		.byte	0x1
 1580 0094 03       		.uleb128 0x3
 1581 0095 0E       		.uleb128 0xe
 1582 0096 0B       		.uleb128 0xb
 1583 0097 0B       		.uleb128 0xb
 1584 0098 3A       		.uleb128 0x3a
 1585 0099 0B       		.uleb128 0xb
 1586 009a 3B       		.uleb128 0x3b
 1587 009b 05       		.uleb128 0x5
 1588 009c 01       		.uleb128 0x1
 1589 009d 13       		.uleb128 0x13
ARM GAS  /tmp/cc791jEN.s 			page 29


 1590 009e 00       		.byte	0
 1591 009f 00       		.byte	0
 1592 00a0 0D       		.uleb128 0xd
 1593 00a1 35       		.uleb128 0x35
 1594 00a2 00       		.byte	0
 1595 00a3 49       		.uleb128 0x49
 1596 00a4 13       		.uleb128 0x13
 1597 00a5 00       		.byte	0
 1598 00a6 00       		.byte	0
 1599 00a7 0E       		.uleb128 0xe
 1600 00a8 01       		.uleb128 0x1
 1601 00a9 01       		.byte	0x1
 1602 00aa 49       		.uleb128 0x49
 1603 00ab 13       		.uleb128 0x13
 1604 00ac 01       		.uleb128 0x1
 1605 00ad 13       		.uleb128 0x13
 1606 00ae 00       		.byte	0
 1607 00af 00       		.byte	0
 1608 00b0 0F       		.uleb128 0xf
 1609 00b1 21       		.uleb128 0x21
 1610 00b2 00       		.byte	0
 1611 00b3 49       		.uleb128 0x49
 1612 00b4 13       		.uleb128 0x13
 1613 00b5 2F       		.uleb128 0x2f
 1614 00b6 0B       		.uleb128 0xb
 1615 00b7 00       		.byte	0
 1616 00b8 00       		.byte	0
 1617 00b9 10       		.uleb128 0x10
 1618 00ba 17       		.uleb128 0x17
 1619 00bb 01       		.byte	0x1
 1620 00bc 0B       		.uleb128 0xb
 1621 00bd 0B       		.uleb128 0xb
 1622 00be 3A       		.uleb128 0x3a
 1623 00bf 0B       		.uleb128 0xb
 1624 00c0 3B       		.uleb128 0x3b
 1625 00c1 0B       		.uleb128 0xb
 1626 00c2 01       		.uleb128 0x1
 1627 00c3 13       		.uleb128 0x13
 1628 00c4 00       		.byte	0
 1629 00c5 00       		.byte	0
 1630 00c6 11       		.uleb128 0x11
 1631 00c7 0D       		.uleb128 0xd
 1632 00c8 00       		.byte	0
 1633 00c9 03       		.uleb128 0x3
 1634 00ca 0E       		.uleb128 0xe
 1635 00cb 3A       		.uleb128 0x3a
 1636 00cc 0B       		.uleb128 0xb
 1637 00cd 3B       		.uleb128 0x3b
 1638 00ce 0B       		.uleb128 0xb
 1639 00cf 49       		.uleb128 0x49
 1640 00d0 13       		.uleb128 0x13
 1641 00d1 00       		.byte	0
 1642 00d2 00       		.byte	0
 1643 00d3 12       		.uleb128 0x12
 1644 00d4 26       		.uleb128 0x26
 1645 00d5 00       		.byte	0
 1646 00d6 49       		.uleb128 0x49
ARM GAS  /tmp/cc791jEN.s 			page 30


 1647 00d7 13       		.uleb128 0x13
 1648 00d8 00       		.byte	0
 1649 00d9 00       		.byte	0
 1650 00da 13       		.uleb128 0x13
 1651 00db 2E       		.uleb128 0x2e
 1652 00dc 00       		.byte	0
 1653 00dd 3F       		.uleb128 0x3f
 1654 00de 0C       		.uleb128 0xc
 1655 00df 03       		.uleb128 0x3
 1656 00e0 0E       		.uleb128 0xe
 1657 00e1 3A       		.uleb128 0x3a
 1658 00e2 0B       		.uleb128 0xb
 1659 00e3 3B       		.uleb128 0x3b
 1660 00e4 0B       		.uleb128 0xb
 1661 00e5 27       		.uleb128 0x27
 1662 00e6 0C       		.uleb128 0xc
 1663 00e7 11       		.uleb128 0x11
 1664 00e8 01       		.uleb128 0x1
 1665 00e9 12       		.uleb128 0x12
 1666 00ea 01       		.uleb128 0x1
 1667 00eb 40       		.uleb128 0x40
 1668 00ec 0A       		.uleb128 0xa
 1669 00ed 00       		.byte	0
 1670 00ee 00       		.byte	0
 1671 00ef 14       		.uleb128 0x14
 1672 00f0 2E       		.uleb128 0x2e
 1673 00f1 01       		.byte	0x1
 1674 00f2 3F       		.uleb128 0x3f
 1675 00f3 0C       		.uleb128 0xc
 1676 00f4 03       		.uleb128 0x3
 1677 00f5 0E       		.uleb128 0xe
 1678 00f6 3A       		.uleb128 0x3a
 1679 00f7 0B       		.uleb128 0xb
 1680 00f8 3B       		.uleb128 0x3b
 1681 00f9 0B       		.uleb128 0xb
 1682 00fa 27       		.uleb128 0x27
 1683 00fb 0C       		.uleb128 0xc
 1684 00fc 11       		.uleb128 0x11
 1685 00fd 01       		.uleb128 0x1
 1686 00fe 12       		.uleb128 0x12
 1687 00ff 01       		.uleb128 0x1
 1688 0100 40       		.uleb128 0x40
 1689 0101 0A       		.uleb128 0xa
 1690 0102 01       		.uleb128 0x1
 1691 0103 13       		.uleb128 0x13
 1692 0104 00       		.byte	0
 1693 0105 00       		.byte	0
 1694 0106 15       		.uleb128 0x15
 1695 0107 34       		.uleb128 0x34
 1696 0108 00       		.byte	0
 1697 0109 03       		.uleb128 0x3
 1698 010a 0E       		.uleb128 0xe
 1699 010b 3A       		.uleb128 0x3a
 1700 010c 0B       		.uleb128 0xb
 1701 010d 3B       		.uleb128 0x3b
 1702 010e 0B       		.uleb128 0xb
 1703 010f 49       		.uleb128 0x49
ARM GAS  /tmp/cc791jEN.s 			page 31


 1704 0110 13       		.uleb128 0x13
 1705 0111 02       		.uleb128 0x2
 1706 0112 06       		.uleb128 0x6
 1707 0113 00       		.byte	0
 1708 0114 00       		.byte	0
 1709 0115 16       		.uleb128 0x16
 1710 0116 0B       		.uleb128 0xb
 1711 0117 01       		.byte	0x1
 1712 0118 11       		.uleb128 0x11
 1713 0119 01       		.uleb128 0x1
 1714 011a 12       		.uleb128 0x12
 1715 011b 01       		.uleb128 0x1
 1716 011c 00       		.byte	0
 1717 011d 00       		.byte	0
 1718 011e 17       		.uleb128 0x17
 1719 011f 34       		.uleb128 0x34
 1720 0120 00       		.byte	0
 1721 0121 03       		.uleb128 0x3
 1722 0122 08       		.uleb128 0x8
 1723 0123 3A       		.uleb128 0x3a
 1724 0124 0B       		.uleb128 0xb
 1725 0125 3B       		.uleb128 0x3b
 1726 0126 0B       		.uleb128 0xb
 1727 0127 49       		.uleb128 0x49
 1728 0128 13       		.uleb128 0x13
 1729 0129 02       		.uleb128 0x2
 1730 012a 06       		.uleb128 0x6
 1731 012b 00       		.byte	0
 1732 012c 00       		.byte	0
 1733 012d 18       		.uleb128 0x18
 1734 012e 2E       		.uleb128 0x2e
 1735 012f 00       		.byte	0
 1736 0130 3F       		.uleb128 0x3f
 1737 0131 0C       		.uleb128 0xc
 1738 0132 03       		.uleb128 0x3
 1739 0133 0E       		.uleb128 0xe
 1740 0134 3A       		.uleb128 0x3a
 1741 0135 0B       		.uleb128 0xb
 1742 0136 3B       		.uleb128 0x3b
 1743 0137 0B       		.uleb128 0xb
 1744 0138 27       		.uleb128 0x27
 1745 0139 0C       		.uleb128 0xc
 1746 013a 11       		.uleb128 0x11
 1747 013b 01       		.uleb128 0x1
 1748 013c 12       		.uleb128 0x12
 1749 013d 01       		.uleb128 0x1
 1750 013e 40       		.uleb128 0x40
 1751 013f 06       		.uleb128 0x6
 1752 0140 00       		.byte	0
 1753 0141 00       		.byte	0
 1754 0142 19       		.uleb128 0x19
 1755 0143 0B       		.uleb128 0xb
 1756 0144 01       		.byte	0x1
 1757 0145 11       		.uleb128 0x11
 1758 0146 01       		.uleb128 0x1
 1759 0147 12       		.uleb128 0x12
 1760 0148 01       		.uleb128 0x1
ARM GAS  /tmp/cc791jEN.s 			page 32


 1761 0149 01       		.uleb128 0x1
 1762 014a 13       		.uleb128 0x13
 1763 014b 00       		.byte	0
 1764 014c 00       		.byte	0
 1765 014d 1A       		.uleb128 0x1a
 1766 014e 0B       		.uleb128 0xb
 1767 014f 01       		.byte	0x1
 1768 0150 55       		.uleb128 0x55
 1769 0151 06       		.uleb128 0x6
 1770 0152 01       		.uleb128 0x1
 1771 0153 13       		.uleb128 0x13
 1772 0154 00       		.byte	0
 1773 0155 00       		.byte	0
 1774 0156 1B       		.uleb128 0x1b
 1775 0157 2E       		.uleb128 0x2e
 1776 0158 01       		.byte	0x1
 1777 0159 3F       		.uleb128 0x3f
 1778 015a 0C       		.uleb128 0xc
 1779 015b 03       		.uleb128 0x3
 1780 015c 0E       		.uleb128 0xe
 1781 015d 3A       		.uleb128 0x3a
 1782 015e 0B       		.uleb128 0xb
 1783 015f 3B       		.uleb128 0x3b
 1784 0160 0B       		.uleb128 0xb
 1785 0161 27       		.uleb128 0x27
 1786 0162 0C       		.uleb128 0xc
 1787 0163 11       		.uleb128 0x11
 1788 0164 01       		.uleb128 0x1
 1789 0165 12       		.uleb128 0x12
 1790 0166 01       		.uleb128 0x1
 1791 0167 40       		.uleb128 0x40
 1792 0168 06       		.uleb128 0x6
 1793 0169 01       		.uleb128 0x1
 1794 016a 13       		.uleb128 0x13
 1795 016b 00       		.byte	0
 1796 016c 00       		.byte	0
 1797 016d 1C       		.uleb128 0x1c
 1798 016e 05       		.uleb128 0x5
 1799 016f 00       		.byte	0
 1800 0170 03       		.uleb128 0x3
 1801 0171 08       		.uleb128 0x8
 1802 0172 3A       		.uleb128 0x3a
 1803 0173 0B       		.uleb128 0xb
 1804 0174 3B       		.uleb128 0x3b
 1805 0175 0B       		.uleb128 0xb
 1806 0176 49       		.uleb128 0x49
 1807 0177 13       		.uleb128 0x13
 1808 0178 02       		.uleb128 0x2
 1809 0179 0A       		.uleb128 0xa
 1810 017a 00       		.byte	0
 1811 017b 00       		.byte	0
 1812 017c 1D       		.uleb128 0x1d
 1813 017d 2E       		.uleb128 0x2e
 1814 017e 01       		.byte	0x1
 1815 017f 3F       		.uleb128 0x3f
 1816 0180 0C       		.uleb128 0xc
 1817 0181 03       		.uleb128 0x3
ARM GAS  /tmp/cc791jEN.s 			page 33


 1818 0182 0E       		.uleb128 0xe
 1819 0183 3A       		.uleb128 0x3a
 1820 0184 0B       		.uleb128 0xb
 1821 0185 3B       		.uleb128 0x3b
 1822 0186 05       		.uleb128 0x5
 1823 0187 27       		.uleb128 0x27
 1824 0188 0C       		.uleb128 0xc
 1825 0189 11       		.uleb128 0x11
 1826 018a 01       		.uleb128 0x1
 1827 018b 12       		.uleb128 0x12
 1828 018c 01       		.uleb128 0x1
 1829 018d 40       		.uleb128 0x40
 1830 018e 0A       		.uleb128 0xa
 1831 018f 01       		.uleb128 0x1
 1832 0190 13       		.uleb128 0x13
 1833 0191 00       		.byte	0
 1834 0192 00       		.byte	0
 1835 0193 1E       		.uleb128 0x1e
 1836 0194 34       		.uleb128 0x34
 1837 0195 00       		.byte	0
 1838 0196 03       		.uleb128 0x3
 1839 0197 08       		.uleb128 0x8
 1840 0198 3A       		.uleb128 0x3a
 1841 0199 0B       		.uleb128 0xb
 1842 019a 3B       		.uleb128 0x3b
 1843 019b 05       		.uleb128 0x5
 1844 019c 49       		.uleb128 0x49
 1845 019d 13       		.uleb128 0x13
 1846 019e 02       		.uleb128 0x2
 1847 019f 06       		.uleb128 0x6
 1848 01a0 00       		.byte	0
 1849 01a1 00       		.byte	0
 1850 01a2 1F       		.uleb128 0x1f
 1851 01a3 34       		.uleb128 0x34
 1852 01a4 00       		.byte	0
 1853 01a5 03       		.uleb128 0x3
 1854 01a6 0E       		.uleb128 0xe
 1855 01a7 3A       		.uleb128 0x3a
 1856 01a8 0B       		.uleb128 0xb
 1857 01a9 3B       		.uleb128 0x3b
 1858 01aa 0B       		.uleb128 0xb
 1859 01ab 49       		.uleb128 0x49
 1860 01ac 13       		.uleb128 0x13
 1861 01ad 3F       		.uleb128 0x3f
 1862 01ae 0C       		.uleb128 0xc
 1863 01af 3C       		.uleb128 0x3c
 1864 01b0 0C       		.uleb128 0xc
 1865 01b1 00       		.byte	0
 1866 01b2 00       		.byte	0
 1867 01b3 00       		.byte	0
 1868              		.section	.debug_loc,"",%progbits
 1869              	.Ldebug_loc0:
 1870              	.LLST0:
 1871 0000 04000000 		.4byte	.LVL0
 1872 0004 06000000 		.4byte	.LVL1
 1873 0008 0300     		.2byte	0x3
 1874 000a 73       		.byte	0x73
ARM GAS  /tmp/cc791jEN.s 			page 34


 1875 000b 20       		.sleb128 32
 1876 000c 9F       		.byte	0x9f
 1877 000d 06000000 		.4byte	.LVL1
 1878 0011 0C000000 		.4byte	.LVL2
 1879 0015 0100     		.2byte	0x1
 1880 0017 53       		.byte	0x53
 1881 0018 00000000 		.4byte	0
 1882 001c 00000000 		.4byte	0
 1883              	.LLST1:
 1884 0020 10000000 		.4byte	.LVL3
 1885 0024 12000000 		.4byte	.LFE8
 1886 0028 0100     		.2byte	0x1
 1887 002a 53       		.byte	0x53
 1888 002b 00000000 		.4byte	0
 1889 002f 00000000 		.4byte	0
 1890              	.LLST2:
 1891 0033 00000000 		.4byte	.LFB9
 1892 0037 02000000 		.4byte	.LCFI0
 1893 003b 0200     		.2byte	0x2
 1894 003d 7D       		.byte	0x7d
 1895 003e 00       		.sleb128 0
 1896 003f 02000000 		.4byte	.LCFI0
 1897 0043 34000000 		.4byte	.LFE9
 1898 0047 0200     		.2byte	0x2
 1899 0049 7D       		.byte	0x7d
 1900 004a 08       		.sleb128 8
 1901 004b 00000000 		.4byte	0
 1902 004f 00000000 		.4byte	0
 1903              	.LLST3:
 1904 0053 06000000 		.4byte	.LVL5
 1905 0057 10000000 		.4byte	.LVL6
 1906 005b 0100     		.2byte	0x1
 1907 005d 53       		.byte	0x53
 1908 005e 00000000 		.4byte	0
 1909 0062 00000000 		.4byte	0
 1910              	.LLST4:
 1911 0066 1A000000 		.4byte	.LVL7
 1912 006a 56000000 		.4byte	.LVL8
 1913 006e 0300     		.2byte	0x3
 1914 0070 72       		.byte	0x72
 1915 0071 60       		.sleb128 -32
 1916 0072 9F       		.byte	0x9f
 1917 0073 5C000000 		.4byte	.LVL10
 1918 0077 7E000000 		.4byte	.LFE10
 1919 007b 0100     		.2byte	0x1
 1920 007d 5C       		.byte	0x5c
 1921 007e 00000000 		.4byte	0
 1922 0082 00000000 		.4byte	0
 1923              	.LLST5:
 1924 0086 5A000000 		.4byte	.LVL9
 1925 008a 5C000000 		.4byte	.LVL10
 1926 008e 0100     		.2byte	0x1
 1927 0090 53       		.byte	0x53
 1928 0091 00000000 		.4byte	0
 1929 0095 00000000 		.4byte	0
 1930              	.LLST6:
 1931 0099 00000000 		.4byte	.LFB7
ARM GAS  /tmp/cc791jEN.s 			page 35


 1932 009d 02000000 		.4byte	.LCFI1
 1933 00a1 0200     		.2byte	0x2
 1934 00a3 7D       		.byte	0x7d
 1935 00a4 00       		.sleb128 0
 1936 00a5 02000000 		.4byte	.LCFI1
 1937 00a9 1A000000 		.4byte	.LFE7
 1938 00ad 0200     		.2byte	0x2
 1939 00af 7D       		.byte	0x7d
 1940 00b0 08       		.sleb128 8
 1941 00b1 00000000 		.4byte	0
 1942 00b5 00000000 		.4byte	0
 1943              	.LLST7:
 1944 00b9 08000000 		.4byte	.LVL12
 1945 00bd 0B000000 		.4byte	.LVL13-1
 1946 00c1 0100     		.2byte	0x1
 1947 00c3 53       		.byte	0x53
 1948 00c4 00000000 		.4byte	0
 1949 00c8 00000000 		.4byte	0
 1950              	.LLST8:
 1951 00cc 12000000 		.4byte	.LVL15
 1952 00d0 19000000 		.4byte	.LVL16-1
 1953 00d4 0100     		.2byte	0x1
 1954 00d6 53       		.byte	0x53
 1955 00d7 00000000 		.4byte	0
 1956 00db 00000000 		.4byte	0
 1957              	.LLST9:
 1958 00df 06000000 		.4byte	.LVL19
 1959 00e3 10000000 		.4byte	.LFE13
 1960 00e7 0100     		.2byte	0x1
 1961 00e9 53       		.byte	0x53
 1962 00ea 00000000 		.4byte	0
 1963 00ee 00000000 		.4byte	0
 1964              		.section	.debug_aranges,"",%progbits
 1965 0000 4C000000 		.4byte	0x4c
 1966 0004 0200     		.2byte	0x2
 1967 0006 00000000 		.4byte	.Ldebug_info0
 1968 000a 04       		.byte	0x4
 1969 000b 00       		.byte	0
 1970 000c 0000     		.2byte	0
 1971 000e 0000     		.2byte	0
 1972 0010 00000000 		.4byte	.LFB11
 1973 0014 06000000 		.4byte	.LFE11-.LFB11
 1974 0018 00000000 		.4byte	.LFB8
 1975 001c 12000000 		.4byte	.LFE8-.LFB8
 1976 0020 00000000 		.4byte	.LFB9
 1977 0024 34000000 		.4byte	.LFE9-.LFB9
 1978 0028 00000000 		.4byte	.LFB10
 1979 002c 7E000000 		.4byte	.LFE10-.LFB10
 1980 0030 00000000 		.4byte	.LFB7
 1981 0034 1A000000 		.4byte	.LFE7-.LFB7
 1982 0038 00000000 		.4byte	.LFB12
 1983 003c 10000000 		.4byte	.LFE12-.LFB12
 1984 0040 00000000 		.4byte	.LFB13
 1985 0044 10000000 		.4byte	.LFE13-.LFB13
 1986 0048 00000000 		.4byte	0
 1987 004c 00000000 		.4byte	0
 1988              		.section	.debug_ranges,"",%progbits
ARM GAS  /tmp/cc791jEN.s 			page 36


 1989              	.Ldebug_ranges0:
 1990 0000 16000000 		.4byte	.LBB4
 1991 0004 56000000 		.4byte	.LBE4
 1992 0008 5C000000 		.4byte	.LBB6
 1993 000c 7E000000 		.4byte	.LBE6
 1994 0010 00000000 		.4byte	0
 1995 0014 00000000 		.4byte	0
 1996 0018 00000000 		.4byte	.LFB11
 1997 001c 06000000 		.4byte	.LFE11
 1998 0020 00000000 		.4byte	.LFB8
 1999 0024 12000000 		.4byte	.LFE8
 2000 0028 00000000 		.4byte	.LFB9
 2001 002c 34000000 		.4byte	.LFE9
 2002 0030 00000000 		.4byte	.LFB10
 2003 0034 7E000000 		.4byte	.LFE10
 2004 0038 00000000 		.4byte	.LFB7
 2005 003c 1A000000 		.4byte	.LFE7
 2006 0040 00000000 		.4byte	.LFB12
 2007 0044 10000000 		.4byte	.LFE12
 2008 0048 00000000 		.4byte	.LFB13
 2009 004c 10000000 		.4byte	.LFE13
 2010 0050 00000000 		.4byte	0
 2011 0054 00000000 		.4byte	0
 2012              		.section	.debug_line,"",%progbits
 2013              	.Ldebug_line0:
 2014 0000 E2010000 		.section	.debug_str,"MS",%progbits,1
 2014      02002D01 
 2014      00000201 
 2014      FB0E0D00 
 2014      01010101 
 2015              	.LASF34:
 2016 0000 705F6D73 		.ascii	"p_msg\000"
 2016      6700
 2017              	.LASF75:
 2018 0006 7264796D 		.ascii	"rdymsg\000"
 2018      736700
 2019              	.LASF62:
 2020 000d 434D785F 		.ascii	"CMx_SCB\000"
 2020      53434200 
 2021              	.LASF85:
 2022 0015 53797354 		.ascii	"SysTickVector\000"
 2022      69636B56 
 2022      6563746F 
 2022      7200
 2023              	.LASF11:
 2024 0023 6C6F6E67 		.ascii	"long long unsigned int\000"
 2024      206C6F6E 
 2024      6720756E 
 2024      7369676E 
 2024      65642069 
 2025              	.LASF76:
 2026 003a 65786974 		.ascii	"exitcode\000"
 2026      636F6465 
 2026      00
 2027              	.LASF47:
 2028 0043 43505549 		.ascii	"CPUID\000"
 2028      4400
ARM GAS  /tmp/cc791jEN.s 			page 37


 2029              	.LASF23:
 2030 0049 705F7072 		.ascii	"p_prio\000"
 2030      696F00
 2031              	.LASF10:
 2032 0050 6C6F6E67 		.ascii	"long long int\000"
 2032      206C6F6E 
 2032      6720696E 
 2032      7400
 2033              	.LASF1:
 2034 005e 7369676E 		.ascii	"signed char\000"
 2034      65642063 
 2034      68617200 
 2035              	.LASF38:
 2036 006a 705F6D70 		.ascii	"p_mpool\000"
 2036      6F6F6C00 
 2037              	.LASF72:
 2038 0072 6D5F7175 		.ascii	"m_queue\000"
 2038      65756500 
 2039              	.LASF7:
 2040 007a 6C6F6E67 		.ascii	"long int\000"
 2040      20696E74 
 2040      00
 2041              	.LASF13:
 2042 0083 74737461 		.ascii	"tstate_t\000"
 2042      74655F74 
 2042      00
 2043              	.LASF87:
 2044 008c 5F706F72 		.ascii	"_port_thread_start\000"
 2044      745F7468 
 2044      72656164 
 2044      5F737461 
 2044      727400
 2045              	.LASF25:
 2046 009f 705F6E65 		.ascii	"p_newer\000"
 2046      77657200 
 2047              	.LASF57:
 2048 00a7 42464152 		.ascii	"BFAR\000"
 2048      00
 2049              	.LASF66:
 2050 00ac 725F6E65 		.ascii	"r_newer\000"
 2050      77657200 
 2051              	.LASF41:
 2052 00b4 72656761 		.ascii	"regarm_t\000"
 2052      726D5F74 
 2052      00
 2053              	.LASF19:
 2054 00bd 636E745F 		.ascii	"cnt_t\000"
 2054      7400
 2055              	.LASF0:
 2056 00c3 756E7369 		.ascii	"unsigned int\000"
 2056      676E6564 
 2056      20696E74 
 2056      00
 2057              	.LASF43:
 2058 00d0 6C725F74 		.ascii	"lr_thd\000"
 2058      686400
 2059              	.LASF42:
ARM GAS  /tmp/cc791jEN.s 			page 38


 2060 00d7 65787463 		.ascii	"extctx\000"
 2060      747800
 2061              	.LASF86:
 2062 00de 5F706F72 		.ascii	"_port_switch\000"
 2062      745F7377 
 2062      69746368 
 2062      00
 2063              	.LASF9:
 2064 00eb 6C6F6E67 		.ascii	"long unsigned int\000"
 2064      20756E73 
 2064      69676E65 
 2064      6420696E 
 2064      7400
 2065              	.LASF49:
 2066 00fd 56544F52 		.ascii	"VTOR\000"
 2066      00
 2067              	.LASF81:
 2068 0102 5F706F72 		.ascii	"_port_switch_from_isr\000"
 2068      745F7377 
 2068      69746368 
 2068      5F66726F 
 2068      6D5F6973 
 2069              	.LASF46:
 2070 0118 636F6E74 		.ascii	"context\000"
 2070      65787400 
 2071              	.LASF4:
 2072 0120 73686F72 		.ascii	"short unsigned int\000"
 2072      7420756E 
 2072      7369676E 
 2072      65642069 
 2072      6E7400
 2073              	.LASF48:
 2074 0133 49435352 		.ascii	"ICSR\000"
 2074      00
 2075              	.LASF16:
 2076 0138 6D73675F 		.ascii	"msg_t\000"
 2076      7400
 2077              	.LASF50:
 2078 013e 41495243 		.ascii	"AIRCR\000"
 2078      5200
 2079              	.LASF55:
 2080 0144 44465352 		.ascii	"DFSR\000"
 2080      00
 2081              	.LASF56:
 2082 0149 4D4D4641 		.ascii	"MMFAR\000"
 2082      5200
 2083              	.LASF84:
 2084 014f 5F706F72 		.ascii	"_port_irq_epilogue\000"
 2084      745F6972 
 2084      715F6570 
 2084      696C6F67 
 2084      756500
 2085              	.LASF12:
 2086 0162 746D6F64 		.ascii	"tmode_t\000"
 2086      655F7400 
 2087              	.LASF40:
 2088 016a 54687265 		.ascii	"ThreadsList\000"
ARM GAS  /tmp/cc791jEN.s 			page 39


 2088      6164734C 
 2088      69737400 
 2089              	.LASF17:
 2090 0176 6576656E 		.ascii	"eventmask_t\000"
 2090      746D6173 
 2090      6B5F7400 
 2091              	.LASF71:
 2092 0182 4D757465 		.ascii	"Mutex\000"
 2092      7800
 2093              	.LASF53:
 2094 0188 43465352 		.ascii	"CFSR\000"
 2094      00
 2095              	.LASF26:
 2096 018d 705F6F6C 		.ascii	"p_older\000"
 2096      64657200 
 2097              	.LASF65:
 2098 0195 725F6374 		.ascii	"r_ctx\000"
 2098      7800
 2099              	.LASF39:
 2100 019b 54687265 		.ascii	"ThreadsQueue\000"
 2100      61647351 
 2100      75657565 
 2100      00
 2101              	.LASF69:
 2102 01a8 725F6375 		.ascii	"r_current\000"
 2102      7272656E 
 2102      7400
 2103              	.LASF67:
 2104 01b2 725F6F6C 		.ascii	"r_older\000"
 2104      64657200 
 2105              	.LASF14:
 2106 01ba 74726566 		.ascii	"trefs_t\000"
 2106      735F7400 
 2107              	.LASF80:
 2108 01c2 63747870 		.ascii	"ctxp\000"
 2108      00
 2109              	.LASF22:
 2110 01c7 705F7072 		.ascii	"p_prev\000"
 2110      657600
 2111              	.LASF15:
 2112 01ce 74707269 		.ascii	"tprio_t\000"
 2112      6F5F7400 
 2113              	.LASF6:
 2114 01d6 696E7433 		.ascii	"int32_t\000"
 2114      325F7400 
 2115              	.LASF2:
 2116 01de 756E7369 		.ascii	"unsigned char\000"
 2116      676E6564 
 2116      20636861 
 2116      7200
 2117              	.LASF52:
 2118 01ec 53484353 		.ascii	"SHCSR\000"
 2118      5200
 2119              	.LASF36:
 2120 01f2 705F6D74 		.ascii	"p_mtxlist\000"
 2120      786C6973 
 2120      7400
ARM GAS  /tmp/cc791jEN.s 			page 40


 2121              	.LASF3:
 2122 01fc 73686F72 		.ascii	"short int\000"
 2122      7420696E 
 2122      7400
 2123              	.LASF28:
 2124 0206 705F7374 		.ascii	"p_state\000"
 2124      61746500 
 2125              	.LASF44:
 2126 020e 78707372 		.ascii	"xpsr\000"
 2126      00
 2127              	.LASF64:
 2128 0213 725F7072 		.ascii	"r_prio\000"
 2128      696F00
 2129              	.LASF78:
 2130 021a 65776D61 		.ascii	"ewmask\000"
 2130      736B00
 2131              	.LASF21:
 2132 0221 705F6E65 		.ascii	"p_next\000"
 2132      787400
 2133              	.LASF29:
 2134 0228 705F666C 		.ascii	"p_flags\000"
 2134      61677300 
 2135              	.LASF20:
 2136 0230 54687265 		.ascii	"Thread\000"
 2136      616400
 2137              	.LASF35:
 2138 0237 705F6570 		.ascii	"p_epending\000"
 2138      656E6469 
 2138      6E6700
 2139              	.LASF8:
 2140 0242 75696E74 		.ascii	"uint32_t\000"
 2140      33325F74 
 2140      00
 2141              	.LASF63:
 2142 024b 725F7175 		.ascii	"r_queue\000"
 2142      65756500 
 2143              	.LASF58:
 2144 0253 41465352 		.ascii	"AFSR\000"
 2144      00
 2145              	.LASF60:
 2146 0258 756E7573 		.ascii	"unused1\000"
 2146      65643100 
 2147              	.LASF89:
 2148 0260 474E5520 		.ascii	"GNU C 4.6.1\000"
 2148      4320342E 
 2148      362E3100 
 2149              	.LASF91:
 2150 026c 2F686F6D 		.ascii	"/home/johnny/un/Sistemas_Embebidos/piccolo-Iflab/Ch"
 2150      652F6A6F 
 2150      686E6E79 
 2150      2F756E2F 
 2150      53697374 
 2151 029f 6962694F 		.ascii	"ibiOS/ChibiOS/iflab_code/stamp_code\000"
 2151      532F4368 
 2151      6962694F 
 2151      532F6966 
 2151      6C61625F 
ARM GAS  /tmp/cc791jEN.s 			page 41


 2152              	.LASF79:
 2153 02c3 63686172 		.ascii	"char\000"
 2153      00
 2154              	.LASF90:
 2155 02c8 2E2E2F2E 		.ascii	"../../os/ports/GCC/ARMCMx/chcore_v7m.c\000"
 2155      2E2F6F73 
 2155      2F706F72 
 2155      74732F47 
 2155      43432F41 
 2156              	.LASF74:
 2157 02ef 6D5F6E65 		.ascii	"m_next\000"
 2157      787400
 2158              	.LASF18:
 2159 02f6 73797374 		.ascii	"systime_t\000"
 2159      696D655F 
 2159      7400
 2160              	.LASF37:
 2161 0300 705F7265 		.ascii	"p_realprio\000"
 2161      616C7072 
 2161      696F00
 2162              	.LASF83:
 2163 030b 53564361 		.ascii	"SVCallVector\000"
 2163      6C6C5665 
 2163      63746F72 
 2163      00
 2164              	.LASF68:
 2165 0318 725F7072 		.ascii	"r_preempt\000"
 2165      65656D70 
 2165      7400
 2166              	.LASF31:
 2167 0322 705F7469 		.ascii	"p_time\000"
 2167      6D6500
 2168              	.LASF51:
 2169 0329 53485052 		.ascii	"SHPR\000"
 2169      00
 2170              	.LASF45:
 2171 032e 696E7463 		.ascii	"intctx\000"
 2171      747800
 2172              	.LASF33:
 2173 0335 705F6D73 		.ascii	"p_msgqueue\000"
 2173      67717565 
 2173      756500
 2174              	.LASF30:
 2175 0340 705F7265 		.ascii	"p_refs\000"
 2175      667300
 2176              	.LASF70:
 2177 0347 52656164 		.ascii	"ReadyList\000"
 2177      794C6973 
 2177      7400
 2178              	.LASF59:
 2179 0351 4D4D4652 		.ascii	"MMFR\000"
 2179      00
 2180              	.LASF88:
 2181 0356 726C6973 		.ascii	"rlist\000"
 2181      7400
 2182              	.LASF5:
 2183 035c 75696E74 		.ascii	"uint8_t\000"
ARM GAS  /tmp/cc791jEN.s 			page 42


 2183      385F7400 
 2184              	.LASF82:
 2185 0364 5F706F72 		.ascii	"_port_init\000"
 2185      745F696E 
 2185      697400
 2186              	.LASF77:
 2187 036f 77746F62 		.ascii	"wtobjp\000"
 2187      6A7000
 2188              	.LASF27:
 2189 0376 705F6E61 		.ascii	"p_name\000"
 2189      6D6500
 2190              	.LASF61:
 2191 037d 43504143 		.ascii	"CPACR\000"
 2191      5200
 2192              	.LASF54:
 2193 0383 48465352 		.ascii	"HFSR\000"
 2193      00
 2194              	.LASF73:
 2195 0388 6D5F6F77 		.ascii	"m_owner\000"
 2195      6E657200 
 2196              	.LASF24:
 2197 0390 705F6374 		.ascii	"p_ctx\000"
 2197      7800
 2198              	.LASF32:
 2199 0396 705F7761 		.ascii	"p_waiting\000"
 2199      6974696E 
 2199      6700
 2200              		.ident	"GCC: (Sourcery CodeBench Lite 2011.09-69) 4.6.1"
ARM GAS  /tmp/cc791jEN.s 			page 43


DEFINED SYMBOLS
                            *ABS*:00000000 chcore_v7m.c
     /tmp/cc791jEN.s:19     .text._port_switch_from_isr:00000000 $t
     /tmp/cc791jEN.s:25     .text._port_switch_from_isr:00000000 _port_switch_from_isr
     /tmp/cc791jEN.s:37     .text._port_switch_from_isr:00000004 _port_exit_from_isr
     /tmp/cc791jEN.s:49     .text.SVCallVector:00000000 $t
     /tmp/cc791jEN.s:55     .text.SVCallVector:00000000 SVCallVector
     /tmp/cc791jEN.s:92     .text._port_init:00000000 $t
     /tmp/cc791jEN.s:98     .text._port_init:00000000 _port_init
     /tmp/cc791jEN.s:141    .text._port_irq_epilogue:00000000 $t
     /tmp/cc791jEN.s:147    .text._port_irq_epilogue:00000000 _port_irq_epilogue
     /tmp/cc791jEN.s:247    .text.SysTickVector:00000000 $t
     /tmp/cc791jEN.s:253    .text.SysTickVector:00000000 SysTickVector
     /tmp/cc791jEN.s:296    .text._port_switch:00000000 $t
     /tmp/cc791jEN.s:302    .text._port_switch:00000000 _port_switch
     /tmp/cc791jEN.s:329    .text._port_thread_start:00000000 $t
     /tmp/cc791jEN.s:335    .text._port_thread_start:00000000 _port_thread_start
                     .debug_frame:00000010 $d

UNDEFINED SYMBOLS
chSchDoReschedule
nvicSetSystemHandlerPriority
rlist
chSysTimerHandlerI
chThdExit
