ARM GAS  /tmp/ccL5HPqH.s 			page 1


   1              		.syntax unified
   2              		.cpu cortex-m3
   3              		.fpu softvfp
   4              		.eabi_attribute 20, 1
   5              		.eabi_attribute 21, 1
   6              		.eabi_attribute 23, 3
   7              		.eabi_attribute 24, 1
   8              		.eabi_attribute 25, 1
   9              		.eabi_attribute 26, 1
  10              		.eabi_attribute 30, 2
  11              		.eabi_attribute 34, 1
  12              		.eabi_attribute 18, 4
  13              		.thumb
  14              		.file	"chmempools.c"
  15              		.text
  16              	.Ltext0:
  17              		.cfi_sections	.debug_frame
  18              		.section	.text.chPoolInit,"ax",%progbits
  19              		.align	2
  20              		.p2align 4,,15
  21              		.global	chPoolInit
  22              		.thumb
  23              		.thumb_func
  24              		.type	chPoolInit, %function
  25              	chPoolInit:
  26              	.LFB7:
  27              		.file 1 "../../os/kernel/src/chmempools.c"
  28              		.loc 1 61 0
  29              		.cfi_startproc
  30              		@ args = 0, pretend = 0, frame = 0
  31              		@ frame_needed = 0, uses_anonymous_args = 0
  32              		@ link register save eliminated.
  33              	.LVL0:
  34              		.loc 1 66 0
  35 0000 0731     		adds	r1, r1, #7
  36              	.LVL1:
  37 0002 21F00701 		bic	r1, r1, #7
  38              	.LVL2:
  39              		.loc 1 65 0
  40 0006 0023     		movs	r3, #0
  41 0008 0360     		str	r3, [r0, #0]
  42              		.loc 1 66 0
  43 000a 4160     		str	r1, [r0, #4]
  44              		.loc 1 67 0
  45 000c 8260     		str	r2, [r0, #8]
  46              		.loc 1 68 0
  47 000e 7047     		bx	lr
  48              		.cfi_endproc
  49              	.LFE7:
  50              		.size	chPoolInit, .-chPoolInit
  51              		.section	.text.chPoolAllocI,"ax",%progbits
  52              		.align	2
  53              		.p2align 4,,15
  54              		.global	chPoolAllocI
  55              		.thumb
  56              		.thumb_func
  57              		.type	chPoolAllocI, %function
ARM GAS  /tmp/ccL5HPqH.s 			page 2


  58              	chPoolAllocI:
  59              	.LFB8:
  60              		.loc 1 79 0
  61              		.cfi_startproc
  62              		@ args = 0, pretend = 0, frame = 0
  63              		@ frame_needed = 0, uses_anonymous_args = 0
  64              	.LVL3:
  65 0000 0246     		mov	r2, r0
  66              		.loc 1 85 0
  67 0002 0068     		ldr	r0, [r0, #0]
  68              	.LVL4:
  69              		.loc 1 79 0
  70 0004 08B5     		push	{r3, lr}
  71              	.LCFI0:
  72              		.cfi_def_cfa_offset 8
  73              		.cfi_offset 14, -4
  74              		.cfi_offset 3, -8
  75              		.loc 1 85 0
  76 0006 10B1     		cbz	r0, .L3
  77              		.loc 1 86 0
  78 0008 0368     		ldr	r3, [r0, #0]
  79 000a 1360     		str	r3, [r2, #0]
  80 000c 08BD     		pop	{r3, pc}
  81              	.L3:
  82              		.loc 1 87 0
  83 000e 9368     		ldr	r3, [r2, #8]
  84 0010 0BB1     		cbz	r3, .L4
  85              		.loc 1 88 0
  86 0012 5068     		ldr	r0, [r2, #4]
  87 0014 9847     		blx	r3
  88              	.LVL5:
  89              	.L4:
  90              		.loc 1 90 0
  91 0016 08BD     		pop	{r3, pc}
  92              		.cfi_endproc
  93              	.LFE8:
  94              		.size	chPoolAllocI, .-chPoolAllocI
  95 0018 AFF30080 		.section	.text.chPoolAlloc,"ax",%progbits
  95      AFF30080 
  96              		.align	2
  97              		.p2align 4,,15
  98              		.global	chPoolAlloc
  99              		.thumb
 100              		.thumb_func
 101              		.type	chPoolAlloc, %function
 102              	chPoolAlloc:
 103              	.LFB9:
 104              		.loc 1 101 0
 105              		.cfi_startproc
 106              		@ args = 0, pretend = 0, frame = 0
 107              		@ frame_needed = 0, uses_anonymous_args = 0
 108              	.LVL6:
 109 0000 08B5     		push	{r3, lr}
 110              	.LCFI1:
 111              		.cfi_def_cfa_offset 8
 112              		.cfi_offset 14, -4
 113              		.cfi_offset 3, -8
ARM GAS  /tmp/ccL5HPqH.s 			page 3


 114              		.loc 1 101 0
 115 0002 0246     		mov	r2, r0
 116              	.LBB10:
 117              		.loc 1 104 0
 118 0004 2023     		movs	r3, #32
 119              	.LVL7:
 120              	@ 104 "../../os/kernel/src/chmempools.c" 1
 121 0006 83F31188 		msr     BASEPRI, r3
 122              	@ 0 "" 2
 123              	.LVL8:
 124              		.thumb
 125              	.LBE10:
 126              	.LBB11:
 127              	.LBB12:
 128              		.loc 1 85 0
 129 000a 0068     		ldr	r0, [r0, #0]
 130              	.LVL9:
 131 000c 28B1     		cbz	r0, .L7
 132              		.loc 1 86 0
 133 000e 0368     		ldr	r3, [r0, #0]
 134              	.LVL10:
 135 0010 1360     		str	r3, [r2, #0]
 136              	.LVL11:
 137              	.L8:
 138              	.LBE12:
 139              	.LBE11:
 140              	.LBB14:
 141              		.loc 1 106 0
 142 0012 0023     		movs	r3, #0
 143              	.LVL12:
 144              	@ 106 "../../os/kernel/src/chmempools.c" 1
 145 0014 83F31188 		msr     BASEPRI, r3
 146              	@ 0 "" 2
 147              	.LVL13:
 148              		.thumb
 149              	.LBE14:
 150              		.loc 1 108 0
 151 0018 08BD     		pop	{r3, pc}
 152              	.LVL14:
 153              	.L7:
 154              	.LBB15:
 155              	.LBB13:
 156              		.loc 1 87 0
 157 001a 9368     		ldr	r3, [r2, #8]
 158              	.LVL15:
 159 001c 002B     		cmp	r3, #0
 160 001e F8D0     		beq	.L8
 161              		.loc 1 88 0
 162 0020 5068     		ldr	r0, [r2, #4]
 163 0022 9847     		blx	r3
 164              	.LVL16:
 165              	.LBE13:
 166              	.LBE15:
 167              	.LBB16:
 168              		.loc 1 106 0
 169 0024 0023     		movs	r3, #0
 170              	@ 106 "../../os/kernel/src/chmempools.c" 1
ARM GAS  /tmp/ccL5HPqH.s 			page 4


 171 0026 83F31188 		msr     BASEPRI, r3
 172              	@ 0 "" 2
 173              	.LVL17:
 174              		.thumb
 175              	.LBE16:
 176              		.loc 1 108 0
 177 002a 08BD     		pop	{r3, pc}
 178              		.cfi_endproc
 179              	.LFE9:
 180              		.size	chPoolAlloc, .-chPoolAlloc
 181 002c AFF30080 		.section	.text.chPoolFreeI,"ax",%progbits
 182              		.align	2
 183              		.p2align 4,,15
 184              		.global	chPoolFreeI
 185              		.thumb
 186              		.thumb_func
 187              		.type	chPoolFreeI, %function
 188              	chPoolFreeI:
 189              	.LFB10:
 190              		.loc 1 122 0
 191              		.cfi_startproc
 192              		@ args = 0, pretend = 0, frame = 0
 193              		@ frame_needed = 0, uses_anonymous_args = 0
 194              		@ link register save eliminated.
 195              	.LVL18:
 196              		.loc 1 129 0
 197 0000 0368     		ldr	r3, [r0, #0]
 198              	.LVL19:
 199 0002 0B60     		str	r3, [r1, #0]
 200              		.loc 1 130 0
 201 0004 0160     		str	r1, [r0, #0]
 202              		.loc 1 131 0
 203 0006 7047     		bx	lr
 204              		.cfi_endproc
 205              	.LFE10:
 206              		.size	chPoolFreeI, .-chPoolFreeI
 207 0008 AFF30080 		.section	.text.chPoolFree,"ax",%progbits
 207      AFF30080 
 208              		.align	2
 209              		.p2align 4,,15
 210              		.global	chPoolFree
 211              		.thumb
 212              		.thumb_func
 213              		.type	chPoolFree, %function
 214              	chPoolFree:
 215              	.LFB11:
 216              		.loc 1 145 0
 217              		.cfi_startproc
 218              		@ args = 0, pretend = 0, frame = 0
 219              		@ frame_needed = 0, uses_anonymous_args = 0
 220              		@ link register save eliminated.
 221              	.LVL20:
 222              	.LBB17:
 223              		.loc 1 147 0
 224 0000 2023     		movs	r3, #32
 225              	.LVL21:
 226              	@ 147 "../../os/kernel/src/chmempools.c" 1
ARM GAS  /tmp/ccL5HPqH.s 			page 5


 227 0002 83F31188 		msr     BASEPRI, r3
 228              	@ 0 "" 2
 229              	.LVL22:
 230              		.thumb
 231              	.LBE17:
 232              	.LBB18:
 233              	.LBB19:
 234              		.loc 1 129 0
 235 0006 0268     		ldr	r2, [r0, #0]
 236              	.LBE19:
 237              	.LBE18:
 238              	.LBB21:
 239              		.loc 1 149 0
 240 0008 0023     		movs	r3, #0
 241              	.LVL23:
 242              	.LBE21:
 243              	.LBB22:
 244              	.LBB20:
 245              		.loc 1 129 0
 246 000a 0A60     		str	r2, [r1, #0]
 247              		.loc 1 130 0
 248 000c 0160     		str	r1, [r0, #0]
 249              	.LBE20:
 250              	.LBE22:
 251              	.LBB23:
 252              		.loc 1 149 0
 253              	@ 149 "../../os/kernel/src/chmempools.c" 1
 254 000e 83F31188 		msr     BASEPRI, r3
 255              	@ 0 "" 2
 256              	.LVL24:
 257              		.thumb
 258              	.LBE23:
 259              		.loc 1 150 0
 260 0012 7047     		bx	lr
 261              		.cfi_endproc
 262              	.LFE11:
 263              		.size	chPoolFree, .-chPoolFree
 264 0014 AFF30080 		.text
 264      AFF30080 
 264      AFF30080 
 265              	.Letext0:
 266              		.file 2 "/opt/arm-2011q3/bin/../lib/gcc/arm-none-eabi/4.6.1/include/stddef.h"
 267              		.file 3 "/opt/arm-2011q3/bin/../lib/gcc/arm-none-eabi/4.6.1/../../../../arm-none-eabi/include/stdi
 268              		.file 4 "../../os/kernel/include/chmemcore.h"
 269              		.file 5 "../../os/kernel/include/chmempools.h"
 270              		.section	.debug_info,"",%progbits
 271              	.Ldebug_info0:
 272 0000 21030000 		.4byte	0x321
 273 0004 0200     		.2byte	0x2
 274 0006 00000000 		.4byte	.Ldebug_abbrev0
 275 000a 04       		.byte	0x4
 276 000b 01       		.uleb128 0x1
 277 000c 8E000000 		.4byte	.LASF23
 278 0010 01       		.byte	0x1
 279 0011 A6000000 		.4byte	.LASF24
 280 0015 16000000 		.4byte	.LASF25
 281 0019 00000000 		.4byte	0
ARM GAS  /tmp/ccL5HPqH.s 			page 6


 282 001d 00000000 		.4byte	0
 283 0021 90000000 		.4byte	.Ldebug_ranges0+0x90
 284 0025 00000000 		.4byte	.Ldebug_line0
 285 0029 02       		.uleb128 0x2
 286 002a 04       		.byte	0x4
 287 002b 05       		.byte	0x5
 288 002c 696E7400 		.ascii	"int\000"
 289 0030 03       		.uleb128 0x3
 290 0031 00000000 		.4byte	.LASF6
 291 0035 02       		.byte	0x2
 292 0036 D4       		.byte	0xd4
 293 0037 3B000000 		.4byte	0x3b
 294 003b 04       		.uleb128 0x4
 295 003c 04       		.byte	0x4
 296 003d 07       		.byte	0x7
 297 003e FD000000 		.4byte	.LASF0
 298 0042 04       		.uleb128 0x4
 299 0043 01       		.byte	0x1
 300 0044 06       		.byte	0x6
 301 0045 7D010000 		.4byte	.LASF1
 302 0049 04       		.uleb128 0x4
 303 004a 01       		.byte	0x1
 304 004b 08       		.byte	0x8
 305 004c C7000000 		.4byte	.LASF2
 306 0050 04       		.uleb128 0x4
 307 0051 02       		.byte	0x2
 308 0052 05       		.byte	0x5
 309 0053 55010000 		.4byte	.LASF3
 310 0057 04       		.uleb128 0x4
 311 0058 02       		.byte	0x2
 312 0059 07       		.byte	0x7
 313 005a 72000000 		.4byte	.LASF4
 314 005e 04       		.uleb128 0x4
 315 005f 04       		.byte	0x4
 316 0060 05       		.byte	0x5
 317 0061 74010000 		.4byte	.LASF5
 318 0065 03       		.uleb128 0x3
 319 0066 6B010000 		.4byte	.LASF7
 320 006a 03       		.byte	0x3
 321 006b 50       		.byte	0x50
 322 006c 70000000 		.4byte	0x70
 323 0070 04       		.uleb128 0x4
 324 0071 04       		.byte	0x4
 325 0072 07       		.byte	0x7
 326 0073 60000000 		.4byte	.LASF8
 327 0077 04       		.uleb128 0x4
 328 0078 08       		.byte	0x8
 329 0079 05       		.byte	0x5
 330 007a 29010000 		.4byte	.LASF9
 331 007e 04       		.uleb128 0x4
 332 007f 08       		.byte	0x8
 333 0080 07       		.byte	0x7
 334 0081 0A010000 		.4byte	.LASF10
 335 0085 05       		.uleb128 0x5
 336 0086 04       		.byte	0x4
 337 0087 03       		.uleb128 0x3
 338 0088 3C010000 		.4byte	.LASF11
ARM GAS  /tmp/ccL5HPqH.s 			page 7


 339 008c 04       		.byte	0x4
 340 008d 2C       		.byte	0x2c
 341 008e 92000000 		.4byte	0x92
 342 0092 06       		.uleb128 0x6
 343 0093 04       		.byte	0x4
 344 0094 98000000 		.4byte	0x98
 345 0098 07       		.uleb128 0x7
 346 0099 01       		.byte	0x1
 347 009a 85000000 		.4byte	0x85
 348 009e A8000000 		.4byte	0xa8
 349 00a2 08       		.uleb128 0x8
 350 00a3 30000000 		.4byte	0x30
 351 00a7 00       		.byte	0
 352 00a8 09       		.uleb128 0x9
 353 00a9 4F000000 		.4byte	.LASF26
 354 00ad 04       		.byte	0x4
 355 00ae 05       		.byte	0x5
 356 00af 2C       		.byte	0x2c
 357 00b0 C3000000 		.4byte	0xc3
 358 00b4 0A       		.uleb128 0xa
 359 00b5 21010000 		.4byte	.LASF12
 360 00b9 05       		.byte	0x5
 361 00ba 2D       		.byte	0x2d
 362 00bb C3000000 		.4byte	0xc3
 363 00bf 02       		.byte	0x2
 364 00c0 23       		.byte	0x23
 365 00c1 00       		.uleb128 0
 366 00c2 00       		.byte	0
 367 00c3 06       		.uleb128 0x6
 368 00c4 04       		.byte	0x4
 369 00c5 A8000000 		.4byte	0xa8
 370 00c9 0B       		.uleb128 0xb
 371 00ca 0C       		.byte	0xc
 372 00cb 05       		.byte	0x5
 373 00cc 34       		.byte	0x34
 374 00cd FC000000 		.4byte	0xfc
 375 00d1 0A       		.uleb128 0xa
 376 00d2 89010000 		.4byte	.LASF13
 377 00d6 05       		.byte	0x5
 378 00d7 35       		.byte	0x35
 379 00d8 C3000000 		.4byte	0xc3
 380 00dc 02       		.byte	0x2
 381 00dd 23       		.byte	0x23
 382 00de 00       		.uleb128 0
 383 00df 0A       		.uleb128 0xa
 384 00e0 07000000 		.4byte	.LASF14
 385 00e4 05       		.byte	0x5
 386 00e5 36       		.byte	0x36
 387 00e6 30000000 		.4byte	0x30
 388 00ea 02       		.byte	0x2
 389 00eb 23       		.byte	0x23
 390 00ec 04       		.uleb128 0x4
 391 00ed 0A       		.uleb128 0xa
 392 00ee 49010000 		.4byte	.LASF15
 393 00f2 05       		.byte	0x5
 394 00f3 38       		.byte	0x38
 395 00f4 87000000 		.4byte	0x87
ARM GAS  /tmp/ccL5HPqH.s 			page 8


 396 00f8 02       		.byte	0x2
 397 00f9 23       		.byte	0x23
 398 00fa 08       		.uleb128 0x8
 399 00fb 00       		.byte	0
 400 00fc 03       		.uleb128 0x3
 401 00fd E0000000 		.4byte	.LASF16
 402 0101 05       		.byte	0x5
 403 0102 3A       		.byte	0x3a
 404 0103 C9000000 		.4byte	0xc9
 405 0107 04       		.uleb128 0x4
 406 0108 01       		.byte	0x1
 407 0109 08       		.byte	0x8
 408 010a 37010000 		.4byte	.LASF17
 409 010e 0C       		.uleb128 0xc
 410 010f 01       		.byte	0x1
 411 0110 F0000000 		.4byte	.LASF21
 412 0114 01       		.byte	0x1
 413 0115 4F       		.byte	0x4f
 414 0116 01       		.byte	0x1
 415 0117 85000000 		.4byte	0x85
 416 011b 01       		.byte	0x1
 417 011c 36010000 		.4byte	0x136
 418 0120 0D       		.uleb128 0xd
 419 0121 6D7000   		.ascii	"mp\000"
 420 0124 01       		.byte	0x1
 421 0125 4F       		.byte	0x4f
 422 0126 36010000 		.4byte	0x136
 423 012a 0E       		.uleb128 0xe
 424 012b EB000000 		.4byte	.LASF18
 425 012f 01       		.byte	0x1
 426 0130 50       		.byte	0x50
 427 0131 85000000 		.4byte	0x85
 428 0135 00       		.byte	0
 429 0136 06       		.uleb128 0x6
 430 0137 04       		.byte	0x4
 431 0138 FC000000 		.4byte	0xfc
 432 013c 0F       		.uleb128 0xf
 433 013d 01       		.byte	0x1
 434 013e 9A000000 		.4byte	.LASF27
 435 0142 01       		.byte	0x1
 436 0143 7A       		.byte	0x7a
 437 0144 01       		.byte	0x1
 438 0145 01       		.byte	0x1
 439 0146 6B010000 		.4byte	0x16b
 440 014a 0D       		.uleb128 0xd
 441 014b 6D7000   		.ascii	"mp\000"
 442 014e 01       		.byte	0x1
 443 014f 7A       		.byte	0x7a
 444 0150 36010000 		.4byte	0x136
 445 0154 10       		.uleb128 0x10
 446 0155 EB000000 		.4byte	.LASF18
 447 0159 01       		.byte	0x1
 448 015a 7A       		.byte	0x7a
 449 015b 85000000 		.4byte	0x85
 450 015f 11       		.uleb128 0x11
 451 0160 70687000 		.ascii	"php\000"
 452 0164 01       		.byte	0x1
ARM GAS  /tmp/ccL5HPqH.s 			page 9


 453 0165 7B       		.byte	0x7b
 454 0166 C3000000 		.4byte	0xc3
 455 016a 00       		.byte	0
 456 016b 12       		.uleb128 0x12
 457 016c 01       		.byte	0x1
 458 016d 91010000 		.4byte	.LASF28
 459 0171 01       		.byte	0x1
 460 0172 3D       		.byte	0x3d
 461 0173 01       		.byte	0x1
 462 0174 00000000 		.4byte	.LFB7
 463 0178 10000000 		.4byte	.LFE7
 464 017c 02       		.byte	0x2
 465 017d 7D       		.byte	0x7d
 466 017e 00       		.sleb128 0
 467 017f AC010000 		.4byte	0x1ac
 468 0183 13       		.uleb128 0x13
 469 0184 6D7000   		.ascii	"mp\000"
 470 0187 01       		.byte	0x1
 471 0188 3D       		.byte	0x3d
 472 0189 36010000 		.4byte	0x136
 473 018d 01       		.byte	0x1
 474 018e 50       		.byte	0x50
 475 018f 14       		.uleb128 0x14
 476 0190 5B000000 		.4byte	.LASF19
 477 0194 01       		.byte	0x1
 478 0195 3D       		.byte	0x3d
 479 0196 30000000 		.4byte	0x30
 480 019a 00000000 		.4byte	.LLST0
 481 019e 15       		.uleb128 0x15
 482 019f 85000000 		.4byte	.LASF20
 483 01a3 01       		.byte	0x1
 484 01a4 3D       		.byte	0x3d
 485 01a5 87000000 		.4byte	0x87
 486 01a9 01       		.byte	0x1
 487 01aa 52       		.byte	0x52
 488 01ab 00       		.byte	0
 489 01ac 16       		.uleb128 0x16
 490 01ad 0E010000 		.4byte	0x10e
 491 01b1 00000000 		.4byte	.LFB8
 492 01b5 18000000 		.4byte	.LFE8
 493 01b9 20000000 		.4byte	.LLST1
 494 01bd D4010000 		.4byte	0x1d4
 495 01c1 17       		.uleb128 0x17
 496 01c2 20010000 		.4byte	0x120
 497 01c6 40000000 		.4byte	.LLST2
 498 01ca 18       		.uleb128 0x18
 499 01cb 2A010000 		.4byte	0x12a
 500 01cf 5E000000 		.4byte	.LLST3
 501 01d3 00       		.byte	0
 502 01d4 19       		.uleb128 0x19
 503 01d5 01       		.byte	0x1
 504 01d6 5F010000 		.4byte	.LASF29
 505 01da 01       		.byte	0x1
 506 01db 65       		.byte	0x65
 507 01dc 01       		.byte	0x1
 508 01dd 85000000 		.4byte	0x85
 509 01e1 00000000 		.4byte	.LFB9
ARM GAS  /tmp/ccL5HPqH.s 			page 10


 510 01e5 2C000000 		.4byte	.LFE9
 511 01e9 7D000000 		.4byte	.LLST4
 512 01ed 6B020000 		.4byte	0x26b
 513 01f1 1A       		.uleb128 0x1a
 514 01f2 6D7000   		.ascii	"mp\000"
 515 01f5 01       		.byte	0x1
 516 01f6 65       		.byte	0x65
 517 01f7 36010000 		.4byte	0x136
 518 01fb 9D000000 		.4byte	.LLST5
 519 01ff 1B       		.uleb128 0x1b
 520 0200 EB000000 		.4byte	.LASF18
 521 0204 01       		.byte	0x1
 522 0205 66       		.byte	0x66
 523 0206 85000000 		.4byte	0x85
 524 020a 01       		.byte	0x1
 525 020b 50       		.byte	0x50
 526 020c 1C       		.uleb128 0x1c
 527 020d 04000000 		.4byte	.LBB10
 528 0211 0A000000 		.4byte	.LBE10
 529 0215 29020000 		.4byte	0x229
 530 0219 1D       		.uleb128 0x1d
 531 021a 746D7000 		.ascii	"tmp\000"
 532 021e 01       		.byte	0x1
 533 021f 68       		.byte	0x68
 534 0220 65000000 		.4byte	0x65
 535 0224 BB000000 		.4byte	.LLST6
 536 0228 00       		.byte	0
 537 0229 1E       		.uleb128 0x1e
 538 022a 0E010000 		.4byte	0x10e
 539 022e 0A000000 		.4byte	.LBB11
 540 0232 00000000 		.4byte	.Ldebug_ranges0+0
 541 0236 01       		.byte	0x1
 542 0237 69       		.byte	0x69
 543 0238 55020000 		.4byte	0x255
 544 023c 17       		.uleb128 0x17
 545 023d 20010000 		.4byte	0x120
 546 0241 D9000000 		.4byte	.LLST7
 547 0245 1F       		.uleb128 0x1f
 548 0246 18000000 		.4byte	.Ldebug_ranges0+0x18
 549 024a 18       		.uleb128 0x18
 550 024b 2A010000 		.4byte	0x12a
 551 024f F7000000 		.4byte	.LLST8
 552 0253 00       		.byte	0
 553 0254 00       		.byte	0
 554 0255 1F       		.uleb128 0x1f
 555 0256 30000000 		.4byte	.Ldebug_ranges0+0x30
 556 025a 1D       		.uleb128 0x1d
 557 025b 746D7000 		.ascii	"tmp\000"
 558 025f 01       		.byte	0x1
 559 0260 6A       		.byte	0x6a
 560 0261 65000000 		.4byte	0x65
 561 0265 16010000 		.4byte	.LLST9
 562 0269 00       		.byte	0
 563 026a 00       		.byte	0
 564 026b 20       		.uleb128 0x20
 565 026c 3C010000 		.4byte	0x13c
 566 0270 00000000 		.4byte	.LFB10
ARM GAS  /tmp/ccL5HPqH.s 			page 11


 567 0274 08000000 		.4byte	.LFE10
 568 0278 02       		.byte	0x2
 569 0279 7D       		.byte	0x7d
 570 027a 00       		.sleb128 0
 571 027b 95020000 		.4byte	0x295
 572 027f 21       		.uleb128 0x21
 573 0280 4A010000 		.4byte	0x14a
 574 0284 01       		.byte	0x1
 575 0285 50       		.byte	0x50
 576 0286 21       		.uleb128 0x21
 577 0287 54010000 		.4byte	0x154
 578 028b 01       		.byte	0x1
 579 028c 51       		.byte	0x51
 580 028d 22       		.uleb128 0x22
 581 028e 5F010000 		.4byte	0x15f
 582 0292 01       		.byte	0x1
 583 0293 51       		.byte	0x51
 584 0294 00       		.byte	0
 585 0295 23       		.uleb128 0x23
 586 0296 01       		.byte	0x1
 587 0297 D5000000 		.4byte	.LASF22
 588 029b 01       		.byte	0x1
 589 029c 91       		.byte	0x91
 590 029d 01       		.byte	0x1
 591 029e 00000000 		.4byte	.LFB11
 592 02a2 14000000 		.4byte	.LFE11
 593 02a6 02       		.byte	0x2
 594 02a7 7D       		.byte	0x7d
 595 02a8 00       		.sleb128 0
 596 02a9 13       		.uleb128 0x13
 597 02aa 6D7000   		.ascii	"mp\000"
 598 02ad 01       		.byte	0x1
 599 02ae 91       		.byte	0x91
 600 02af 36010000 		.4byte	0x136
 601 02b3 01       		.byte	0x1
 602 02b4 50       		.byte	0x50
 603 02b5 15       		.uleb128 0x15
 604 02b6 EB000000 		.4byte	.LASF18
 605 02ba 01       		.byte	0x1
 606 02bb 91       		.byte	0x91
 607 02bc 85000000 		.4byte	0x85
 608 02c0 01       		.byte	0x1
 609 02c1 51       		.byte	0x51
 610 02c2 1C       		.uleb128 0x1c
 611 02c3 00000000 		.4byte	.LBB17
 612 02c7 06000000 		.4byte	.LBE17
 613 02cb DF020000 		.4byte	0x2df
 614 02cf 1D       		.uleb128 0x1d
 615 02d0 746D7000 		.ascii	"tmp\000"
 616 02d4 01       		.byte	0x1
 617 02d5 93       		.byte	0x93
 618 02d6 65000000 		.4byte	0x65
 619 02da 34010000 		.4byte	.LLST10
 620 02de 00       		.byte	0
 621 02df 1E       		.uleb128 0x1e
 622 02e0 3C010000 		.4byte	0x13c
 623 02e4 06000000 		.4byte	.LBB18
ARM GAS  /tmp/ccL5HPqH.s 			page 12


 624 02e8 48000000 		.4byte	.Ldebug_ranges0+0x48
 625 02ec 01       		.byte	0x1
 626 02ed 94       		.byte	0x94
 627 02ee 0E030000 		.4byte	0x30e
 628 02f2 21       		.uleb128 0x21
 629 02f3 54010000 		.4byte	0x154
 630 02f7 01       		.byte	0x1
 631 02f8 51       		.byte	0x51
 632 02f9 21       		.uleb128 0x21
 633 02fa 4A010000 		.4byte	0x14a
 634 02fe 01       		.byte	0x1
 635 02ff 50       		.byte	0x50
 636 0300 1F       		.uleb128 0x1f
 637 0301 60000000 		.4byte	.Ldebug_ranges0+0x60
 638 0305 22       		.uleb128 0x22
 639 0306 5F010000 		.4byte	0x15f
 640 030a 01       		.byte	0x1
 641 030b 51       		.byte	0x51
 642 030c 00       		.byte	0
 643 030d 00       		.byte	0
 644 030e 1F       		.uleb128 0x1f
 645 030f 78000000 		.4byte	.Ldebug_ranges0+0x78
 646 0313 1D       		.uleb128 0x1d
 647 0314 746D7000 		.ascii	"tmp\000"
 648 0318 01       		.byte	0x1
 649 0319 95       		.byte	0x95
 650 031a 65000000 		.4byte	0x65
 651 031e 47010000 		.4byte	.LLST11
 652 0322 00       		.byte	0
 653 0323 00       		.byte	0
 654 0324 00       		.byte	0
 655              		.section	.debug_abbrev,"",%progbits
 656              	.Ldebug_abbrev0:
 657 0000 01       		.uleb128 0x1
 658 0001 11       		.uleb128 0x11
 659 0002 01       		.byte	0x1
 660 0003 25       		.uleb128 0x25
 661 0004 0E       		.uleb128 0xe
 662 0005 13       		.uleb128 0x13
 663 0006 0B       		.uleb128 0xb
 664 0007 03       		.uleb128 0x3
 665 0008 0E       		.uleb128 0xe
 666 0009 1B       		.uleb128 0x1b
 667 000a 0E       		.uleb128 0xe
 668 000b 11       		.uleb128 0x11
 669 000c 01       		.uleb128 0x1
 670 000d 52       		.uleb128 0x52
 671 000e 01       		.uleb128 0x1
 672 000f 55       		.uleb128 0x55
 673 0010 06       		.uleb128 0x6
 674 0011 10       		.uleb128 0x10
 675 0012 06       		.uleb128 0x6
 676 0013 00       		.byte	0
 677 0014 00       		.byte	0
 678 0015 02       		.uleb128 0x2
 679 0016 24       		.uleb128 0x24
 680 0017 00       		.byte	0
ARM GAS  /tmp/ccL5HPqH.s 			page 13


 681 0018 0B       		.uleb128 0xb
 682 0019 0B       		.uleb128 0xb
 683 001a 3E       		.uleb128 0x3e
 684 001b 0B       		.uleb128 0xb
 685 001c 03       		.uleb128 0x3
 686 001d 08       		.uleb128 0x8
 687 001e 00       		.byte	0
 688 001f 00       		.byte	0
 689 0020 03       		.uleb128 0x3
 690 0021 16       		.uleb128 0x16
 691 0022 00       		.byte	0
 692 0023 03       		.uleb128 0x3
 693 0024 0E       		.uleb128 0xe
 694 0025 3A       		.uleb128 0x3a
 695 0026 0B       		.uleb128 0xb
 696 0027 3B       		.uleb128 0x3b
 697 0028 0B       		.uleb128 0xb
 698 0029 49       		.uleb128 0x49
 699 002a 13       		.uleb128 0x13
 700 002b 00       		.byte	0
 701 002c 00       		.byte	0
 702 002d 04       		.uleb128 0x4
 703 002e 24       		.uleb128 0x24
 704 002f 00       		.byte	0
 705 0030 0B       		.uleb128 0xb
 706 0031 0B       		.uleb128 0xb
 707 0032 3E       		.uleb128 0x3e
 708 0033 0B       		.uleb128 0xb
 709 0034 03       		.uleb128 0x3
 710 0035 0E       		.uleb128 0xe
 711 0036 00       		.byte	0
 712 0037 00       		.byte	0
 713 0038 05       		.uleb128 0x5
 714 0039 0F       		.uleb128 0xf
 715 003a 00       		.byte	0
 716 003b 0B       		.uleb128 0xb
 717 003c 0B       		.uleb128 0xb
 718 003d 00       		.byte	0
 719 003e 00       		.byte	0
 720 003f 06       		.uleb128 0x6
 721 0040 0F       		.uleb128 0xf
 722 0041 00       		.byte	0
 723 0042 0B       		.uleb128 0xb
 724 0043 0B       		.uleb128 0xb
 725 0044 49       		.uleb128 0x49
 726 0045 13       		.uleb128 0x13
 727 0046 00       		.byte	0
 728 0047 00       		.byte	0
 729 0048 07       		.uleb128 0x7
 730 0049 15       		.uleb128 0x15
 731 004a 01       		.byte	0x1
 732 004b 27       		.uleb128 0x27
 733 004c 0C       		.uleb128 0xc
 734 004d 49       		.uleb128 0x49
 735 004e 13       		.uleb128 0x13
 736 004f 01       		.uleb128 0x1
 737 0050 13       		.uleb128 0x13
ARM GAS  /tmp/ccL5HPqH.s 			page 14


 738 0051 00       		.byte	0
 739 0052 00       		.byte	0
 740 0053 08       		.uleb128 0x8
 741 0054 05       		.uleb128 0x5
 742 0055 00       		.byte	0
 743 0056 49       		.uleb128 0x49
 744 0057 13       		.uleb128 0x13
 745 0058 00       		.byte	0
 746 0059 00       		.byte	0
 747 005a 09       		.uleb128 0x9
 748 005b 13       		.uleb128 0x13
 749 005c 01       		.byte	0x1
 750 005d 03       		.uleb128 0x3
 751 005e 0E       		.uleb128 0xe
 752 005f 0B       		.uleb128 0xb
 753 0060 0B       		.uleb128 0xb
 754 0061 3A       		.uleb128 0x3a
 755 0062 0B       		.uleb128 0xb
 756 0063 3B       		.uleb128 0x3b
 757 0064 0B       		.uleb128 0xb
 758 0065 01       		.uleb128 0x1
 759 0066 13       		.uleb128 0x13
 760 0067 00       		.byte	0
 761 0068 00       		.byte	0
 762 0069 0A       		.uleb128 0xa
 763 006a 0D       		.uleb128 0xd
 764 006b 00       		.byte	0
 765 006c 03       		.uleb128 0x3
 766 006d 0E       		.uleb128 0xe
 767 006e 3A       		.uleb128 0x3a
 768 006f 0B       		.uleb128 0xb
 769 0070 3B       		.uleb128 0x3b
 770 0071 0B       		.uleb128 0xb
 771 0072 49       		.uleb128 0x49
 772 0073 13       		.uleb128 0x13
 773 0074 38       		.uleb128 0x38
 774 0075 0A       		.uleb128 0xa
 775 0076 00       		.byte	0
 776 0077 00       		.byte	0
 777 0078 0B       		.uleb128 0xb
 778 0079 13       		.uleb128 0x13
 779 007a 01       		.byte	0x1
 780 007b 0B       		.uleb128 0xb
 781 007c 0B       		.uleb128 0xb
 782 007d 3A       		.uleb128 0x3a
 783 007e 0B       		.uleb128 0xb
 784 007f 3B       		.uleb128 0x3b
 785 0080 0B       		.uleb128 0xb
 786 0081 01       		.uleb128 0x1
 787 0082 13       		.uleb128 0x13
 788 0083 00       		.byte	0
 789 0084 00       		.byte	0
 790 0085 0C       		.uleb128 0xc
 791 0086 2E       		.uleb128 0x2e
 792 0087 01       		.byte	0x1
 793 0088 3F       		.uleb128 0x3f
 794 0089 0C       		.uleb128 0xc
ARM GAS  /tmp/ccL5HPqH.s 			page 15


 795 008a 03       		.uleb128 0x3
 796 008b 0E       		.uleb128 0xe
 797 008c 3A       		.uleb128 0x3a
 798 008d 0B       		.uleb128 0xb
 799 008e 3B       		.uleb128 0x3b
 800 008f 0B       		.uleb128 0xb
 801 0090 27       		.uleb128 0x27
 802 0091 0C       		.uleb128 0xc
 803 0092 49       		.uleb128 0x49
 804 0093 13       		.uleb128 0x13
 805 0094 20       		.uleb128 0x20
 806 0095 0B       		.uleb128 0xb
 807 0096 01       		.uleb128 0x1
 808 0097 13       		.uleb128 0x13
 809 0098 00       		.byte	0
 810 0099 00       		.byte	0
 811 009a 0D       		.uleb128 0xd
 812 009b 05       		.uleb128 0x5
 813 009c 00       		.byte	0
 814 009d 03       		.uleb128 0x3
 815 009e 08       		.uleb128 0x8
 816 009f 3A       		.uleb128 0x3a
 817 00a0 0B       		.uleb128 0xb
 818 00a1 3B       		.uleb128 0x3b
 819 00a2 0B       		.uleb128 0xb
 820 00a3 49       		.uleb128 0x49
 821 00a4 13       		.uleb128 0x13
 822 00a5 00       		.byte	0
 823 00a6 00       		.byte	0
 824 00a7 0E       		.uleb128 0xe
 825 00a8 34       		.uleb128 0x34
 826 00a9 00       		.byte	0
 827 00aa 03       		.uleb128 0x3
 828 00ab 0E       		.uleb128 0xe
 829 00ac 3A       		.uleb128 0x3a
 830 00ad 0B       		.uleb128 0xb
 831 00ae 3B       		.uleb128 0x3b
 832 00af 0B       		.uleb128 0xb
 833 00b0 49       		.uleb128 0x49
 834 00b1 13       		.uleb128 0x13
 835 00b2 00       		.byte	0
 836 00b3 00       		.byte	0
 837 00b4 0F       		.uleb128 0xf
 838 00b5 2E       		.uleb128 0x2e
 839 00b6 01       		.byte	0x1
 840 00b7 3F       		.uleb128 0x3f
 841 00b8 0C       		.uleb128 0xc
 842 00b9 03       		.uleb128 0x3
 843 00ba 0E       		.uleb128 0xe
 844 00bb 3A       		.uleb128 0x3a
 845 00bc 0B       		.uleb128 0xb
 846 00bd 3B       		.uleb128 0x3b
 847 00be 0B       		.uleb128 0xb
 848 00bf 27       		.uleb128 0x27
 849 00c0 0C       		.uleb128 0xc
 850 00c1 20       		.uleb128 0x20
 851 00c2 0B       		.uleb128 0xb
ARM GAS  /tmp/ccL5HPqH.s 			page 16


 852 00c3 01       		.uleb128 0x1
 853 00c4 13       		.uleb128 0x13
 854 00c5 00       		.byte	0
 855 00c6 00       		.byte	0
 856 00c7 10       		.uleb128 0x10
 857 00c8 05       		.uleb128 0x5
 858 00c9 00       		.byte	0
 859 00ca 03       		.uleb128 0x3
 860 00cb 0E       		.uleb128 0xe
 861 00cc 3A       		.uleb128 0x3a
 862 00cd 0B       		.uleb128 0xb
 863 00ce 3B       		.uleb128 0x3b
 864 00cf 0B       		.uleb128 0xb
 865 00d0 49       		.uleb128 0x49
 866 00d1 13       		.uleb128 0x13
 867 00d2 00       		.byte	0
 868 00d3 00       		.byte	0
 869 00d4 11       		.uleb128 0x11
 870 00d5 34       		.uleb128 0x34
 871 00d6 00       		.byte	0
 872 00d7 03       		.uleb128 0x3
 873 00d8 08       		.uleb128 0x8
 874 00d9 3A       		.uleb128 0x3a
 875 00da 0B       		.uleb128 0xb
 876 00db 3B       		.uleb128 0x3b
 877 00dc 0B       		.uleb128 0xb
 878 00dd 49       		.uleb128 0x49
 879 00de 13       		.uleb128 0x13
 880 00df 00       		.byte	0
 881 00e0 00       		.byte	0
 882 00e1 12       		.uleb128 0x12
 883 00e2 2E       		.uleb128 0x2e
 884 00e3 01       		.byte	0x1
 885 00e4 3F       		.uleb128 0x3f
 886 00e5 0C       		.uleb128 0xc
 887 00e6 03       		.uleb128 0x3
 888 00e7 0E       		.uleb128 0xe
 889 00e8 3A       		.uleb128 0x3a
 890 00e9 0B       		.uleb128 0xb
 891 00ea 3B       		.uleb128 0x3b
 892 00eb 0B       		.uleb128 0xb
 893 00ec 27       		.uleb128 0x27
 894 00ed 0C       		.uleb128 0xc
 895 00ee 11       		.uleb128 0x11
 896 00ef 01       		.uleb128 0x1
 897 00f0 12       		.uleb128 0x12
 898 00f1 01       		.uleb128 0x1
 899 00f2 40       		.uleb128 0x40
 900 00f3 0A       		.uleb128 0xa
 901 00f4 01       		.uleb128 0x1
 902 00f5 13       		.uleb128 0x13
 903 00f6 00       		.byte	0
 904 00f7 00       		.byte	0
 905 00f8 13       		.uleb128 0x13
 906 00f9 05       		.uleb128 0x5
 907 00fa 00       		.byte	0
 908 00fb 03       		.uleb128 0x3
ARM GAS  /tmp/ccL5HPqH.s 			page 17


 909 00fc 08       		.uleb128 0x8
 910 00fd 3A       		.uleb128 0x3a
 911 00fe 0B       		.uleb128 0xb
 912 00ff 3B       		.uleb128 0x3b
 913 0100 0B       		.uleb128 0xb
 914 0101 49       		.uleb128 0x49
 915 0102 13       		.uleb128 0x13
 916 0103 02       		.uleb128 0x2
 917 0104 0A       		.uleb128 0xa
 918 0105 00       		.byte	0
 919 0106 00       		.byte	0
 920 0107 14       		.uleb128 0x14
 921 0108 05       		.uleb128 0x5
 922 0109 00       		.byte	0
 923 010a 03       		.uleb128 0x3
 924 010b 0E       		.uleb128 0xe
 925 010c 3A       		.uleb128 0x3a
 926 010d 0B       		.uleb128 0xb
 927 010e 3B       		.uleb128 0x3b
 928 010f 0B       		.uleb128 0xb
 929 0110 49       		.uleb128 0x49
 930 0111 13       		.uleb128 0x13
 931 0112 02       		.uleb128 0x2
 932 0113 06       		.uleb128 0x6
 933 0114 00       		.byte	0
 934 0115 00       		.byte	0
 935 0116 15       		.uleb128 0x15
 936 0117 05       		.uleb128 0x5
 937 0118 00       		.byte	0
 938 0119 03       		.uleb128 0x3
 939 011a 0E       		.uleb128 0xe
 940 011b 3A       		.uleb128 0x3a
 941 011c 0B       		.uleb128 0xb
 942 011d 3B       		.uleb128 0x3b
 943 011e 0B       		.uleb128 0xb
 944 011f 49       		.uleb128 0x49
 945 0120 13       		.uleb128 0x13
 946 0121 02       		.uleb128 0x2
 947 0122 0A       		.uleb128 0xa
 948 0123 00       		.byte	0
 949 0124 00       		.byte	0
 950 0125 16       		.uleb128 0x16
 951 0126 2E       		.uleb128 0x2e
 952 0127 01       		.byte	0x1
 953 0128 31       		.uleb128 0x31
 954 0129 13       		.uleb128 0x13
 955 012a 11       		.uleb128 0x11
 956 012b 01       		.uleb128 0x1
 957 012c 12       		.uleb128 0x12
 958 012d 01       		.uleb128 0x1
 959 012e 40       		.uleb128 0x40
 960 012f 06       		.uleb128 0x6
 961 0130 01       		.uleb128 0x1
 962 0131 13       		.uleb128 0x13
 963 0132 00       		.byte	0
 964 0133 00       		.byte	0
 965 0134 17       		.uleb128 0x17
ARM GAS  /tmp/ccL5HPqH.s 			page 18


 966 0135 05       		.uleb128 0x5
 967 0136 00       		.byte	0
 968 0137 31       		.uleb128 0x31
 969 0138 13       		.uleb128 0x13
 970 0139 02       		.uleb128 0x2
 971 013a 06       		.uleb128 0x6
 972 013b 00       		.byte	0
 973 013c 00       		.byte	0
 974 013d 18       		.uleb128 0x18
 975 013e 34       		.uleb128 0x34
 976 013f 00       		.byte	0
 977 0140 31       		.uleb128 0x31
 978 0141 13       		.uleb128 0x13
 979 0142 02       		.uleb128 0x2
 980 0143 06       		.uleb128 0x6
 981 0144 00       		.byte	0
 982 0145 00       		.byte	0
 983 0146 19       		.uleb128 0x19
 984 0147 2E       		.uleb128 0x2e
 985 0148 01       		.byte	0x1
 986 0149 3F       		.uleb128 0x3f
 987 014a 0C       		.uleb128 0xc
 988 014b 03       		.uleb128 0x3
 989 014c 0E       		.uleb128 0xe
 990 014d 3A       		.uleb128 0x3a
 991 014e 0B       		.uleb128 0xb
 992 014f 3B       		.uleb128 0x3b
 993 0150 0B       		.uleb128 0xb
 994 0151 27       		.uleb128 0x27
 995 0152 0C       		.uleb128 0xc
 996 0153 49       		.uleb128 0x49
 997 0154 13       		.uleb128 0x13
 998 0155 11       		.uleb128 0x11
 999 0156 01       		.uleb128 0x1
 1000 0157 12       		.uleb128 0x12
 1001 0158 01       		.uleb128 0x1
 1002 0159 40       		.uleb128 0x40
 1003 015a 06       		.uleb128 0x6
 1004 015b 01       		.uleb128 0x1
 1005 015c 13       		.uleb128 0x13
 1006 015d 00       		.byte	0
 1007 015e 00       		.byte	0
 1008 015f 1A       		.uleb128 0x1a
 1009 0160 05       		.uleb128 0x5
 1010 0161 00       		.byte	0
 1011 0162 03       		.uleb128 0x3
 1012 0163 08       		.uleb128 0x8
 1013 0164 3A       		.uleb128 0x3a
 1014 0165 0B       		.uleb128 0xb
 1015 0166 3B       		.uleb128 0x3b
 1016 0167 0B       		.uleb128 0xb
 1017 0168 49       		.uleb128 0x49
 1018 0169 13       		.uleb128 0x13
 1019 016a 02       		.uleb128 0x2
 1020 016b 06       		.uleb128 0x6
 1021 016c 00       		.byte	0
 1022 016d 00       		.byte	0
ARM GAS  /tmp/ccL5HPqH.s 			page 19


 1023 016e 1B       		.uleb128 0x1b
 1024 016f 34       		.uleb128 0x34
 1025 0170 00       		.byte	0
 1026 0171 03       		.uleb128 0x3
 1027 0172 0E       		.uleb128 0xe
 1028 0173 3A       		.uleb128 0x3a
 1029 0174 0B       		.uleb128 0xb
 1030 0175 3B       		.uleb128 0x3b
 1031 0176 0B       		.uleb128 0xb
 1032 0177 49       		.uleb128 0x49
 1033 0178 13       		.uleb128 0x13
 1034 0179 02       		.uleb128 0x2
 1035 017a 0A       		.uleb128 0xa
 1036 017b 00       		.byte	0
 1037 017c 00       		.byte	0
 1038 017d 1C       		.uleb128 0x1c
 1039 017e 0B       		.uleb128 0xb
 1040 017f 01       		.byte	0x1
 1041 0180 11       		.uleb128 0x11
 1042 0181 01       		.uleb128 0x1
 1043 0182 12       		.uleb128 0x12
 1044 0183 01       		.uleb128 0x1
 1045 0184 01       		.uleb128 0x1
 1046 0185 13       		.uleb128 0x13
 1047 0186 00       		.byte	0
 1048 0187 00       		.byte	0
 1049 0188 1D       		.uleb128 0x1d
 1050 0189 34       		.uleb128 0x34
 1051 018a 00       		.byte	0
 1052 018b 03       		.uleb128 0x3
 1053 018c 08       		.uleb128 0x8
 1054 018d 3A       		.uleb128 0x3a
 1055 018e 0B       		.uleb128 0xb
 1056 018f 3B       		.uleb128 0x3b
 1057 0190 0B       		.uleb128 0xb
 1058 0191 49       		.uleb128 0x49
 1059 0192 13       		.uleb128 0x13
 1060 0193 02       		.uleb128 0x2
 1061 0194 06       		.uleb128 0x6
 1062 0195 00       		.byte	0
 1063 0196 00       		.byte	0
 1064 0197 1E       		.uleb128 0x1e
 1065 0198 1D       		.uleb128 0x1d
 1066 0199 01       		.byte	0x1
 1067 019a 31       		.uleb128 0x31
 1068 019b 13       		.uleb128 0x13
 1069 019c 52       		.uleb128 0x52
 1070 019d 01       		.uleb128 0x1
 1071 019e 55       		.uleb128 0x55
 1072 019f 06       		.uleb128 0x6
 1073 01a0 58       		.uleb128 0x58
 1074 01a1 0B       		.uleb128 0xb
 1075 01a2 59       		.uleb128 0x59
 1076 01a3 0B       		.uleb128 0xb
 1077 01a4 01       		.uleb128 0x1
 1078 01a5 13       		.uleb128 0x13
 1079 01a6 00       		.byte	0
ARM GAS  /tmp/ccL5HPqH.s 			page 20


 1080 01a7 00       		.byte	0
 1081 01a8 1F       		.uleb128 0x1f
 1082 01a9 0B       		.uleb128 0xb
 1083 01aa 01       		.byte	0x1
 1084 01ab 55       		.uleb128 0x55
 1085 01ac 06       		.uleb128 0x6
 1086 01ad 00       		.byte	0
 1087 01ae 00       		.byte	0
 1088 01af 20       		.uleb128 0x20
 1089 01b0 2E       		.uleb128 0x2e
 1090 01b1 01       		.byte	0x1
 1091 01b2 31       		.uleb128 0x31
 1092 01b3 13       		.uleb128 0x13
 1093 01b4 11       		.uleb128 0x11
 1094 01b5 01       		.uleb128 0x1
 1095 01b6 12       		.uleb128 0x12
 1096 01b7 01       		.uleb128 0x1
 1097 01b8 40       		.uleb128 0x40
 1098 01b9 0A       		.uleb128 0xa
 1099 01ba 01       		.uleb128 0x1
 1100 01bb 13       		.uleb128 0x13
 1101 01bc 00       		.byte	0
 1102 01bd 00       		.byte	0
 1103 01be 21       		.uleb128 0x21
 1104 01bf 05       		.uleb128 0x5
 1105 01c0 00       		.byte	0
 1106 01c1 31       		.uleb128 0x31
 1107 01c2 13       		.uleb128 0x13
 1108 01c3 02       		.uleb128 0x2
 1109 01c4 0A       		.uleb128 0xa
 1110 01c5 00       		.byte	0
 1111 01c6 00       		.byte	0
 1112 01c7 22       		.uleb128 0x22
 1113 01c8 34       		.uleb128 0x34
 1114 01c9 00       		.byte	0
 1115 01ca 31       		.uleb128 0x31
 1116 01cb 13       		.uleb128 0x13
 1117 01cc 02       		.uleb128 0x2
 1118 01cd 0A       		.uleb128 0xa
 1119 01ce 00       		.byte	0
 1120 01cf 00       		.byte	0
 1121 01d0 23       		.uleb128 0x23
 1122 01d1 2E       		.uleb128 0x2e
 1123 01d2 01       		.byte	0x1
 1124 01d3 3F       		.uleb128 0x3f
 1125 01d4 0C       		.uleb128 0xc
 1126 01d5 03       		.uleb128 0x3
 1127 01d6 0E       		.uleb128 0xe
 1128 01d7 3A       		.uleb128 0x3a
 1129 01d8 0B       		.uleb128 0xb
 1130 01d9 3B       		.uleb128 0x3b
 1131 01da 0B       		.uleb128 0xb
 1132 01db 27       		.uleb128 0x27
 1133 01dc 0C       		.uleb128 0xc
 1134 01dd 11       		.uleb128 0x11
 1135 01de 01       		.uleb128 0x1
 1136 01df 12       		.uleb128 0x12
ARM GAS  /tmp/ccL5HPqH.s 			page 21


 1137 01e0 01       		.uleb128 0x1
 1138 01e1 40       		.uleb128 0x40
 1139 01e2 0A       		.uleb128 0xa
 1140 01e3 00       		.byte	0
 1141 01e4 00       		.byte	0
 1142 01e5 00       		.byte	0
 1143              		.section	.debug_loc,"",%progbits
 1144              	.Ldebug_loc0:
 1145              	.LLST0:
 1146 0000 00000000 		.4byte	.LVL0
 1147 0004 02000000 		.4byte	.LVL1
 1148 0008 0100     		.2byte	0x1
 1149 000a 51       		.byte	0x51
 1150 000b 02000000 		.4byte	.LVL1
 1151 000f 06000000 		.4byte	.LVL2
 1152 0013 0300     		.2byte	0x3
 1153 0015 71       		.byte	0x71
 1154 0016 79       		.sleb128 -7
 1155 0017 9F       		.byte	0x9f
 1156 0018 00000000 		.4byte	0
 1157 001c 00000000 		.4byte	0
 1158              	.LLST1:
 1159 0020 00000000 		.4byte	.LFB8
 1160 0024 06000000 		.4byte	.LCFI0
 1161 0028 0200     		.2byte	0x2
 1162 002a 7D       		.byte	0x7d
 1163 002b 00       		.sleb128 0
 1164 002c 06000000 		.4byte	.LCFI0
 1165 0030 18000000 		.4byte	.LFE8
 1166 0034 0200     		.2byte	0x2
 1167 0036 7D       		.byte	0x7d
 1168 0037 08       		.sleb128 8
 1169 0038 00000000 		.4byte	0
 1170 003c 00000000 		.4byte	0
 1171              	.LLST2:
 1172 0040 00000000 		.4byte	.LVL3
 1173 0044 04000000 		.4byte	.LVL4
 1174 0048 0100     		.2byte	0x1
 1175 004a 50       		.byte	0x50
 1176 004b 04000000 		.4byte	.LVL4
 1177 004f 15000000 		.4byte	.LVL5-1
 1178 0053 0100     		.2byte	0x1
 1179 0055 52       		.byte	0x52
 1180 0056 00000000 		.4byte	0
 1181 005a 00000000 		.4byte	0
 1182              	.LLST3:
 1183 005e 04000000 		.4byte	.LVL4
 1184 0062 15000000 		.4byte	.LVL5-1
 1185 0066 0200     		.2byte	0x2
 1186 0068 72       		.byte	0x72
 1187 0069 00       		.sleb128 0
 1188 006a 16000000 		.4byte	.LVL5
 1189 006e 18000000 		.4byte	.LFE8
 1190 0072 0100     		.2byte	0x1
 1191 0074 50       		.byte	0x50
 1192 0075 00000000 		.4byte	0
 1193 0079 00000000 		.4byte	0
ARM GAS  /tmp/ccL5HPqH.s 			page 22


 1194              	.LLST4:
 1195 007d 00000000 		.4byte	.LFB9
 1196 0081 02000000 		.4byte	.LCFI1
 1197 0085 0200     		.2byte	0x2
 1198 0087 7D       		.byte	0x7d
 1199 0088 00       		.sleb128 0
 1200 0089 02000000 		.4byte	.LCFI1
 1201 008d 2C000000 		.4byte	.LFE9
 1202 0091 0200     		.2byte	0x2
 1203 0093 7D       		.byte	0x7d
 1204 0094 08       		.sleb128 8
 1205 0095 00000000 		.4byte	0
 1206 0099 00000000 		.4byte	0
 1207              	.LLST5:
 1208 009d 00000000 		.4byte	.LVL6
 1209 00a1 0C000000 		.4byte	.LVL9
 1210 00a5 0100     		.2byte	0x1
 1211 00a7 50       		.byte	0x50
 1212 00a8 12000000 		.4byte	.LVL11
 1213 00ac 23000000 		.4byte	.LVL16-1
 1214 00b0 0100     		.2byte	0x1
 1215 00b2 52       		.byte	0x52
 1216 00b3 00000000 		.4byte	0
 1217 00b7 00000000 		.4byte	0
 1218              	.LLST6:
 1219 00bb 0A000000 		.4byte	.LVL8
 1220 00bf 10000000 		.4byte	.LVL10
 1221 00c3 0100     		.2byte	0x1
 1222 00c5 53       		.byte	0x53
 1223 00c6 1A000000 		.4byte	.LVL14
 1224 00ca 1C000000 		.4byte	.LVL15
 1225 00ce 0100     		.2byte	0x1
 1226 00d0 53       		.byte	0x53
 1227 00d1 00000000 		.4byte	0
 1228 00d5 00000000 		.4byte	0
 1229              	.LLST7:
 1230 00d9 0A000000 		.4byte	.LVL8
 1231 00dd 0C000000 		.4byte	.LVL9
 1232 00e1 0100     		.2byte	0x1
 1233 00e3 50       		.byte	0x50
 1234 00e4 0C000000 		.4byte	.LVL9
 1235 00e8 23000000 		.4byte	.LVL16-1
 1236 00ec 0100     		.2byte	0x1
 1237 00ee 52       		.byte	0x52
 1238 00ef 00000000 		.4byte	0
 1239 00f3 00000000 		.4byte	0
 1240              	.LLST8:
 1241 00f7 0C000000 		.4byte	.LVL9
 1242 00fb 23000000 		.4byte	.LVL16-1
 1243 00ff 0200     		.2byte	0x2
 1244 0101 72       		.byte	0x72
 1245 0102 00       		.sleb128 0
 1246 0103 24000000 		.4byte	.LVL16
 1247 0107 2C000000 		.4byte	.LFE9
 1248 010b 0100     		.2byte	0x1
 1249 010d 50       		.byte	0x50
 1250 010e 00000000 		.4byte	0
ARM GAS  /tmp/ccL5HPqH.s 			page 23


 1251 0112 00000000 		.4byte	0
 1252              	.LLST9:
 1253 0116 18000000 		.4byte	.LVL13
 1254 011a 1A000000 		.4byte	.LVL14
 1255 011e 0100     		.2byte	0x1
 1256 0120 53       		.byte	0x53
 1257 0121 2A000000 		.4byte	.LVL17
 1258 0125 2C000000 		.4byte	.LFE9
 1259 0129 0100     		.2byte	0x1
 1260 012b 53       		.byte	0x53
 1261 012c 00000000 		.4byte	0
 1262 0130 00000000 		.4byte	0
 1263              	.LLST10:
 1264 0134 06000000 		.4byte	.LVL22
 1265 0138 0A000000 		.4byte	.LVL23
 1266 013c 0100     		.2byte	0x1
 1267 013e 53       		.byte	0x53
 1268 013f 00000000 		.4byte	0
 1269 0143 00000000 		.4byte	0
 1270              	.LLST11:
 1271 0147 12000000 		.4byte	.LVL24
 1272 014b 14000000 		.4byte	.LFE11
 1273 014f 0100     		.2byte	0x1
 1274 0151 53       		.byte	0x53
 1275 0152 00000000 		.4byte	0
 1276 0156 00000000 		.4byte	0
 1277              		.section	.debug_aranges,"",%progbits
 1278 0000 3C000000 		.4byte	0x3c
 1279 0004 0200     		.2byte	0x2
 1280 0006 00000000 		.4byte	.Ldebug_info0
 1281 000a 04       		.byte	0x4
 1282 000b 00       		.byte	0
 1283 000c 0000     		.2byte	0
 1284 000e 0000     		.2byte	0
 1285 0010 00000000 		.4byte	.LFB7
 1286 0014 10000000 		.4byte	.LFE7-.LFB7
 1287 0018 00000000 		.4byte	.LFB8
 1288 001c 18000000 		.4byte	.LFE8-.LFB8
 1289 0020 00000000 		.4byte	.LFB9
 1290 0024 2C000000 		.4byte	.LFE9-.LFB9
 1291 0028 00000000 		.4byte	.LFB10
 1292 002c 08000000 		.4byte	.LFE10-.LFB10
 1293 0030 00000000 		.4byte	.LFB11
 1294 0034 14000000 		.4byte	.LFE11-.LFB11
 1295 0038 00000000 		.4byte	0
 1296 003c 00000000 		.4byte	0
 1297              		.section	.debug_ranges,"",%progbits
 1298              	.Ldebug_ranges0:
 1299 0000 0A000000 		.4byte	.LBB11
 1300 0004 12000000 		.4byte	.LBE11
 1301 0008 1A000000 		.4byte	.LBB15
 1302 000c 24000000 		.4byte	.LBE15
 1303 0010 00000000 		.4byte	0
 1304 0014 00000000 		.4byte	0
 1305 0018 0A000000 		.4byte	.LBB12
 1306 001c 12000000 		.4byte	.LBE12
 1307 0020 1A000000 		.4byte	.LBB13
ARM GAS  /tmp/ccL5HPqH.s 			page 24


 1308 0024 24000000 		.4byte	.LBE13
 1309 0028 00000000 		.4byte	0
 1310 002c 00000000 		.4byte	0
 1311 0030 12000000 		.4byte	.LBB14
 1312 0034 18000000 		.4byte	.LBE14
 1313 0038 24000000 		.4byte	.LBB16
 1314 003c 2A000000 		.4byte	.LBE16
 1315 0040 00000000 		.4byte	0
 1316 0044 00000000 		.4byte	0
 1317 0048 06000000 		.4byte	.LBB18
 1318 004c 08000000 		.4byte	.LBE18
 1319 0050 0A000000 		.4byte	.LBB22
 1320 0054 0E000000 		.4byte	.LBE22
 1321 0058 00000000 		.4byte	0
 1322 005c 00000000 		.4byte	0
 1323 0060 06000000 		.4byte	.LBB19
 1324 0064 08000000 		.4byte	.LBE19
 1325 0068 0A000000 		.4byte	.LBB20
 1326 006c 0E000000 		.4byte	.LBE20
 1327 0070 00000000 		.4byte	0
 1328 0074 00000000 		.4byte	0
 1329 0078 08000000 		.4byte	.LBB21
 1330 007c 0A000000 		.4byte	.LBE21
 1331 0080 0E000000 		.4byte	.LBB23
 1332 0084 12000000 		.4byte	.LBE23
 1333 0088 00000000 		.4byte	0
 1334 008c 00000000 		.4byte	0
 1335 0090 00000000 		.4byte	.LFB7
 1336 0094 10000000 		.4byte	.LFE7
 1337 0098 00000000 		.4byte	.LFB8
 1338 009c 18000000 		.4byte	.LFE8
 1339 00a0 00000000 		.4byte	.LFB9
 1340 00a4 2C000000 		.4byte	.LFE9
 1341 00a8 00000000 		.4byte	.LFB10
 1342 00ac 08000000 		.4byte	.LFE10
 1343 00b0 00000000 		.4byte	.LFB11
 1344 00b4 14000000 		.4byte	.LFE11
 1345 00b8 00000000 		.4byte	0
 1346 00bc 00000000 		.4byte	0
 1347              		.section	.debug_line,"",%progbits
 1348              	.Ldebug_line0:
 1349 0000 9D010000 		.section	.debug_str,"MS",%progbits,1
 1349      02001601 
 1349      00000201 
 1349      FB0E0D00 
 1349      01010101 
 1350              	.LASF6:
 1351 0000 73697A65 		.ascii	"size_t\000"
 1351      5F7400
 1352              	.LASF14:
 1353 0007 6D705F6F 		.ascii	"mp_object_size\000"
 1353      626A6563 
 1353      745F7369 
 1353      7A6500
 1354              	.LASF25:
 1355 0016 2F686F6D 		.ascii	"/home/johnny/Proyectos/movilbot/ChibiOS/iflab_code/"
 1355      652F6A6F 
ARM GAS  /tmp/ccL5HPqH.s 			page 25


 1355      686E6E79 
 1355      2F50726F 
 1355      79656374 
 1356 0049 626C696E 		.ascii	"blink\000"
 1356      6B00
 1357              	.LASF26:
 1358 004f 706F6F6C 		.ascii	"pool_header\000"
 1358      5F686561 
 1358      64657200 
 1359              	.LASF19:
 1360 005b 73697A65 		.ascii	"size\000"
 1360      00
 1361              	.LASF8:
 1362 0060 6C6F6E67 		.ascii	"long unsigned int\000"
 1362      20756E73 
 1362      69676E65 
 1362      6420696E 
 1362      7400
 1363              	.LASF4:
 1364 0072 73686F72 		.ascii	"short unsigned int\000"
 1364      7420756E 
 1364      7369676E 
 1364      65642069 
 1364      6E7400
 1365              	.LASF20:
 1366 0085 70726F76 		.ascii	"provider\000"
 1366      69646572 
 1366      00
 1367              	.LASF23:
 1368 008e 474E5520 		.ascii	"GNU C 4.6.1\000"
 1368      4320342E 
 1368      362E3100 
 1369              	.LASF27:
 1370 009a 6368506F 		.ascii	"chPoolFreeI\000"
 1370      6F6C4672 
 1370      65654900 
 1371              	.LASF24:
 1372 00a6 2E2E2F2E 		.ascii	"../../os/kernel/src/chmempools.c\000"
 1372      2E2F6F73 
 1372      2F6B6572 
 1372      6E656C2F 
 1372      7372632F 
 1373              	.LASF2:
 1374 00c7 756E7369 		.ascii	"unsigned char\000"
 1374      676E6564 
 1374      20636861 
 1374      7200
 1375              	.LASF22:
 1376 00d5 6368506F 		.ascii	"chPoolFree\000"
 1376      6F6C4672 
 1376      656500
 1377              	.LASF16:
 1378 00e0 4D656D6F 		.ascii	"MemoryPool\000"
 1378      7279506F 
 1378      6F6C00
 1379              	.LASF18:
 1380 00eb 6F626A70 		.ascii	"objp\000"
ARM GAS  /tmp/ccL5HPqH.s 			page 26


 1380      00
 1381              	.LASF21:
 1382 00f0 6368506F 		.ascii	"chPoolAllocI\000"
 1382      6F6C416C 
 1382      6C6F6349 
 1382      00
 1383              	.LASF0:
 1384 00fd 756E7369 		.ascii	"unsigned int\000"
 1384      676E6564 
 1384      20696E74 
 1384      00
 1385              	.LASF10:
 1386 010a 6C6F6E67 		.ascii	"long long unsigned int\000"
 1386      206C6F6E 
 1386      6720756E 
 1386      7369676E 
 1386      65642069 
 1387              	.LASF12:
 1388 0121 70685F6E 		.ascii	"ph_next\000"
 1388      65787400 
 1389              	.LASF9:
 1390 0129 6C6F6E67 		.ascii	"long long int\000"
 1390      206C6F6E 
 1390      6720696E 
 1390      7400
 1391              	.LASF17:
 1392 0137 63686172 		.ascii	"char\000"
 1392      00
 1393              	.LASF11:
 1394 013c 6D656D67 		.ascii	"memgetfunc_t\000"
 1394      65746675 
 1394      6E635F74 
 1394      00
 1395              	.LASF15:
 1396 0149 6D705F70 		.ascii	"mp_provider\000"
 1396      726F7669 
 1396      64657200 
 1397              	.LASF3:
 1398 0155 73686F72 		.ascii	"short int\000"
 1398      7420696E 
 1398      7400
 1399              	.LASF29:
 1400 015f 6368506F 		.ascii	"chPoolAlloc\000"
 1400      6F6C416C 
 1400      6C6F6300 
 1401              	.LASF7:
 1402 016b 75696E74 		.ascii	"uint32_t\000"
 1402      33325F74 
 1402      00
 1403              	.LASF5:
 1404 0174 6C6F6E67 		.ascii	"long int\000"
 1404      20696E74 
 1404      00
 1405              	.LASF1:
 1406 017d 7369676E 		.ascii	"signed char\000"
 1406      65642063 
 1406      68617200 
ARM GAS  /tmp/ccL5HPqH.s 			page 27


 1407              	.LASF13:
 1408 0189 6D705F6E 		.ascii	"mp_next\000"
 1408      65787400 
 1409              	.LASF28:
 1410 0191 6368506F 		.ascii	"chPoolInit\000"
 1410      6F6C496E 
 1410      697400
 1411              		.ident	"GCC: (Sourcery CodeBench Lite 2011.09-69) 4.6.1"
ARM GAS  /tmp/ccL5HPqH.s 			page 28


DEFINED SYMBOLS
                            *ABS*:00000000 chmempools.c
     /tmp/ccL5HPqH.s:19     .text.chPoolInit:00000000 $t
     /tmp/ccL5HPqH.s:25     .text.chPoolInit:00000000 chPoolInit
     /tmp/ccL5HPqH.s:52     .text.chPoolAllocI:00000000 $t
     /tmp/ccL5HPqH.s:58     .text.chPoolAllocI:00000000 chPoolAllocI
     /tmp/ccL5HPqH.s:96     .text.chPoolAlloc:00000000 $t
     /tmp/ccL5HPqH.s:102    .text.chPoolAlloc:00000000 chPoolAlloc
     /tmp/ccL5HPqH.s:182    .text.chPoolFreeI:00000000 $t
     /tmp/ccL5HPqH.s:188    .text.chPoolFreeI:00000000 chPoolFreeI
     /tmp/ccL5HPqH.s:208    .text.chPoolFree:00000000 $t
     /tmp/ccL5HPqH.s:214    .text.chPoolFree:00000000 chPoolFree
                     .debug_frame:00000010 $d

NO UNDEFINED SYMBOLS
