ARM GAS  /tmp/cckyEQD0.s 			page 1


   1              		.syntax unified
   2              		.cpu cortex-m3
   3              		.fpu softvfp
   4              		.eabi_attribute 20, 1
   5              		.eabi_attribute 21, 1
   6              		.eabi_attribute 23, 3
   7              		.eabi_attribute 24, 1
   8              		.eabi_attribute 25, 1
   9              		.eabi_attribute 26, 1
  10              		.eabi_attribute 30, 2
  11              		.eabi_attribute 34, 1
  12              		.eabi_attribute 18, 4
  13              		.thumb
  14              		.file	"evtimer.c"
  15              		.text
  16              	.Ltext0:
  17              		.cfi_sections	.debug_frame
  18              		.section	.text.tmrcb,"ax",%progbits
  19              		.align	2
  20              		.p2align 4,,15
  21              		.thumb
  22              		.thumb_func
  23              		.type	tmrcb, %function
  24              	tmrcb:
  25              	.LFB7:
  26              		.file 1 "../../os/various/evtimer.c"
  27              		.loc 1 39 0
  28              		.cfi_startproc
  29              		@ args = 0, pretend = 0, frame = 0
  30              		@ frame_needed = 0, uses_anonymous_args = 0
  31              	.LVL0:
  32 0000 10B5     		push	{r4, lr}
  33              	.LCFI0:
  34              		.cfi_def_cfa_offset 8
  35              		.cfi_offset 14, -4
  36              		.cfi_offset 4, -8
  37              		.loc 1 42 0
  38 0002 0021     		movs	r1, #0
  39              		.loc 1 39 0
  40 0004 0446     		mov	r4, r0
  41              	.LVL1:
  42              		.loc 1 42 0
  43 0006 1430     		adds	r0, r0, #20
  44              	.LVL2:
  45 0008 FFF7FEFF 		bl	chEvtBroadcastFlagsI
  46              		.loc 1 43 0
  47 000c 40F20002 		movw	r2, #:lower16:tmrcb
  48 0010 A169     		ldr	r1, [r4, #24]
  49 0012 2046     		mov	r0, r4
  50 0014 C0F20002 		movt	r2, #:upper16:tmrcb
  51 0018 2346     		mov	r3, r4
  52              		.loc 1 44 0
  53 001a BDE81040 		pop	{r4, lr}
  54              		.loc 1 43 0
  55 001e FFF7FEBF 		b	chVTSetI
  56              		.cfi_endproc
  57              	.LFE7:
ARM GAS  /tmp/cckyEQD0.s 			page 2


  58              		.size	tmrcb, .-tmrcb
  59 0022 00BFAFF3 		.section	.text.evtStart,"ax",%progbits
  59      0080AFF3 
  59      0080AFF3 
  59      0080
  60              		.align	2
  61              		.p2align 4,,15
  62              		.global	evtStart
  63              		.thumb
  64              		.thumb_func
  65              		.type	evtStart, %function
  66              	evtStart:
  67              	.LFB8:
  68              		.loc 1 52 0
  69              		.cfi_startproc
  70              		@ args = 0, pretend = 0, frame = 0
  71              		@ frame_needed = 0, uses_anonymous_args = 0
  72              	.LVL3:
  73 0000 10B5     		push	{r4, lr}
  74              	.LCFI1:
  75              		.cfi_def_cfa_offset 8
  76              		.cfi_offset 14, -4
  77              		.cfi_offset 4, -8
  78              	.LBB2:
  79              		.loc 1 54 0
  80 0002 2023     		movs	r3, #32
  81              	.LVL4:
  82              	@ 54 "../../os/various/evtimer.c" 1
  83 0004 83F31188 		msr     BASEPRI, r3
  84              	@ 0 "" 2
  85              	.LVL5:
  86              		.thumb
  87              	.LBE2:
  88              		.loc 1 56 0
  89 0008 C368     		ldr	r3, [r0, #12]
  90              	.LVL6:
  91 000a 1BB1     		cbz	r3, .L5
  92              	.LBB3:
  93              		.loc 1 59 0
  94 000c 0023     		movs	r3, #0
  95              	.LVL7:
  96              	@ 59 "../../os/various/evtimer.c" 1
  97 000e 83F31188 		msr     BASEPRI, r3
  98              	@ 0 "" 2
  99              	.LVL8:
 100              		.thumb
 101              	.LBE3:
 102              		.loc 1 60 0
 103 0012 10BD     		pop	{r4, pc}
 104              	.LVL9:
 105              	.L5:
 106              		.loc 1 57 0
 107 0014 40F20002 		movw	r2, #:lower16:tmrcb
 108 0018 0346     		mov	r3, r0
 109 001a 8169     		ldr	r1, [r0, #24]
 110 001c C0F20002 		movt	r2, #:upper16:tmrcb
 111 0020 FFF7FEFF 		bl	chVTSetI
ARM GAS  /tmp/cckyEQD0.s 			page 3


 112              	.LVL10:
 113              	.LBB4:
 114              		.loc 1 59 0
 115 0024 0023     		movs	r3, #0
 116              	@ 59 "../../os/various/evtimer.c" 1
 117 0026 83F31188 		msr     BASEPRI, r3
 118              	@ 0 "" 2
 119              	.LVL11:
 120              		.thumb
 121              	.LBE4:
 122              		.loc 1 60 0
 123 002a 10BD     		pop	{r4, pc}
 124              		.cfi_endproc
 125              	.LFE8:
 126              		.size	evtStart, .-evtStart
 127 002c AFF30080 		.section	.text.evtStop,"ax",%progbits
 128              		.align	2
 129              		.p2align 4,,15
 130              		.global	evtStop
 131              		.thumb
 132              		.thumb_func
 133              		.type	evtStop, %function
 134              	evtStop:
 135              	.LFB9:
 136              		.loc 1 68 0
 137              		.cfi_startproc
 138              		@ args = 0, pretend = 0, frame = 0
 139              		@ frame_needed = 0, uses_anonymous_args = 0
 140              	.LVL12:
 141 0000 08B5     		push	{r3, lr}
 142              	.LCFI2:
 143              		.cfi_def_cfa_offset 8
 144              		.cfi_offset 14, -4
 145              		.cfi_offset 3, -8
 146              	.LBB5:
 147              		.loc 1 70 0
 148 0002 2023     		movs	r3, #32
 149              	.LVL13:
 150              	@ 70 "../../os/various/evtimer.c" 1
 151 0004 83F31188 		msr     BASEPRI, r3
 152              	@ 0 "" 2
 153              	.LVL14:
 154              		.thumb
 155              	.LBE5:
 156              		.loc 1 72 0
 157 0008 C368     		ldr	r3, [r0, #12]
 158              	.LVL15:
 159 000a 0BB1     		cbz	r3, .L7
 160              		.loc 1 73 0
 161 000c FFF7FEFF 		bl	chVTResetI
 162              	.LVL16:
 163              	.L7:
 164              	.LBB6:
 165              		.loc 1 75 0
 166 0010 0023     		movs	r3, #0
 167              	.LVL17:
 168              	@ 75 "../../os/various/evtimer.c" 1
ARM GAS  /tmp/cckyEQD0.s 			page 4


 169 0012 83F31188 		msr     BASEPRI, r3
 170              	@ 0 "" 2
 171              	.LVL18:
 172              		.thumb
 173              	.LBE6:
 174              		.loc 1 76 0
 175 0016 08BD     		pop	{r3, pc}
 176              		.cfi_endproc
 177              	.LFE9:
 178              		.size	evtStop, .-evtStop
 179 0018 AFF30080 		.text
 179      AFF30080 
 180              	.Letext0:
 181              		.file 2 "/opt/arm-2011q3/bin/../lib/gcc/arm-none-eabi/4.6.1/../../../../arm-none-eabi/include/stdi
 182              		.file 3 "../../os/ports/GCC/ARMCMx/chtypes.h"
 183              		.file 4 "../../os/kernel/include/chlists.h"
 184              		.file 5 "../../os/kernel/include/chthreads.h"
 185              		.file 6 "../../os/ports/GCC/ARMCMx/chcore_v7m.h"
 186              		.file 7 "../../os/kernel/include/chvt.h"
 187              		.file 8 "../../os/kernel/include/chmtx.h"
 188              		.file 9 "../../os/kernel/include/chevents.h"
 189              		.file 10 "../../os/various/evtimer.h"
 190              		.section	.debug_info,"",%progbits
 191              	.Ldebug_info0:
 192 0000 C9050000 		.4byte	0x5c9
 193 0004 0200     		.2byte	0x2
 194 0006 00000000 		.4byte	.Ldebug_abbrev0
 195 000a 04       		.byte	0x4
 196 000b 01       		.uleb128 0x1
 197 000c 27020000 		.4byte	.LASF69
 198 0010 01       		.byte	0x1
 199 0011 DC020000 		.4byte	.LASF70
 200 0015 94010000 		.4byte	.LASF71
 201 0019 00000000 		.4byte	0
 202 001d 00000000 		.4byte	0
 203 0021 18000000 		.4byte	.Ldebug_ranges0+0x18
 204 0025 00000000 		.4byte	.Ldebug_line0
 205 0029 02       		.uleb128 0x2
 206 002a 04       		.byte	0x4
 207 002b 05       		.byte	0x5
 208 002c 696E7400 		.ascii	"int\000"
 209 0030 03       		.uleb128 0x3
 210 0031 04       		.byte	0x4
 211 0032 07       		.byte	0x7
 212 0033 B2000000 		.4byte	.LASF0
 213 0037 03       		.uleb128 0x3
 214 0038 01       		.byte	0x1
 215 0039 06       		.byte	0x6
 216 003a 57000000 		.4byte	.LASF1
 217 003e 04       		.uleb128 0x4
 218 003f 92020000 		.4byte	.LASF5
 219 0043 02       		.byte	0x2
 220 0044 2A       		.byte	0x2a
 221 0045 49000000 		.4byte	0x49
 222 0049 03       		.uleb128 0x3
 223 004a 01       		.byte	0x1
 224 004b 08       		.byte	0x8
ARM GAS  /tmp/cckyEQD0.s 			page 5


 225 004c 7A010000 		.4byte	.LASF2
 226 0050 03       		.uleb128 0x3
 227 0051 02       		.byte	0x2
 228 0052 05       		.byte	0x5
 229 0053 D7010000 		.4byte	.LASF3
 230 0057 03       		.uleb128 0x3
 231 0058 02       		.byte	0x2
 232 0059 07       		.byte	0x7
 233 005a E1000000 		.4byte	.LASF4
 234 005e 04       		.uleb128 0x4
 235 005f 72010000 		.4byte	.LASF6
 236 0063 02       		.byte	0x2
 237 0064 4F       		.byte	0x4f
 238 0065 69000000 		.4byte	0x69
 239 0069 03       		.uleb128 0x3
 240 006a 04       		.byte	0x4
 241 006b 05       		.byte	0x5
 242 006c 7B000000 		.4byte	.LASF7
 243 0070 04       		.uleb128 0x4
 244 0071 11020000 		.4byte	.LASF8
 245 0075 02       		.byte	0x2
 246 0076 50       		.byte	0x50
 247 0077 7B000000 		.4byte	0x7b
 248 007b 03       		.uleb128 0x3
 249 007c 04       		.byte	0x4
 250 007d 07       		.byte	0x7
 251 007e C7000000 		.4byte	.LASF9
 252 0082 03       		.uleb128 0x3
 253 0083 08       		.byte	0x8
 254 0084 05       		.byte	0x5
 255 0085 49000000 		.4byte	.LASF10
 256 0089 03       		.uleb128 0x3
 257 008a 08       		.byte	0x8
 258 008b 07       		.byte	0x7
 259 008c 19000000 		.4byte	.LASF11
 260 0090 04       		.uleb128 0x4
 261 0091 02010000 		.4byte	.LASF12
 262 0095 03       		.byte	0x3
 263 0096 2F       		.byte	0x2f
 264 0097 3E000000 		.4byte	0x3e
 265 009b 04       		.uleb128 0x4
 266 009c 84000000 		.4byte	.LASF13
 267 00a0 03       		.byte	0x3
 268 00a1 30       		.byte	0x30
 269 00a2 3E000000 		.4byte	0x3e
 270 00a6 04       		.uleb128 0x4
 271 00a7 5B010000 		.4byte	.LASF14
 272 00ab 03       		.byte	0x3
 273 00ac 31       		.byte	0x31
 274 00ad 3E000000 		.4byte	0x3e
 275 00b1 04       		.uleb128 0x4
 276 00b2 6A010000 		.4byte	.LASF15
 277 00b6 03       		.byte	0x3
 278 00b7 32       		.byte	0x32
 279 00b8 70000000 		.4byte	0x70
 280 00bc 04       		.uleb128 0x4
 281 00bd F4000000 		.4byte	.LASF16
ARM GAS  /tmp/cckyEQD0.s 			page 6


 282 00c1 03       		.byte	0x3
 283 00c2 33       		.byte	0x33
 284 00c3 5E000000 		.4byte	0x5e
 285 00c7 04       		.uleb128 0x4
 286 00c8 16010000 		.4byte	.LASF17
 287 00cc 03       		.byte	0x3
 288 00cd 35       		.byte	0x35
 289 00ce 70000000 		.4byte	0x70
 290 00d2 04       		.uleb128 0x4
 291 00d3 45020000 		.4byte	.LASF18
 292 00d7 03       		.byte	0x3
 293 00d8 36       		.byte	0x36
 294 00d9 70000000 		.4byte	0x70
 295 00dd 04       		.uleb128 0x4
 296 00de FF010000 		.4byte	.LASF19
 297 00e2 04       		.byte	0x4
 298 00e3 2A       		.byte	0x2a
 299 00e4 E8000000 		.4byte	0xe8
 300 00e8 05       		.uleb128 0x5
 301 00e9 FF010000 		.4byte	.LASF19
 302 00ed 48       		.byte	0x48
 303 00ee 05       		.byte	0x5
 304 00ef 5E       		.byte	0x5e
 305 00f0 FF010000 		.4byte	0x1ff
 306 00f4 06       		.uleb128 0x6
 307 00f5 F0010000 		.4byte	.LASF20
 308 00f9 05       		.byte	0x5
 309 00fa 5F       		.byte	0x5f
 310 00fb 24020000 		.4byte	0x224
 311 00ff 02       		.byte	0x2
 312 0100 23       		.byte	0x23
 313 0101 00       		.uleb128 0
 314 0102 06       		.uleb128 0x6
 315 0103 63010000 		.4byte	.LASF21
 316 0107 05       		.byte	0x5
 317 0108 61       		.byte	0x61
 318 0109 24020000 		.4byte	0x224
 319 010d 02       		.byte	0x2
 320 010e 23       		.byte	0x23
 321 010f 04       		.uleb128 0x4
 322 0110 06       		.uleb128 0x6
 323 0111 42000000 		.4byte	.LASF22
 324 0115 05       		.byte	0x5
 325 0116 63       		.byte	0x63
 326 0117 B1000000 		.4byte	0xb1
 327 011b 02       		.byte	0x2
 328 011c 23       		.byte	0x23
 329 011d 08       		.uleb128 0x8
 330 011e 06       		.uleb128 0x6
 331 011f CC020000 		.4byte	.LASF23
 332 0123 05       		.byte	0x5
 333 0124 64       		.byte	0x64
 334 0125 F1020000 		.4byte	0x2f1
 335 0129 02       		.byte	0x2
 336 012a 23       		.byte	0x23
 337 012b 0C       		.uleb128 0xc
 338 012c 06       		.uleb128 0x6
ARM GAS  /tmp/cckyEQD0.s 			page 7


 339 012d 8D000000 		.4byte	.LASF24
 340 0131 05       		.byte	0x5
 341 0132 66       		.byte	0x66
 342 0133 24020000 		.4byte	0x224
 343 0137 02       		.byte	0x2
 344 0138 23       		.byte	0x23
 345 0139 10       		.uleb128 0x10
 346 013a 06       		.uleb128 0x6
 347 013b 3E010000 		.4byte	.LASF25
 348 013f 05       		.byte	0x5
 349 0140 67       		.byte	0x67
 350 0141 24020000 		.4byte	0x224
 351 0145 02       		.byte	0x2
 352 0146 23       		.byte	0x23
 353 0147 14       		.uleb128 0x14
 354 0148 06       		.uleb128 0x6
 355 0149 AF020000 		.4byte	.LASF26
 356 014d 05       		.byte	0x5
 357 014e 6E       		.byte	0x6e
 358 014f 85040000 		.4byte	0x485
 359 0153 02       		.byte	0x2
 360 0154 23       		.byte	0x23
 361 0155 18       		.uleb128 0x18
 362 0156 06       		.uleb128 0x6
 363 0157 E1010000 		.4byte	.LASF27
 364 015b 05       		.byte	0x5
 365 015c 79       		.byte	0x79
 366 015d 9B000000 		.4byte	0x9b
 367 0161 02       		.byte	0x2
 368 0162 23       		.byte	0x23
 369 0163 1C       		.uleb128 0x1c
 370 0164 06       		.uleb128 0x6
 371 0165 F7010000 		.4byte	.LASF28
 372 0169 05       		.byte	0x5
 373 016a 7D       		.byte	0x7d
 374 016b 90000000 		.4byte	0x90
 375 016f 02       		.byte	0x2
 376 0170 23       		.byte	0x23
 377 0171 1D       		.uleb128 0x1d
 378 0172 06       		.uleb128 0x6
 379 0173 8B020000 		.4byte	.LASF29
 380 0177 05       		.byte	0x5
 381 0178 82       		.byte	0x82
 382 0179 A6000000 		.4byte	0xa6
 383 017d 02       		.byte	0x2
 384 017e 23       		.byte	0x23
 385 017f 1E       		.uleb128 0x1e
 386 0180 06       		.uleb128 0x6
 387 0181 6B020000 		.4byte	.LASF30
 388 0185 05       		.byte	0x5
 389 0186 89       		.byte	0x89
 390 0187 95030000 		.4byte	0x395
 391 018b 02       		.byte	0x2
 392 018c 23       		.byte	0x23
 393 018d 20       		.uleb128 0x20
 394 018e 07       		.uleb128 0x7
 395 018f 705F7500 		.ascii	"p_u\000"
ARM GAS  /tmp/cckyEQD0.s 			page 8


 396 0193 05       		.byte	0x5
 397 0194 AE       		.byte	0xae
 398 0195 50040000 		.4byte	0x450
 399 0199 02       		.byte	0x2
 400 019a 23       		.byte	0x23
 401 019b 24       		.uleb128 0x24
 402 019c 06       		.uleb128 0x6
 403 019d D2020000 		.4byte	.LASF31
 404 01a1 05       		.byte	0x5
 405 01a2 B3       		.byte	0xb3
 406 01a3 4C020000 		.4byte	0x24c
 407 01a7 02       		.byte	0x2
 408 01a8 23       		.byte	0x23
 409 01a9 28       		.uleb128 0x28
 410 01aa 06       		.uleb128 0x6
 411 01ab 79020000 		.4byte	.LASF32
 412 01af 05       		.byte	0x5
 413 01b0 B9       		.byte	0xb9
 414 01b1 2A020000 		.4byte	0x22a
 415 01b5 02       		.byte	0x2
 416 01b6 23       		.byte	0x23
 417 01b7 2C       		.uleb128 0x2c
 418 01b8 06       		.uleb128 0x6
 419 01b9 0C000000 		.4byte	.LASF33
 420 01bd 05       		.byte	0x5
 421 01be BD       		.byte	0xbd
 422 01bf BC000000 		.4byte	0xbc
 423 01c3 02       		.byte	0x2
 424 01c4 23       		.byte	0x23
 425 01c5 34       		.uleb128 0x34
 426 01c6 06       		.uleb128 0x6
 427 01c7 06020000 		.4byte	.LASF34
 428 01cb 05       		.byte	0x5
 429 01cc C3       		.byte	0xc3
 430 01cd C7000000 		.4byte	0xc7
 431 01d1 02       		.byte	0x2
 432 01d2 23       		.byte	0x23
 433 01d3 38       		.uleb128 0x38
 434 01d4 06       		.uleb128 0x6
 435 01d5 CD010000 		.4byte	.LASF35
 436 01d9 05       		.byte	0x5
 437 01da CA       		.byte	0xca
 438 01db 97040000 		.4byte	0x497
 439 01df 02       		.byte	0x2
 440 01e0 23       		.byte	0x23
 441 01e1 3C       		.uleb128 0x3c
 442 01e2 06       		.uleb128 0x6
 443 01e3 4F020000 		.4byte	.LASF36
 444 01e7 05       		.byte	0x5
 445 01e8 CE       		.byte	0xce
 446 01e9 B1000000 		.4byte	0xb1
 447 01ed 02       		.byte	0x2
 448 01ee 23       		.byte	0x23
 449 01ef 40       		.uleb128 0x40
 450 01f0 06       		.uleb128 0x6
 451 01f1 6B000000 		.4byte	.LASF37
 452 01f5 05       		.byte	0x5
ARM GAS  /tmp/cckyEQD0.s 			page 9


 453 01f6 D4       		.byte	0xd4
 454 01f7 62020000 		.4byte	0x262
 455 01fb 02       		.byte	0x2
 456 01fc 23       		.byte	0x23
 457 01fd 44       		.uleb128 0x44
 458 01fe 00       		.byte	0
 459 01ff 08       		.uleb128 0x8
 460 0200 08       		.byte	0x8
 461 0201 04       		.byte	0x4
 462 0202 61       		.byte	0x61
 463 0203 24020000 		.4byte	0x224
 464 0207 06       		.uleb128 0x6
 465 0208 F0010000 		.4byte	.LASF20
 466 020c 04       		.byte	0x4
 467 020d 62       		.byte	0x62
 468 020e 24020000 		.4byte	0x224
 469 0212 02       		.byte	0x2
 470 0213 23       		.byte	0x23
 471 0214 00       		.uleb128 0
 472 0215 06       		.uleb128 0x6
 473 0216 63010000 		.4byte	.LASF21
 474 021a 04       		.byte	0x4
 475 021b 64       		.byte	0x64
 476 021c 24020000 		.4byte	0x224
 477 0220 02       		.byte	0x2
 478 0221 23       		.byte	0x23
 479 0222 04       		.uleb128 0x4
 480 0223 00       		.byte	0
 481 0224 09       		.uleb128 0x9
 482 0225 04       		.byte	0x4
 483 0226 DD000000 		.4byte	0xdd
 484 022a 04       		.uleb128 0x4
 485 022b 46010000 		.4byte	.LASF38
 486 022f 04       		.byte	0x4
 487 0230 66       		.byte	0x66
 488 0231 FF010000 		.4byte	0x1ff
 489 0235 08       		.uleb128 0x8
 490 0236 04       		.byte	0x4
 491 0237 04       		.byte	0x4
 492 0238 6B       		.byte	0x6b
 493 0239 4C020000 		.4byte	0x24c
 494 023d 06       		.uleb128 0x6
 495 023e F0010000 		.4byte	.LASF20
 496 0242 04       		.byte	0x4
 497 0243 6D       		.byte	0x6d
 498 0244 24020000 		.4byte	0x224
 499 0248 02       		.byte	0x2
 500 0249 23       		.byte	0x23
 501 024a 00       		.uleb128 0
 502 024b 00       		.byte	0
 503 024c 04       		.uleb128 0x4
 504 024d 0A010000 		.4byte	.LASF39
 505 0251 04       		.byte	0x4
 506 0252 70       		.byte	0x70
 507 0253 35020000 		.4byte	0x235
 508 0257 04       		.uleb128 0x4
 509 0258 95000000 		.4byte	.LASF40
ARM GAS  /tmp/cckyEQD0.s 			page 10


 510 025c 06       		.byte	0x6
 511 025d D7       		.byte	0xd7
 512 025e 62020000 		.4byte	0x262
 513 0262 0A       		.uleb128 0xa
 514 0263 04       		.byte	0x4
 515 0264 05       		.uleb128 0x5
 516 0265 72020000 		.4byte	.LASF41
 517 0269 24       		.byte	0x24
 518 026a 06       		.byte	0x6
 519 026b FE       		.byte	0xfe
 520 026c F1020000 		.4byte	0x2f1
 521 0270 0B       		.uleb128 0xb
 522 0271 723400   		.ascii	"r4\000"
 523 0274 06       		.byte	0x6
 524 0275 1101     		.2byte	0x111
 525 0277 57020000 		.4byte	0x257
 526 027b 02       		.byte	0x2
 527 027c 23       		.byte	0x23
 528 027d 00       		.uleb128 0
 529 027e 0B       		.uleb128 0xb
 530 027f 723500   		.ascii	"r5\000"
 531 0282 06       		.byte	0x6
 532 0283 1201     		.2byte	0x112
 533 0285 57020000 		.4byte	0x257
 534 0289 02       		.byte	0x2
 535 028a 23       		.byte	0x23
 536 028b 04       		.uleb128 0x4
 537 028c 0B       		.uleb128 0xb
 538 028d 723600   		.ascii	"r6\000"
 539 0290 06       		.byte	0x6
 540 0291 1301     		.2byte	0x113
 541 0293 57020000 		.4byte	0x257
 542 0297 02       		.byte	0x2
 543 0298 23       		.byte	0x23
 544 0299 08       		.uleb128 0x8
 545 029a 0B       		.uleb128 0xb
 546 029b 723700   		.ascii	"r7\000"
 547 029e 06       		.byte	0x6
 548 029f 1401     		.2byte	0x114
 549 02a1 57020000 		.4byte	0x257
 550 02a5 02       		.byte	0x2
 551 02a6 23       		.byte	0x23
 552 02a7 0C       		.uleb128 0xc
 553 02a8 0B       		.uleb128 0xb
 554 02a9 723800   		.ascii	"r8\000"
 555 02ac 06       		.byte	0x6
 556 02ad 1501     		.2byte	0x115
 557 02af 57020000 		.4byte	0x257
 558 02b3 02       		.byte	0x2
 559 02b4 23       		.byte	0x23
 560 02b5 10       		.uleb128 0x10
 561 02b6 0B       		.uleb128 0xb
 562 02b7 723900   		.ascii	"r9\000"
 563 02ba 06       		.byte	0x6
 564 02bb 1601     		.2byte	0x116
 565 02bd 57020000 		.4byte	0x257
 566 02c1 02       		.byte	0x2
ARM GAS  /tmp/cckyEQD0.s 			page 11


 567 02c2 23       		.byte	0x23
 568 02c3 14       		.uleb128 0x14
 569 02c4 0B       		.uleb128 0xb
 570 02c5 72313000 		.ascii	"r10\000"
 571 02c9 06       		.byte	0x6
 572 02ca 1701     		.2byte	0x117
 573 02cc 57020000 		.4byte	0x257
 574 02d0 02       		.byte	0x2
 575 02d1 23       		.byte	0x23
 576 02d2 18       		.uleb128 0x18
 577 02d3 0B       		.uleb128 0xb
 578 02d4 72313100 		.ascii	"r11\000"
 579 02d8 06       		.byte	0x6
 580 02d9 1801     		.2byte	0x118
 581 02db 57020000 		.4byte	0x257
 582 02df 02       		.byte	0x2
 583 02e0 23       		.byte	0x23
 584 02e1 1C       		.uleb128 0x1c
 585 02e2 0B       		.uleb128 0xb
 586 02e3 6C7200   		.ascii	"lr\000"
 587 02e6 06       		.byte	0x6
 588 02e7 1901     		.2byte	0x119
 589 02e9 57020000 		.4byte	0x257
 590 02ed 02       		.byte	0x2
 591 02ee 23       		.byte	0x23
 592 02ef 20       		.uleb128 0x20
 593 02f0 00       		.byte	0
 594 02f1 0C       		.uleb128 0xc
 595 02f2 D9000000 		.4byte	.LASF42
 596 02f6 04       		.byte	0x4
 597 02f7 06       		.byte	0x6
 598 02f8 2301     		.2byte	0x123
 599 02fa 0E030000 		.4byte	0x30e
 600 02fe 0B       		.uleb128 0xb
 601 02ff 72313300 		.ascii	"r13\000"
 602 0303 06       		.byte	0x6
 603 0304 2401     		.2byte	0x124
 604 0306 0E030000 		.4byte	0x30e
 605 030a 02       		.byte	0x2
 606 030b 23       		.byte	0x23
 607 030c 00       		.uleb128 0
 608 030d 00       		.byte	0
 609 030e 09       		.uleb128 0x9
 610 030f 04       		.byte	0x4
 611 0310 64020000 		.4byte	0x264
 612 0314 04       		.uleb128 0x4
 613 0315 5A020000 		.4byte	.LASF43
 614 0319 07       		.byte	0x7
 615 031a 53       		.byte	0x53
 616 031b 1F030000 		.4byte	0x31f
 617 031f 09       		.uleb128 0x9
 618 0320 04       		.byte	0x4
 619 0321 25030000 		.4byte	0x325
 620 0325 0D       		.uleb128 0xd
 621 0326 01       		.byte	0x1
 622 0327 31030000 		.4byte	0x331
 623 032b 0E       		.uleb128 0xe
ARM GAS  /tmp/cckyEQD0.s 			page 12


 624 032c 62020000 		.4byte	0x262
 625 0330 00       		.byte	0
 626 0331 04       		.uleb128 0x4
 627 0332 1A020000 		.4byte	.LASF44
 628 0336 07       		.byte	0x7
 629 0337 58       		.byte	0x58
 630 0338 3C030000 		.4byte	0x33c
 631 033c 05       		.uleb128 0x5
 632 033d 1A020000 		.4byte	.LASF44
 633 0341 14       		.byte	0x14
 634 0342 07       		.byte	0x7
 635 0343 5F       		.byte	0x5f
 636 0344 8F030000 		.4byte	0x38f
 637 0348 06       		.uleb128 0x6
 638 0349 BF000000 		.4byte	.LASF45
 639 034d 07       		.byte	0x7
 640 034e 60       		.byte	0x60
 641 034f 8F030000 		.4byte	0x38f
 642 0353 02       		.byte	0x2
 643 0354 23       		.byte	0x23
 644 0355 00       		.uleb128 0
 645 0356 06       		.uleb128 0x6
 646 0357 9E000000 		.4byte	.LASF46
 647 035b 07       		.byte	0x7
 648 035c 62       		.byte	0x62
 649 035d 8F030000 		.4byte	0x38f
 650 0361 02       		.byte	0x2
 651 0362 23       		.byte	0x23
 652 0363 04       		.uleb128 0x4
 653 0364 06       		.uleb128 0x6
 654 0365 28010000 		.4byte	.LASF47
 655 0369 07       		.byte	0x7
 656 036a 64       		.byte	0x64
 657 036b D2000000 		.4byte	0xd2
 658 036f 02       		.byte	0x2
 659 0370 23       		.byte	0x23
 660 0371 08       		.uleb128 0x8
 661 0372 06       		.uleb128 0x6
 662 0373 36010000 		.4byte	.LASF48
 663 0377 07       		.byte	0x7
 664 0378 65       		.byte	0x65
 665 0379 14030000 		.4byte	0x314
 666 037d 02       		.byte	0x2
 667 037e 23       		.byte	0x23
 668 037f 0C       		.uleb128 0xc
 669 0380 06       		.uleb128 0x6
 670 0381 84020000 		.4byte	.LASF49
 671 0385 07       		.byte	0x7
 672 0386 67       		.byte	0x67
 673 0387 62020000 		.4byte	0x262
 674 038b 02       		.byte	0x2
 675 038c 23       		.byte	0x23
 676 038d 10       		.uleb128 0x10
 677 038e 00       		.byte	0
 678 038f 09       		.uleb128 0x9
 679 0390 04       		.byte	0x4
 680 0391 31030000 		.4byte	0x331
ARM GAS  /tmp/cckyEQD0.s 			page 13


 681 0395 0F       		.uleb128 0xf
 682 0396 D2000000 		.4byte	0xd2
 683 039a 05       		.uleb128 0x5
 684 039b 22010000 		.4byte	.LASF50
 685 039f 10       		.byte	0x10
 686 03a0 08       		.byte	0x8
 687 03a1 2C       		.byte	0x2c
 688 03a2 D1030000 		.4byte	0x3d1
 689 03a6 06       		.uleb128 0x6
 690 03a7 73000000 		.4byte	.LASF51
 691 03ab 08       		.byte	0x8
 692 03ac 2D       		.byte	0x2d
 693 03ad 2A020000 		.4byte	0x22a
 694 03b1 02       		.byte	0x2
 695 03b2 23       		.byte	0x23
 696 03b3 00       		.uleb128 0
 697 03b4 06       		.uleb128 0x6
 698 03b5 C4020000 		.4byte	.LASF52
 699 03b9 08       		.byte	0x8
 700 03ba 2F       		.byte	0x2f
 701 03bb 24020000 		.4byte	0x224
 702 03bf 02       		.byte	0x2
 703 03c0 23       		.byte	0x23
 704 03c1 08       		.uleb128 0x8
 705 03c2 06       		.uleb128 0x6
 706 03c3 3E020000 		.4byte	.LASF53
 707 03c7 08       		.byte	0x8
 708 03c8 31       		.byte	0x31
 709 03c9 D1030000 		.4byte	0x3d1
 710 03cd 02       		.byte	0x2
 711 03ce 23       		.byte	0x23
 712 03cf 0C       		.uleb128 0xc
 713 03d0 00       		.byte	0
 714 03d1 09       		.uleb128 0x9
 715 03d2 04       		.byte	0x4
 716 03d3 9A030000 		.4byte	0x39a
 717 03d7 04       		.uleb128 0x4
 718 03d8 22010000 		.4byte	.LASF50
 719 03dc 08       		.byte	0x8
 720 03dd 33       		.byte	0x33
 721 03de 9A030000 		.4byte	0x39a
 722 03e2 04       		.uleb128 0x4
 723 03e3 9A020000 		.4byte	.LASF54
 724 03e7 09       		.byte	0x9
 725 03e8 29       		.byte	0x29
 726 03e9 ED030000 		.4byte	0x3ed
 727 03ed 05       		.uleb128 0x5
 728 03ee 9A020000 		.4byte	.LASF54
 729 03f2 0C       		.byte	0xc
 730 03f3 09       		.byte	0x9
 731 03f4 2E       		.byte	0x2e
 732 03f5 24040000 		.4byte	0x424
 733 03f9 06       		.uleb128 0x6
 734 03fa FA000000 		.4byte	.LASF55
 735 03fe 09       		.byte	0x9
 736 03ff 2F       		.byte	0x2f
 737 0400 24040000 		.4byte	0x424
ARM GAS  /tmp/cckyEQD0.s 			page 14


 738 0404 02       		.byte	0x2
 739 0405 23       		.byte	0x23
 740 0406 00       		.uleb128 0
 741 0407 06       		.uleb128 0x6
 742 0408 88010000 		.4byte	.LASF56
 743 040c 09       		.byte	0x9
 744 040d 32       		.byte	0x32
 745 040e 24020000 		.4byte	0x224
 746 0412 02       		.byte	0x2
 747 0413 23       		.byte	0x23
 748 0414 04       		.uleb128 0x4
 749 0415 06       		.uleb128 0x6
 750 0416 53010000 		.4byte	.LASF57
 751 041a 09       		.byte	0x9
 752 041b 34       		.byte	0x34
 753 041c C7000000 		.4byte	0xc7
 754 0420 02       		.byte	0x2
 755 0421 23       		.byte	0x23
 756 0422 08       		.uleb128 0x8
 757 0423 00       		.byte	0
 758 0424 09       		.uleb128 0x9
 759 0425 04       		.byte	0x4
 760 0426 E2030000 		.4byte	0x3e2
 761 042a 05       		.uleb128 0x5
 762 042b A6000000 		.4byte	.LASF58
 763 042f 04       		.byte	0x4
 764 0430 09       		.byte	0x9
 765 0431 3C       		.byte	0x3c
 766 0432 45040000 		.4byte	0x445
 767 0436 06       		.uleb128 0x6
 768 0437 B6020000 		.4byte	.LASF59
 769 043b 09       		.byte	0x9
 770 043c 3D       		.byte	0x3d
 771 043d 24040000 		.4byte	0x424
 772 0441 02       		.byte	0x2
 773 0442 23       		.byte	0x23
 774 0443 00       		.uleb128 0
 775 0444 00       		.byte	0
 776 0445 04       		.uleb128 0x4
 777 0446 A6000000 		.4byte	.LASF58
 778 044a 09       		.byte	0x9
 779 044b 40       		.byte	0x40
 780 044c 2A040000 		.4byte	0x42a
 781 0450 10       		.uleb128 0x10
 782 0451 04       		.byte	0x4
 783 0452 05       		.byte	0x5
 784 0453 90       		.byte	0x90
 785 0454 85040000 		.4byte	0x485
 786 0458 11       		.uleb128 0x11
 787 0459 12000000 		.4byte	.LASF60
 788 045d 05       		.byte	0x5
 789 045e 97       		.byte	0x97
 790 045f BC000000 		.4byte	0xbc
 791 0463 11       		.uleb128 0x11
 792 0464 30000000 		.4byte	.LASF61
 793 0468 05       		.byte	0x5
 794 0469 9E       		.byte	0x9e
ARM GAS  /tmp/cckyEQD0.s 			page 15


 795 046a BC000000 		.4byte	0xbc
 796 046e 11       		.uleb128 0x11
 797 046f A8020000 		.4byte	.LASF62
 798 0473 05       		.byte	0x5
 799 0474 A5       		.byte	0xa5
 800 0475 62020000 		.4byte	0x262
 801 0479 11       		.uleb128 0x11
 802 047a E9010000 		.4byte	.LASF63
 803 047e 05       		.byte	0x5
 804 047f AC       		.byte	0xac
 805 0480 C7000000 		.4byte	0xc7
 806 0484 00       		.byte	0
 807 0485 09       		.uleb128 0x9
 808 0486 04       		.byte	0x4
 809 0487 8B040000 		.4byte	0x48b
 810 048b 12       		.uleb128 0x12
 811 048c 90040000 		.4byte	0x490
 812 0490 03       		.uleb128 0x3
 813 0491 01       		.byte	0x1
 814 0492 08       		.byte	0x8
 815 0493 33020000 		.4byte	.LASF64
 816 0497 09       		.uleb128 0x9
 817 0498 04       		.byte	0x4
 818 0499 D7030000 		.4byte	0x3d7
 819 049d 08       		.uleb128 0x8
 820 049e 1C       		.byte	0x1c
 821 049f 0A       		.byte	0xa
 822 04a0 2A       		.byte	0x2a
 823 04a1 D0040000 		.4byte	0x4d0
 824 04a5 06       		.uleb128 0x6
 825 04a6 BE020000 		.4byte	.LASF65
 826 04aa 0A       		.byte	0xa
 827 04ab 2B       		.byte	0x2b
 828 04ac 31030000 		.4byte	0x331
 829 04b0 02       		.byte	0x2
 830 04b1 23       		.byte	0x23
 831 04b2 00       		.uleb128 0
 832 04b3 06       		.uleb128 0x6
 833 04b4 30010000 		.4byte	.LASF66
 834 04b8 0A       		.byte	0xa
 835 04b9 2C       		.byte	0x2c
 836 04ba 45040000 		.4byte	0x445
 837 04be 02       		.byte	0x2
 838 04bf 23       		.byte	0x23
 839 04c0 14       		.uleb128 0x14
 840 04c1 06       		.uleb128 0x6
 841 04c2 00000000 		.4byte	.LASF67
 842 04c6 0A       		.byte	0xa
 843 04c7 2D       		.byte	0x2d
 844 04c8 D2000000 		.4byte	0xd2
 845 04cc 02       		.byte	0x2
 846 04cd 23       		.byte	0x23
 847 04ce 18       		.uleb128 0x18
 848 04cf 00       		.byte	0
 849 04d0 04       		.uleb128 0x4
 850 04d1 63000000 		.4byte	.LASF68
 851 04d5 0A       		.byte	0xa
ARM GAS  /tmp/cckyEQD0.s 			page 16


 852 04d6 2E       		.byte	0x2e
 853 04d7 9D040000 		.4byte	0x49d
 854 04db 13       		.uleb128 0x13
 855 04dc 38020000 		.4byte	.LASF72
 856 04e0 01       		.byte	0x1
 857 04e1 27       		.byte	0x27
 858 04e2 01       		.byte	0x1
 859 04e3 00000000 		.4byte	.LFB7
 860 04e7 22000000 		.4byte	.LFE7
 861 04eb 00000000 		.4byte	.LLST0
 862 04ef 10050000 		.4byte	0x510
 863 04f3 14       		.uleb128 0x14
 864 04f4 7000     		.ascii	"p\000"
 865 04f6 01       		.byte	0x1
 866 04f7 27       		.byte	0x27
 867 04f8 62020000 		.4byte	0x262
 868 04fc 20000000 		.4byte	.LLST1
 869 0500 15       		.uleb128 0x15
 870 0501 65747000 		.ascii	"etp\000"
 871 0505 01       		.byte	0x1
 872 0506 28       		.byte	0x28
 873 0507 10050000 		.4byte	0x510
 874 050b 3E000000 		.4byte	.LLST2
 875 050f 00       		.byte	0
 876 0510 09       		.uleb128 0x9
 877 0511 04       		.byte	0x4
 878 0512 D0040000 		.4byte	0x4d0
 879 0516 16       		.uleb128 0x16
 880 0517 01       		.byte	0x1
 881 0518 39000000 		.4byte	.LASF73
 882 051c 01       		.byte	0x1
 883 051d 34       		.byte	0x34
 884 051e 01       		.byte	0x1
 885 051f 00000000 		.4byte	.LFB8
 886 0523 2C000000 		.4byte	.LFE8
 887 0527 5C000000 		.4byte	.LLST3
 888 052b 71050000 		.4byte	0x571
 889 052f 14       		.uleb128 0x14
 890 0530 65747000 		.ascii	"etp\000"
 891 0534 01       		.byte	0x1
 892 0535 34       		.byte	0x34
 893 0536 10050000 		.4byte	0x510
 894 053a 7C000000 		.4byte	.LLST4
 895 053e 17       		.uleb128 0x17
 896 053f 02000000 		.4byte	.LBB2
 897 0543 08000000 		.4byte	.LBE2
 898 0547 5B050000 		.4byte	0x55b
 899 054b 15       		.uleb128 0x15
 900 054c 746D7000 		.ascii	"tmp\000"
 901 0550 01       		.byte	0x1
 902 0551 36       		.byte	0x36
 903 0552 70000000 		.4byte	0x70
 904 0556 8F000000 		.4byte	.LLST5
 905 055a 00       		.byte	0
 906 055b 18       		.uleb128 0x18
 907 055c 00000000 		.4byte	.Ldebug_ranges0+0
 908 0560 15       		.uleb128 0x15
ARM GAS  /tmp/cckyEQD0.s 			page 17


 909 0561 746D7000 		.ascii	"tmp\000"
 910 0565 01       		.byte	0x1
 911 0566 3B       		.byte	0x3b
 912 0567 70000000 		.4byte	0x70
 913 056b A2000000 		.4byte	.LLST6
 914 056f 00       		.byte	0
 915 0570 00       		.byte	0
 916 0571 19       		.uleb128 0x19
 917 0572 01       		.byte	0x1
 918 0573 63020000 		.4byte	.LASF74
 919 0577 01       		.byte	0x1
 920 0578 44       		.byte	0x44
 921 0579 01       		.byte	0x1
 922 057a 00000000 		.4byte	.LFB9
 923 057e 18000000 		.4byte	.LFE9
 924 0582 C0000000 		.4byte	.LLST7
 925 0586 14       		.uleb128 0x14
 926 0587 65747000 		.ascii	"etp\000"
 927 058b 01       		.byte	0x1
 928 058c 44       		.byte	0x44
 929 058d 10050000 		.4byte	0x510
 930 0591 E0000000 		.4byte	.LLST8
 931 0595 17       		.uleb128 0x17
 932 0596 02000000 		.4byte	.LBB5
 933 059a 08000000 		.4byte	.LBE5
 934 059e B2050000 		.4byte	0x5b2
 935 05a2 15       		.uleb128 0x15
 936 05a3 746D7000 		.ascii	"tmp\000"
 937 05a7 01       		.byte	0x1
 938 05a8 46       		.byte	0x46
 939 05a9 70000000 		.4byte	0x70
 940 05ad F3000000 		.4byte	.LLST9
 941 05b1 00       		.byte	0
 942 05b2 1A       		.uleb128 0x1a
 943 05b3 10000000 		.4byte	.LBB6
 944 05b7 16000000 		.4byte	.LBE6
 945 05bb 15       		.uleb128 0x15
 946 05bc 746D7000 		.ascii	"tmp\000"
 947 05c0 01       		.byte	0x1
 948 05c1 4B       		.byte	0x4b
 949 05c2 70000000 		.4byte	0x70
 950 05c6 06010000 		.4byte	.LLST10
 951 05ca 00       		.byte	0
 952 05cb 00       		.byte	0
 953 05cc 00       		.byte	0
 954              		.section	.debug_abbrev,"",%progbits
 955              	.Ldebug_abbrev0:
 956 0000 01       		.uleb128 0x1
 957 0001 11       		.uleb128 0x11
 958 0002 01       		.byte	0x1
 959 0003 25       		.uleb128 0x25
 960 0004 0E       		.uleb128 0xe
 961 0005 13       		.uleb128 0x13
 962 0006 0B       		.uleb128 0xb
 963 0007 03       		.uleb128 0x3
 964 0008 0E       		.uleb128 0xe
 965 0009 1B       		.uleb128 0x1b
ARM GAS  /tmp/cckyEQD0.s 			page 18


 966 000a 0E       		.uleb128 0xe
 967 000b 11       		.uleb128 0x11
 968 000c 01       		.uleb128 0x1
 969 000d 52       		.uleb128 0x52
 970 000e 01       		.uleb128 0x1
 971 000f 55       		.uleb128 0x55
 972 0010 06       		.uleb128 0x6
 973 0011 10       		.uleb128 0x10
 974 0012 06       		.uleb128 0x6
 975 0013 00       		.byte	0
 976 0014 00       		.byte	0
 977 0015 02       		.uleb128 0x2
 978 0016 24       		.uleb128 0x24
 979 0017 00       		.byte	0
 980 0018 0B       		.uleb128 0xb
 981 0019 0B       		.uleb128 0xb
 982 001a 3E       		.uleb128 0x3e
 983 001b 0B       		.uleb128 0xb
 984 001c 03       		.uleb128 0x3
 985 001d 08       		.uleb128 0x8
 986 001e 00       		.byte	0
 987 001f 00       		.byte	0
 988 0020 03       		.uleb128 0x3
 989 0021 24       		.uleb128 0x24
 990 0022 00       		.byte	0
 991 0023 0B       		.uleb128 0xb
 992 0024 0B       		.uleb128 0xb
 993 0025 3E       		.uleb128 0x3e
 994 0026 0B       		.uleb128 0xb
 995 0027 03       		.uleb128 0x3
 996 0028 0E       		.uleb128 0xe
 997 0029 00       		.byte	0
 998 002a 00       		.byte	0
 999 002b 04       		.uleb128 0x4
 1000 002c 16       		.uleb128 0x16
 1001 002d 00       		.byte	0
 1002 002e 03       		.uleb128 0x3
 1003 002f 0E       		.uleb128 0xe
 1004 0030 3A       		.uleb128 0x3a
 1005 0031 0B       		.uleb128 0xb
 1006 0032 3B       		.uleb128 0x3b
 1007 0033 0B       		.uleb128 0xb
 1008 0034 49       		.uleb128 0x49
 1009 0035 13       		.uleb128 0x13
 1010 0036 00       		.byte	0
 1011 0037 00       		.byte	0
 1012 0038 05       		.uleb128 0x5
 1013 0039 13       		.uleb128 0x13
 1014 003a 01       		.byte	0x1
 1015 003b 03       		.uleb128 0x3
 1016 003c 0E       		.uleb128 0xe
 1017 003d 0B       		.uleb128 0xb
 1018 003e 0B       		.uleb128 0xb
 1019 003f 3A       		.uleb128 0x3a
 1020 0040 0B       		.uleb128 0xb
 1021 0041 3B       		.uleb128 0x3b
 1022 0042 0B       		.uleb128 0xb
ARM GAS  /tmp/cckyEQD0.s 			page 19


 1023 0043 01       		.uleb128 0x1
 1024 0044 13       		.uleb128 0x13
 1025 0045 00       		.byte	0
 1026 0046 00       		.byte	0
 1027 0047 06       		.uleb128 0x6
 1028 0048 0D       		.uleb128 0xd
 1029 0049 00       		.byte	0
 1030 004a 03       		.uleb128 0x3
 1031 004b 0E       		.uleb128 0xe
 1032 004c 3A       		.uleb128 0x3a
 1033 004d 0B       		.uleb128 0xb
 1034 004e 3B       		.uleb128 0x3b
 1035 004f 0B       		.uleb128 0xb
 1036 0050 49       		.uleb128 0x49
 1037 0051 13       		.uleb128 0x13
 1038 0052 38       		.uleb128 0x38
 1039 0053 0A       		.uleb128 0xa
 1040 0054 00       		.byte	0
 1041 0055 00       		.byte	0
 1042 0056 07       		.uleb128 0x7
 1043 0057 0D       		.uleb128 0xd
 1044 0058 00       		.byte	0
 1045 0059 03       		.uleb128 0x3
 1046 005a 08       		.uleb128 0x8
 1047 005b 3A       		.uleb128 0x3a
 1048 005c 0B       		.uleb128 0xb
 1049 005d 3B       		.uleb128 0x3b
 1050 005e 0B       		.uleb128 0xb
 1051 005f 49       		.uleb128 0x49
 1052 0060 13       		.uleb128 0x13
 1053 0061 38       		.uleb128 0x38
 1054 0062 0A       		.uleb128 0xa
 1055 0063 00       		.byte	0
 1056 0064 00       		.byte	0
 1057 0065 08       		.uleb128 0x8
 1058 0066 13       		.uleb128 0x13
 1059 0067 01       		.byte	0x1
 1060 0068 0B       		.uleb128 0xb
 1061 0069 0B       		.uleb128 0xb
 1062 006a 3A       		.uleb128 0x3a
 1063 006b 0B       		.uleb128 0xb
 1064 006c 3B       		.uleb128 0x3b
 1065 006d 0B       		.uleb128 0xb
 1066 006e 01       		.uleb128 0x1
 1067 006f 13       		.uleb128 0x13
 1068 0070 00       		.byte	0
 1069 0071 00       		.byte	0
 1070 0072 09       		.uleb128 0x9
 1071 0073 0F       		.uleb128 0xf
 1072 0074 00       		.byte	0
 1073 0075 0B       		.uleb128 0xb
 1074 0076 0B       		.uleb128 0xb
 1075 0077 49       		.uleb128 0x49
 1076 0078 13       		.uleb128 0x13
 1077 0079 00       		.byte	0
 1078 007a 00       		.byte	0
 1079 007b 0A       		.uleb128 0xa
ARM GAS  /tmp/cckyEQD0.s 			page 20


 1080 007c 0F       		.uleb128 0xf
 1081 007d 00       		.byte	0
 1082 007e 0B       		.uleb128 0xb
 1083 007f 0B       		.uleb128 0xb
 1084 0080 00       		.byte	0
 1085 0081 00       		.byte	0
 1086 0082 0B       		.uleb128 0xb
 1087 0083 0D       		.uleb128 0xd
 1088 0084 00       		.byte	0
 1089 0085 03       		.uleb128 0x3
 1090 0086 08       		.uleb128 0x8
 1091 0087 3A       		.uleb128 0x3a
 1092 0088 0B       		.uleb128 0xb
 1093 0089 3B       		.uleb128 0x3b
 1094 008a 05       		.uleb128 0x5
 1095 008b 49       		.uleb128 0x49
 1096 008c 13       		.uleb128 0x13
 1097 008d 38       		.uleb128 0x38
 1098 008e 0A       		.uleb128 0xa
 1099 008f 00       		.byte	0
 1100 0090 00       		.byte	0
 1101 0091 0C       		.uleb128 0xc
 1102 0092 13       		.uleb128 0x13
 1103 0093 01       		.byte	0x1
 1104 0094 03       		.uleb128 0x3
 1105 0095 0E       		.uleb128 0xe
 1106 0096 0B       		.uleb128 0xb
 1107 0097 0B       		.uleb128 0xb
 1108 0098 3A       		.uleb128 0x3a
 1109 0099 0B       		.uleb128 0xb
 1110 009a 3B       		.uleb128 0x3b
 1111 009b 05       		.uleb128 0x5
 1112 009c 01       		.uleb128 0x1
 1113 009d 13       		.uleb128 0x13
 1114 009e 00       		.byte	0
 1115 009f 00       		.byte	0
 1116 00a0 0D       		.uleb128 0xd
 1117 00a1 15       		.uleb128 0x15
 1118 00a2 01       		.byte	0x1
 1119 00a3 27       		.uleb128 0x27
 1120 00a4 0C       		.uleb128 0xc
 1121 00a5 01       		.uleb128 0x1
 1122 00a6 13       		.uleb128 0x13
 1123 00a7 00       		.byte	0
 1124 00a8 00       		.byte	0
 1125 00a9 0E       		.uleb128 0xe
 1126 00aa 05       		.uleb128 0x5
 1127 00ab 00       		.byte	0
 1128 00ac 49       		.uleb128 0x49
 1129 00ad 13       		.uleb128 0x13
 1130 00ae 00       		.byte	0
 1131 00af 00       		.byte	0
 1132 00b0 0F       		.uleb128 0xf
 1133 00b1 35       		.uleb128 0x35
 1134 00b2 00       		.byte	0
 1135 00b3 49       		.uleb128 0x49
 1136 00b4 13       		.uleb128 0x13
ARM GAS  /tmp/cckyEQD0.s 			page 21


 1137 00b5 00       		.byte	0
 1138 00b6 00       		.byte	0
 1139 00b7 10       		.uleb128 0x10
 1140 00b8 17       		.uleb128 0x17
 1141 00b9 01       		.byte	0x1
 1142 00ba 0B       		.uleb128 0xb
 1143 00bb 0B       		.uleb128 0xb
 1144 00bc 3A       		.uleb128 0x3a
 1145 00bd 0B       		.uleb128 0xb
 1146 00be 3B       		.uleb128 0x3b
 1147 00bf 0B       		.uleb128 0xb
 1148 00c0 01       		.uleb128 0x1
 1149 00c1 13       		.uleb128 0x13
 1150 00c2 00       		.byte	0
 1151 00c3 00       		.byte	0
 1152 00c4 11       		.uleb128 0x11
 1153 00c5 0D       		.uleb128 0xd
 1154 00c6 00       		.byte	0
 1155 00c7 03       		.uleb128 0x3
 1156 00c8 0E       		.uleb128 0xe
 1157 00c9 3A       		.uleb128 0x3a
 1158 00ca 0B       		.uleb128 0xb
 1159 00cb 3B       		.uleb128 0x3b
 1160 00cc 0B       		.uleb128 0xb
 1161 00cd 49       		.uleb128 0x49
 1162 00ce 13       		.uleb128 0x13
 1163 00cf 00       		.byte	0
 1164 00d0 00       		.byte	0
 1165 00d1 12       		.uleb128 0x12
 1166 00d2 26       		.uleb128 0x26
 1167 00d3 00       		.byte	0
 1168 00d4 49       		.uleb128 0x49
 1169 00d5 13       		.uleb128 0x13
 1170 00d6 00       		.byte	0
 1171 00d7 00       		.byte	0
 1172 00d8 13       		.uleb128 0x13
 1173 00d9 2E       		.uleb128 0x2e
 1174 00da 01       		.byte	0x1
 1175 00db 03       		.uleb128 0x3
 1176 00dc 0E       		.uleb128 0xe
 1177 00dd 3A       		.uleb128 0x3a
 1178 00de 0B       		.uleb128 0xb
 1179 00df 3B       		.uleb128 0x3b
 1180 00e0 0B       		.uleb128 0xb
 1181 00e1 27       		.uleb128 0x27
 1182 00e2 0C       		.uleb128 0xc
 1183 00e3 11       		.uleb128 0x11
 1184 00e4 01       		.uleb128 0x1
 1185 00e5 12       		.uleb128 0x12
 1186 00e6 01       		.uleb128 0x1
 1187 00e7 40       		.uleb128 0x40
 1188 00e8 06       		.uleb128 0x6
 1189 00e9 01       		.uleb128 0x1
 1190 00ea 13       		.uleb128 0x13
 1191 00eb 00       		.byte	0
 1192 00ec 00       		.byte	0
 1193 00ed 14       		.uleb128 0x14
ARM GAS  /tmp/cckyEQD0.s 			page 22


 1194 00ee 05       		.uleb128 0x5
 1195 00ef 00       		.byte	0
 1196 00f0 03       		.uleb128 0x3
 1197 00f1 08       		.uleb128 0x8
 1198 00f2 3A       		.uleb128 0x3a
 1199 00f3 0B       		.uleb128 0xb
 1200 00f4 3B       		.uleb128 0x3b
 1201 00f5 0B       		.uleb128 0xb
 1202 00f6 49       		.uleb128 0x49
 1203 00f7 13       		.uleb128 0x13
 1204 00f8 02       		.uleb128 0x2
 1205 00f9 06       		.uleb128 0x6
 1206 00fa 00       		.byte	0
 1207 00fb 00       		.byte	0
 1208 00fc 15       		.uleb128 0x15
 1209 00fd 34       		.uleb128 0x34
 1210 00fe 00       		.byte	0
 1211 00ff 03       		.uleb128 0x3
 1212 0100 08       		.uleb128 0x8
 1213 0101 3A       		.uleb128 0x3a
 1214 0102 0B       		.uleb128 0xb
 1215 0103 3B       		.uleb128 0x3b
 1216 0104 0B       		.uleb128 0xb
 1217 0105 49       		.uleb128 0x49
 1218 0106 13       		.uleb128 0x13
 1219 0107 02       		.uleb128 0x2
 1220 0108 06       		.uleb128 0x6
 1221 0109 00       		.byte	0
 1222 010a 00       		.byte	0
 1223 010b 16       		.uleb128 0x16
 1224 010c 2E       		.uleb128 0x2e
 1225 010d 01       		.byte	0x1
 1226 010e 3F       		.uleb128 0x3f
 1227 010f 0C       		.uleb128 0xc
 1228 0110 03       		.uleb128 0x3
 1229 0111 0E       		.uleb128 0xe
 1230 0112 3A       		.uleb128 0x3a
 1231 0113 0B       		.uleb128 0xb
 1232 0114 3B       		.uleb128 0x3b
 1233 0115 0B       		.uleb128 0xb
 1234 0116 27       		.uleb128 0x27
 1235 0117 0C       		.uleb128 0xc
 1236 0118 11       		.uleb128 0x11
 1237 0119 01       		.uleb128 0x1
 1238 011a 12       		.uleb128 0x12
 1239 011b 01       		.uleb128 0x1
 1240 011c 40       		.uleb128 0x40
 1241 011d 06       		.uleb128 0x6
 1242 011e 01       		.uleb128 0x1
 1243 011f 13       		.uleb128 0x13
 1244 0120 00       		.byte	0
 1245 0121 00       		.byte	0
 1246 0122 17       		.uleb128 0x17
 1247 0123 0B       		.uleb128 0xb
 1248 0124 01       		.byte	0x1
 1249 0125 11       		.uleb128 0x11
 1250 0126 01       		.uleb128 0x1
ARM GAS  /tmp/cckyEQD0.s 			page 23


 1251 0127 12       		.uleb128 0x12
 1252 0128 01       		.uleb128 0x1
 1253 0129 01       		.uleb128 0x1
 1254 012a 13       		.uleb128 0x13
 1255 012b 00       		.byte	0
 1256 012c 00       		.byte	0
 1257 012d 18       		.uleb128 0x18
 1258 012e 0B       		.uleb128 0xb
 1259 012f 01       		.byte	0x1
 1260 0130 55       		.uleb128 0x55
 1261 0131 06       		.uleb128 0x6
 1262 0132 00       		.byte	0
 1263 0133 00       		.byte	0
 1264 0134 19       		.uleb128 0x19
 1265 0135 2E       		.uleb128 0x2e
 1266 0136 01       		.byte	0x1
 1267 0137 3F       		.uleb128 0x3f
 1268 0138 0C       		.uleb128 0xc
 1269 0139 03       		.uleb128 0x3
 1270 013a 0E       		.uleb128 0xe
 1271 013b 3A       		.uleb128 0x3a
 1272 013c 0B       		.uleb128 0xb
 1273 013d 3B       		.uleb128 0x3b
 1274 013e 0B       		.uleb128 0xb
 1275 013f 27       		.uleb128 0x27
 1276 0140 0C       		.uleb128 0xc
 1277 0141 11       		.uleb128 0x11
 1278 0142 01       		.uleb128 0x1
 1279 0143 12       		.uleb128 0x12
 1280 0144 01       		.uleb128 0x1
 1281 0145 40       		.uleb128 0x40
 1282 0146 06       		.uleb128 0x6
 1283 0147 00       		.byte	0
 1284 0148 00       		.byte	0
 1285 0149 1A       		.uleb128 0x1a
 1286 014a 0B       		.uleb128 0xb
 1287 014b 01       		.byte	0x1
 1288 014c 11       		.uleb128 0x11
 1289 014d 01       		.uleb128 0x1
 1290 014e 12       		.uleb128 0x12
 1291 014f 01       		.uleb128 0x1
 1292 0150 00       		.byte	0
 1293 0151 00       		.byte	0
 1294 0152 00       		.byte	0
 1295              		.section	.debug_loc,"",%progbits
 1296              	.Ldebug_loc0:
 1297              	.LLST0:
 1298 0000 00000000 		.4byte	.LFB7
 1299 0004 02000000 		.4byte	.LCFI0
 1300 0008 0200     		.2byte	0x2
 1301 000a 7D       		.byte	0x7d
 1302 000b 00       		.sleb128 0
 1303 000c 02000000 		.4byte	.LCFI0
 1304 0010 22000000 		.4byte	.LFE7
 1305 0014 0200     		.2byte	0x2
 1306 0016 7D       		.byte	0x7d
 1307 0017 08       		.sleb128 8
ARM GAS  /tmp/cckyEQD0.s 			page 24


 1308 0018 00000000 		.4byte	0
 1309 001c 00000000 		.4byte	0
 1310              	.LLST1:
 1311 0020 00000000 		.4byte	.LVL0
 1312 0024 08000000 		.4byte	.LVL2
 1313 0028 0100     		.2byte	0x1
 1314 002a 50       		.byte	0x50
 1315 002b 08000000 		.4byte	.LVL2
 1316 002f 22000000 		.4byte	.LFE7
 1317 0033 0100     		.2byte	0x1
 1318 0035 54       		.byte	0x54
 1319 0036 00000000 		.4byte	0
 1320 003a 00000000 		.4byte	0
 1321              	.LLST2:
 1322 003e 06000000 		.4byte	.LVL1
 1323 0042 08000000 		.4byte	.LVL2
 1324 0046 0100     		.2byte	0x1
 1325 0048 50       		.byte	0x50
 1326 0049 08000000 		.4byte	.LVL2
 1327 004d 22000000 		.4byte	.LFE7
 1328 0051 0100     		.2byte	0x1
 1329 0053 54       		.byte	0x54
 1330 0054 00000000 		.4byte	0
 1331 0058 00000000 		.4byte	0
 1332              	.LLST3:
 1333 005c 00000000 		.4byte	.LFB8
 1334 0060 02000000 		.4byte	.LCFI1
 1335 0064 0200     		.2byte	0x2
 1336 0066 7D       		.byte	0x7d
 1337 0067 00       		.sleb128 0
 1338 0068 02000000 		.4byte	.LCFI1
 1339 006c 2C000000 		.4byte	.LFE8
 1340 0070 0200     		.2byte	0x2
 1341 0072 7D       		.byte	0x7d
 1342 0073 08       		.sleb128 8
 1343 0074 00000000 		.4byte	0
 1344 0078 00000000 		.4byte	0
 1345              	.LLST4:
 1346 007c 00000000 		.4byte	.LVL3
 1347 0080 23000000 		.4byte	.LVL10-1
 1348 0084 0100     		.2byte	0x1
 1349 0086 50       		.byte	0x50
 1350 0087 00000000 		.4byte	0
 1351 008b 00000000 		.4byte	0
 1352              	.LLST5:
 1353 008f 08000000 		.4byte	.LVL5
 1354 0093 0A000000 		.4byte	.LVL6
 1355 0097 0100     		.2byte	0x1
 1356 0099 53       		.byte	0x53
 1357 009a 00000000 		.4byte	0
 1358 009e 00000000 		.4byte	0
 1359              	.LLST6:
 1360 00a2 12000000 		.4byte	.LVL8
 1361 00a6 14000000 		.4byte	.LVL9
 1362 00aa 0100     		.2byte	0x1
 1363 00ac 53       		.byte	0x53
 1364 00ad 2A000000 		.4byte	.LVL11
ARM GAS  /tmp/cckyEQD0.s 			page 25


 1365 00b1 2C000000 		.4byte	.LFE8
 1366 00b5 0100     		.2byte	0x1
 1367 00b7 53       		.byte	0x53
 1368 00b8 00000000 		.4byte	0
 1369 00bc 00000000 		.4byte	0
 1370              	.LLST7:
 1371 00c0 00000000 		.4byte	.LFB9
 1372 00c4 02000000 		.4byte	.LCFI2
 1373 00c8 0200     		.2byte	0x2
 1374 00ca 7D       		.byte	0x7d
 1375 00cb 00       		.sleb128 0
 1376 00cc 02000000 		.4byte	.LCFI2
 1377 00d0 18000000 		.4byte	.LFE9
 1378 00d4 0200     		.2byte	0x2
 1379 00d6 7D       		.byte	0x7d
 1380 00d7 08       		.sleb128 8
 1381 00d8 00000000 		.4byte	0
 1382 00dc 00000000 		.4byte	0
 1383              	.LLST8:
 1384 00e0 00000000 		.4byte	.LVL12
 1385 00e4 0F000000 		.4byte	.LVL16-1
 1386 00e8 0100     		.2byte	0x1
 1387 00ea 50       		.byte	0x50
 1388 00eb 00000000 		.4byte	0
 1389 00ef 00000000 		.4byte	0
 1390              	.LLST9:
 1391 00f3 08000000 		.4byte	.LVL14
 1392 00f7 0A000000 		.4byte	.LVL15
 1393 00fb 0100     		.2byte	0x1
 1394 00fd 53       		.byte	0x53
 1395 00fe 00000000 		.4byte	0
 1396 0102 00000000 		.4byte	0
 1397              	.LLST10:
 1398 0106 16000000 		.4byte	.LVL18
 1399 010a 18000000 		.4byte	.LFE9
 1400 010e 0100     		.2byte	0x1
 1401 0110 53       		.byte	0x53
 1402 0111 00000000 		.4byte	0
 1403 0115 00000000 		.4byte	0
 1404              		.section	.debug_aranges,"",%progbits
 1405 0000 2C000000 		.4byte	0x2c
 1406 0004 0200     		.2byte	0x2
 1407 0006 00000000 		.4byte	.Ldebug_info0
 1408 000a 04       		.byte	0x4
 1409 000b 00       		.byte	0
 1410 000c 0000     		.2byte	0
 1411 000e 0000     		.2byte	0
 1412 0010 00000000 		.4byte	.LFB7
 1413 0014 22000000 		.4byte	.LFE7-.LFB7
 1414 0018 00000000 		.4byte	.LFB8
 1415 001c 2C000000 		.4byte	.LFE8-.LFB8
 1416 0020 00000000 		.4byte	.LFB9
 1417 0024 18000000 		.4byte	.LFE9-.LFB9
 1418 0028 00000000 		.4byte	0
 1419 002c 00000000 		.4byte	0
 1420              		.section	.debug_ranges,"",%progbits
 1421              	.Ldebug_ranges0:
ARM GAS  /tmp/cckyEQD0.s 			page 26


 1422 0000 0C000000 		.4byte	.LBB3
 1423 0004 12000000 		.4byte	.LBE3
 1424 0008 24000000 		.4byte	.LBB4
 1425 000c 2A000000 		.4byte	.LBE4
 1426 0010 00000000 		.4byte	0
 1427 0014 00000000 		.4byte	0
 1428 0018 00000000 		.4byte	.LFB7
 1429 001c 22000000 		.4byte	.LFE7
 1430 0020 00000000 		.4byte	.LFB8
 1431 0024 2C000000 		.4byte	.LFE8
 1432 0028 00000000 		.4byte	.LFB9
 1433 002c 18000000 		.4byte	.LFE9
 1434 0030 00000000 		.4byte	0
 1435 0034 00000000 		.4byte	0
 1436              		.section	.debug_line,"",%progbits
 1437              	.Ldebug_line0:
 1438 0000 73010000 		.section	.debug_str,"MS",%progbits,1
 1438      02002D01 
 1438      00000201 
 1438      FB0E0D00 
 1438      01010101 
 1439              	.LASF67:
 1440 0000 65745F69 		.ascii	"et_interval\000"
 1440      6E746572 
 1440      76616C00 
 1441              	.LASF33:
 1442 000c 705F6D73 		.ascii	"p_msg\000"
 1442      6700
 1443              	.LASF60:
 1444 0012 7264796D 		.ascii	"rdymsg\000"
 1444      736700
 1445              	.LASF11:
 1446 0019 6C6F6E67 		.ascii	"long long unsigned int\000"
 1446      206C6F6E 
 1446      6720756E 
 1446      7369676E 
 1446      65642069 
 1447              	.LASF61:
 1448 0030 65786974 		.ascii	"exitcode\000"
 1448      636F6465 
 1448      00
 1449              	.LASF73:
 1450 0039 65767453 		.ascii	"evtStart\000"
 1450      74617274 
 1450      00
 1451              	.LASF22:
 1452 0042 705F7072 		.ascii	"p_prio\000"
 1452      696F00
 1453              	.LASF10:
 1454 0049 6C6F6E67 		.ascii	"long long int\000"
 1454      206C6F6E 
 1454      6720696E 
 1454      7400
 1455              	.LASF1:
 1456 0057 7369676E 		.ascii	"signed char\000"
 1456      65642063 
 1456      68617200 
ARM GAS  /tmp/cckyEQD0.s 			page 27


 1457              	.LASF68:
 1458 0063 45765469 		.ascii	"EvTimer\000"
 1458      6D657200 
 1459              	.LASF37:
 1460 006b 705F6D70 		.ascii	"p_mpool\000"
 1460      6F6F6C00 
 1461              	.LASF51:
 1462 0073 6D5F7175 		.ascii	"m_queue\000"
 1462      65756500 
 1463              	.LASF7:
 1464 007b 6C6F6E67 		.ascii	"long int\000"
 1464      20696E74 
 1464      00
 1465              	.LASF13:
 1466 0084 74737461 		.ascii	"tstate_t\000"
 1466      74655F74 
 1466      00
 1467              	.LASF24:
 1468 008d 705F6E65 		.ascii	"p_newer\000"
 1468      77657200 
 1469              	.LASF40:
 1470 0095 72656761 		.ascii	"regarm_t\000"
 1470      726D5F74 
 1470      00
 1471              	.LASF46:
 1472 009e 76745F70 		.ascii	"vt_prev\000"
 1472      72657600 
 1473              	.LASF58:
 1474 00a6 4576656E 		.ascii	"EventSource\000"
 1474      74536F75 
 1474      72636500 
 1475              	.LASF0:
 1476 00b2 756E7369 		.ascii	"unsigned int\000"
 1476      676E6564 
 1476      20696E74 
 1476      00
 1477              	.LASF45:
 1478 00bf 76745F6E 		.ascii	"vt_next\000"
 1478      65787400 
 1479              	.LASF9:
 1480 00c7 6C6F6E67 		.ascii	"long unsigned int\000"
 1480      20756E73 
 1480      69676E65 
 1480      6420696E 
 1480      7400
 1481              	.LASF42:
 1482 00d9 636F6E74 		.ascii	"context\000"
 1482      65787400 
 1483              	.LASF4:
 1484 00e1 73686F72 		.ascii	"short unsigned int\000"
 1484      7420756E 
 1484      7369676E 
 1484      65642069 
 1484      6E7400
 1485              	.LASF16:
 1486 00f4 6D73675F 		.ascii	"msg_t\000"
 1486      7400
ARM GAS  /tmp/cckyEQD0.s 			page 28


 1487              	.LASF55:
 1488 00fa 656C5F6E 		.ascii	"el_next\000"
 1488      65787400 
 1489              	.LASF12:
 1490 0102 746D6F64 		.ascii	"tmode_t\000"
 1490      655F7400 
 1491              	.LASF39:
 1492 010a 54687265 		.ascii	"ThreadsList\000"
 1492      6164734C 
 1492      69737400 
 1493              	.LASF17:
 1494 0116 6576656E 		.ascii	"eventmask_t\000"
 1494      746D6173 
 1494      6B5F7400 
 1495              	.LASF50:
 1496 0122 4D757465 		.ascii	"Mutex\000"
 1496      7800
 1497              	.LASF47:
 1498 0128 76745F74 		.ascii	"vt_time\000"
 1498      696D6500 
 1499              	.LASF66:
 1500 0130 65745F65 		.ascii	"et_es\000"
 1500      7300
 1501              	.LASF48:
 1502 0136 76745F66 		.ascii	"vt_func\000"
 1502      756E6300 
 1503              	.LASF25:
 1504 013e 705F6F6C 		.ascii	"p_older\000"
 1504      64657200 
 1505              	.LASF38:
 1506 0146 54687265 		.ascii	"ThreadsQueue\000"
 1506      61647351 
 1506      75657565 
 1506      00
 1507              	.LASF57:
 1508 0153 656C5F6D 		.ascii	"el_mask\000"
 1508      61736B00 
 1509              	.LASF14:
 1510 015b 74726566 		.ascii	"trefs_t\000"
 1510      735F7400 
 1511              	.LASF21:
 1512 0163 705F7072 		.ascii	"p_prev\000"
 1512      657600
 1513              	.LASF15:
 1514 016a 74707269 		.ascii	"tprio_t\000"
 1514      6F5F7400 
 1515              	.LASF6:
 1516 0172 696E7433 		.ascii	"int32_t\000"
 1516      325F7400 
 1517              	.LASF2:
 1518 017a 756E7369 		.ascii	"unsigned char\000"
 1518      676E6564 
 1518      20636861 
 1518      7200
 1519              	.LASF56:
 1520 0188 656C5F6C 		.ascii	"el_listener\000"
 1520      69737465 
ARM GAS  /tmp/cckyEQD0.s 			page 29


 1520      6E657200 
 1521              	.LASF71:
 1522 0194 2F686F6D 		.ascii	"/home/johnny/Proyectos/movilbot/ChibiOS/iflab_code/"
 1522      652F6A6F 
 1522      686E6E79 
 1522      2F50726F 
 1522      79656374 
 1523 01c7 626C696E 		.ascii	"blink\000"
 1523      6B00
 1524              	.LASF35:
 1525 01cd 705F6D74 		.ascii	"p_mtxlist\000"
 1525      786C6973 
 1525      7400
 1526              	.LASF3:
 1527 01d7 73686F72 		.ascii	"short int\000"
 1527      7420696E 
 1527      7400
 1528              	.LASF27:
 1529 01e1 705F7374 		.ascii	"p_state\000"
 1529      61746500 
 1530              	.LASF63:
 1531 01e9 65776D61 		.ascii	"ewmask\000"
 1531      736B00
 1532              	.LASF20:
 1533 01f0 705F6E65 		.ascii	"p_next\000"
 1533      787400
 1534              	.LASF28:
 1535 01f7 705F666C 		.ascii	"p_flags\000"
 1535      61677300 
 1536              	.LASF19:
 1537 01ff 54687265 		.ascii	"Thread\000"
 1537      616400
 1538              	.LASF34:
 1539 0206 705F6570 		.ascii	"p_epending\000"
 1539      656E6469 
 1539      6E6700
 1540              	.LASF8:
 1541 0211 75696E74 		.ascii	"uint32_t\000"
 1541      33325F74 
 1541      00
 1542              	.LASF44:
 1543 021a 56697274 		.ascii	"VirtualTimer\000"
 1543      75616C54 
 1543      696D6572 
 1543      00
 1544              	.LASF69:
 1545 0227 474E5520 		.ascii	"GNU C 4.6.1\000"
 1545      4320342E 
 1545      362E3100 
 1546              	.LASF64:
 1547 0233 63686172 		.ascii	"char\000"
 1547      00
 1548              	.LASF72:
 1549 0238 746D7263 		.ascii	"tmrcb\000"
 1549      6200
 1550              	.LASF53:
 1551 023e 6D5F6E65 		.ascii	"m_next\000"
ARM GAS  /tmp/cckyEQD0.s 			page 30


 1551      787400
 1552              	.LASF18:
 1553 0245 73797374 		.ascii	"systime_t\000"
 1553      696D655F 
 1553      7400
 1554              	.LASF36:
 1555 024f 705F7265 		.ascii	"p_realprio\000"
 1555      616C7072 
 1555      696F00
 1556              	.LASF43:
 1557 025a 76746675 		.ascii	"vtfunc_t\000"
 1557      6E635F74 
 1557      00
 1558              	.LASF74:
 1559 0263 65767453 		.ascii	"evtStop\000"
 1559      746F7000 
 1560              	.LASF30:
 1561 026b 705F7469 		.ascii	"p_time\000"
 1561      6D6500
 1562              	.LASF41:
 1563 0272 696E7463 		.ascii	"intctx\000"
 1563      747800
 1564              	.LASF32:
 1565 0279 705F6D73 		.ascii	"p_msgqueue\000"
 1565      67717565 
 1565      756500
 1566              	.LASF49:
 1567 0284 76745F70 		.ascii	"vt_par\000"
 1567      617200
 1568              	.LASF29:
 1569 028b 705F7265 		.ascii	"p_refs\000"
 1569      667300
 1570              	.LASF5:
 1571 0292 75696E74 		.ascii	"uint8_t\000"
 1571      385F7400 
 1572              	.LASF54:
 1573 029a 4576656E 		.ascii	"EventListener\000"
 1573      744C6973 
 1573      74656E65 
 1573      7200
 1574              	.LASF62:
 1575 02a8 77746F62 		.ascii	"wtobjp\000"
 1575      6A7000
 1576              	.LASF26:
 1577 02af 705F6E61 		.ascii	"p_name\000"
 1577      6D6500
 1578              	.LASF59:
 1579 02b6 65735F6E 		.ascii	"es_next\000"
 1579      65787400 
 1580              	.LASF65:
 1581 02be 65745F76 		.ascii	"et_vt\000"
 1581      7400
 1582              	.LASF52:
 1583 02c4 6D5F6F77 		.ascii	"m_owner\000"
 1583      6E657200 
 1584              	.LASF23:
 1585 02cc 705F6374 		.ascii	"p_ctx\000"
ARM GAS  /tmp/cckyEQD0.s 			page 31


 1585      7800
 1586              	.LASF31:
 1587 02d2 705F7761 		.ascii	"p_waiting\000"
 1587      6974696E 
 1587      6700
 1588              	.LASF70:
 1589 02dc 2E2E2F2E 		.ascii	"../../os/various/evtimer.c\000"
 1589      2E2F6F73 
 1589      2F766172 
 1589      696F7573 
 1589      2F657674 
 1590              		.ident	"GCC: (Sourcery CodeBench Lite 2011.09-69) 4.6.1"
ARM GAS  /tmp/cckyEQD0.s 			page 32


DEFINED SYMBOLS
                            *ABS*:00000000 evtimer.c
     /tmp/cckyEQD0.s:19     .text.tmrcb:00000000 $t
     /tmp/cckyEQD0.s:24     .text.tmrcb:00000000 tmrcb
     /tmp/cckyEQD0.s:60     .text.evtStart:00000000 $t
     /tmp/cckyEQD0.s:66     .text.evtStart:00000000 evtStart
     /tmp/cckyEQD0.s:128    .text.evtStop:00000000 $t
     /tmp/cckyEQD0.s:134    .text.evtStop:00000000 evtStop
                     .debug_frame:00000010 $d

UNDEFINED SYMBOLS
chEvtBroadcastFlagsI
chVTSetI
chVTResetI
