ARM GAS  /tmp/cctGBxqs.s 			page 1


   1              		.syntax unified
   2              		.cpu cortex-m3
   3              		.fpu softvfp
   4              		.eabi_attribute 20, 1
   5              		.eabi_attribute 21, 1
   6              		.eabi_attribute 23, 3
   7              		.eabi_attribute 24, 1
   8              		.eabi_attribute 25, 1
   9              		.eabi_attribute 26, 1
  10              		.eabi_attribute 30, 2
  11              		.eabi_attribute 34, 1
  12              		.eabi_attribute 18, 4
  13              		.thumb
  14              		.file	"hal_lld.c"
  15              		.text
  16              	.Ltext0:
  17              		.cfi_sections	.debug_frame
  18              		.section	.text.hal_lld_init,"ax",%progbits
  19              		.align	2
  20              		.p2align 4,,15
  21              		.global	hal_lld_init
  22              		.thumb
  23              		.thumb_func
  24              		.type	hal_lld_init, %function
  25              	hal_lld_init:
  26              	.LFB36:
  27              		.file 1 "../../os/hal/platforms/AT91SAM3/hal_lld.c"
  28              		.loc 1 66 0
  29              		.cfi_startproc
  30              		@ args = 0, pretend = 0, frame = 0
  31              		@ frame_needed = 0, uses_anonymous_args = 0
  32 0000 08B5     		push	{r3, lr}
  33              	.LCFI0:
  34              		.cfi_def_cfa_offset 8
  35              		.cfi_offset 14, -4
  36              		.cfi_offset 3, -8
  37              		.loc 1 68 0
  38 0002 FFF7FEFF 		bl	SystemCoreClockUpdate
  39              		.loc 1 71 0
  40 0006 0B20     		movs	r0, #11
  41 0008 0821     		movs	r1, #8
  42 000a FFF7FEFF 		bl	nvicSetSystemHandlerPriority
  43              		.loc 1 72 0
  44 000e 40F20003 		movw	r3, #:lower16:SystemCoreClock
  45 0012 C0F20003 		movt	r3, #:upper16:SystemCoreClock
  46 0016 1968     		ldr	r1, [r3, #0]
  47 0018 44F6D35C 		movw	ip, #19923
  48 001c C1F2620C 		movt	ip, 4194
  49 0020 ACFB0110 		umull	r1, r0, ip, r1
  50 0024 4EF21003 		movw	r3, #57360
  51 0028 8209     		lsrs	r2, r0, #6
  52 002a CEF20003 		movt	r3, 57344
  53 002e 511E     		subs	r1, r2, #1
  54              		.loc 1 73 0
  55 0030 0020     		movs	r0, #0
  56              		.loc 1 74 0
  57 0032 0722     		movs	r2, #7
ARM GAS  /tmp/cctGBxqs.s 			page 2


  58              		.loc 1 72 0
  59 0034 5960     		str	r1, [r3, #4]
  60              		.loc 1 73 0
  61 0036 9860     		str	r0, [r3, #8]
  62              		.loc 1 74 0
  63 0038 1A60     		str	r2, [r3, #0]
  64              		.loc 1 77 0
  65 003a 08BD     		pop	{r3, pc}
  66              		.cfi_endproc
  67              	.LFE36:
  68              		.size	hal_lld_init, .-hal_lld_init
  69 003c AFF30080 		.section	.text.at91sam3_clock_init,"ax",%progbits
  70              		.align	2
  71              		.p2align 4,,15
  72              		.global	at91sam3_clock_init
  73              		.thumb
  74              		.thumb_func
  75              		.type	at91sam3_clock_init, %function
  76              	at91sam3_clock_init:
  77              	.LFB37:
  78              		.loc 1 92 0
  79              		.cfi_startproc
  80              		@ args = 0, pretend = 0, frame = 0
  81              		@ frame_needed = 0, uses_anonymous_args = 0
  82              		@ link register save eliminated.
  83              		.loc 1 94 0
  84              		.loc 1 93 0
  85 0000 FFF7FEBF 		b	SystemInit
  86              		.cfi_endproc
  87              	.LFE37:
  88              		.size	at91sam3_clock_init, .-at91sam3_clock_init
  89 0004 AFF30080 		.text
  89      AFF30080 
  89      AFF30080 
  90              	.Letext0:
  91              		.file 2 "../../os/hal/platforms/AT91SAM3/core_cm3.h"
  92              		.file 3 "/opt/arm-2011q3/bin/../lib/gcc/arm-none-eabi/4.6.1/../../../../arm-none-eabi/include/stdi
  93              		.file 4 "../../os/hal/platforms/AT91SAM3/system_SAM3.h"
  94              		.section	.debug_info,"",%progbits
  95              	.Ldebug_info0:
  96 0000 3E010000 		.4byte	0x13e
  97 0004 0200     		.2byte	0x2
  98 0006 00000000 		.4byte	.Ldebug_abbrev0
  99 000a 04       		.byte	0x4
 100 000b 01       		.uleb128 0x1
 101 000c EB000000 		.4byte	.LASF19
 102 0010 01       		.byte	0x1
 103 0011 34000000 		.4byte	.LASF20
 104 0015 19010000 		.4byte	.LASF21
 105 0019 00000000 		.4byte	0
 106 001d 00000000 		.4byte	0
 107 0021 00000000 		.4byte	.Ldebug_ranges0+0
 108 0025 00000000 		.4byte	.Ldebug_line0
 109 0029 02       		.uleb128 0x2
 110 002a 04       		.byte	0x4
 111 002b 05       		.byte	0x5
 112 002c 696E7400 		.ascii	"int\000"
ARM GAS  /tmp/cctGBxqs.s 			page 3


 113 0030 03       		.uleb128 0x3
 114 0031 04       		.byte	0x4
 115 0032 07       		.byte	0x7
 116 0033 21000000 		.4byte	.LASF0
 117 0037 03       		.uleb128 0x3
 118 0038 01       		.byte	0x1
 119 0039 06       		.byte	0x6
 120 003a 0D010000 		.4byte	.LASF1
 121 003e 03       		.uleb128 0x3
 122 003f 01       		.byte	0x1
 123 0040 08       		.byte	0x8
 124 0041 BF000000 		.4byte	.LASF2
 125 0045 03       		.uleb128 0x3
 126 0046 02       		.byte	0x2
 127 0047 05       		.byte	0x5
 128 0048 52010000 		.4byte	.LASF3
 129 004c 03       		.uleb128 0x3
 130 004d 02       		.byte	0x2
 131 004e 07       		.byte	0x7
 132 004f 0E000000 		.4byte	.LASF4
 133 0053 03       		.uleb128 0x3
 134 0054 04       		.byte	0x4
 135 0055 05       		.byte	0x5
 136 0056 F7000000 		.4byte	.LASF5
 137 005a 04       		.uleb128 0x4
 138 005b D2000000 		.4byte	.LASF13
 139 005f 03       		.byte	0x3
 140 0060 50       		.byte	0x50
 141 0061 65000000 		.4byte	0x65
 142 0065 03       		.uleb128 0x3
 143 0066 04       		.byte	0x4
 144 0067 07       		.byte	0x7
 145 0068 5E000000 		.4byte	.LASF6
 146 006c 03       		.uleb128 0x3
 147 006d 08       		.byte	0x8
 148 006e 05       		.byte	0x5
 149 006f 00000000 		.4byte	.LASF7
 150 0073 03       		.uleb128 0x3
 151 0074 08       		.byte	0x8
 152 0075 07       		.byte	0x7
 153 0076 75000000 		.4byte	.LASF8
 154 007a 05       		.uleb128 0x5
 155 007b 5A000000 		.4byte	0x5a
 156 007f 03       		.uleb128 0x3
 157 0080 01       		.byte	0x1
 158 0081 08       		.byte	0x8
 159 0082 CD000000 		.4byte	.LASF9
 160 0086 06       		.uleb128 0x6
 161 0087 7A000000 		.4byte	0x7a
 162 008b 07       		.uleb128 0x7
 163 008c 10       		.byte	0x10
 164 008d 02       		.byte	0x2
 165 008e 6D01     		.2byte	0x16d
 166 0090 D1000000 		.4byte	0xd1
 167 0094 08       		.uleb128 0x8
 168 0095 70000000 		.4byte	.LASF10
 169 0099 02       		.byte	0x2
ARM GAS  /tmp/cctGBxqs.s 			page 4


 170 009a 6F01     		.2byte	0x16f
 171 009c 7A000000 		.4byte	0x7a
 172 00a0 02       		.byte	0x2
 173 00a1 23       		.byte	0x23
 174 00a2 00       		.uleb128 0
 175 00a3 08       		.uleb128 0x8
 176 00a4 AD000000 		.4byte	.LASF11
 177 00a8 02       		.byte	0x2
 178 00a9 7001     		.2byte	0x170
 179 00ab 7A000000 		.4byte	0x7a
 180 00af 02       		.byte	0x2
 181 00b0 23       		.byte	0x23
 182 00b1 04       		.uleb128 0x4
 183 00b2 09       		.uleb128 0x9
 184 00b3 56414C00 		.ascii	"VAL\000"
 185 00b7 02       		.byte	0x2
 186 00b8 7101     		.2byte	0x171
 187 00ba 7A000000 		.4byte	0x7a
 188 00be 02       		.byte	0x2
 189 00bf 23       		.byte	0x23
 190 00c0 08       		.uleb128 0x8
 191 00c1 08       		.uleb128 0x8
 192 00c2 2E000000 		.4byte	.LASF12
 193 00c6 02       		.byte	0x2
 194 00c7 7201     		.2byte	0x172
 195 00c9 86000000 		.4byte	0x86
 196 00cd 02       		.byte	0x2
 197 00ce 23       		.byte	0x23
 198 00cf 0C       		.uleb128 0xc
 199 00d0 00       		.byte	0
 200 00d1 0A       		.uleb128 0xa
 201 00d2 B2000000 		.4byte	.LASF14
 202 00d6 02       		.byte	0x2
 203 00d7 7301     		.2byte	0x173
 204 00d9 8B000000 		.4byte	0x8b
 205 00dd 0B       		.uleb128 0xb
 206 00de 01       		.byte	0x1
 207 00df A0000000 		.4byte	.LASF15
 208 00e3 01       		.byte	0x1
 209 00e4 41       		.byte	0x41
 210 00e5 01       		.byte	0x1
 211 00e6 00000000 		.4byte	.LFB36
 212 00ea 3C000000 		.4byte	.LFE36
 213 00ee 00000000 		.4byte	.LLST0
 214 00f2 0C       		.uleb128 0xc
 215 00f3 01       		.byte	0x1
 216 00f4 8C000000 		.4byte	.LASF16
 217 00f8 01       		.byte	0x1
 218 00f9 5B       		.byte	0x5b
 219 00fa 01       		.byte	0x1
 220 00fb 00000000 		.4byte	.LFB37
 221 00ff 04000000 		.4byte	.LFE37
 222 0103 02       		.byte	0x2
 223 0104 7D       		.byte	0x7d
 224 0105 00       		.sleb128 0
 225 0106 0D       		.uleb128 0xd
 226 0107 00010000 		.4byte	.LASF17
ARM GAS  /tmp/cctGBxqs.s 			page 5


 227 010b 02       		.byte	0x2
 228 010c CE06     		.2byte	0x6ce
 229 010e 14010000 		.4byte	0x114
 230 0112 01       		.byte	0x1
 231 0113 01       		.byte	0x1
 232 0114 05       		.uleb128 0x5
 233 0115 29000000 		.4byte	0x29
 234 0119 0E       		.uleb128 0xe
 235 011a DB000000 		.4byte	.LASF18
 236 011e 04       		.byte	0x4
 237 011f 21       		.byte	0x21
 238 0120 5A000000 		.4byte	0x5a
 239 0124 01       		.byte	0x1
 240 0125 01       		.byte	0x1
 241 0126 0D       		.uleb128 0xd
 242 0127 00010000 		.4byte	.LASF17
 243 012b 02       		.byte	0x2
 244 012c CE06     		.2byte	0x6ce
 245 012e 14010000 		.4byte	0x114
 246 0132 01       		.byte	0x1
 247 0133 01       		.byte	0x1
 248 0134 0E       		.uleb128 0xe
 249 0135 DB000000 		.4byte	.LASF18
 250 0139 04       		.byte	0x4
 251 013a 21       		.byte	0x21
 252 013b 5A000000 		.4byte	0x5a
 253 013f 01       		.byte	0x1
 254 0140 01       		.byte	0x1
 255 0141 00       		.byte	0
 256              		.section	.debug_abbrev,"",%progbits
 257              	.Ldebug_abbrev0:
 258 0000 01       		.uleb128 0x1
 259 0001 11       		.uleb128 0x11
 260 0002 01       		.byte	0x1
 261 0003 25       		.uleb128 0x25
 262 0004 0E       		.uleb128 0xe
 263 0005 13       		.uleb128 0x13
 264 0006 0B       		.uleb128 0xb
 265 0007 03       		.uleb128 0x3
 266 0008 0E       		.uleb128 0xe
 267 0009 1B       		.uleb128 0x1b
 268 000a 0E       		.uleb128 0xe
 269 000b 11       		.uleb128 0x11
 270 000c 01       		.uleb128 0x1
 271 000d 52       		.uleb128 0x52
 272 000e 01       		.uleb128 0x1
 273 000f 55       		.uleb128 0x55
 274 0010 06       		.uleb128 0x6
 275 0011 10       		.uleb128 0x10
 276 0012 06       		.uleb128 0x6
 277 0013 00       		.byte	0
 278 0014 00       		.byte	0
 279 0015 02       		.uleb128 0x2
 280 0016 24       		.uleb128 0x24
 281 0017 00       		.byte	0
 282 0018 0B       		.uleb128 0xb
 283 0019 0B       		.uleb128 0xb
ARM GAS  /tmp/cctGBxqs.s 			page 6


 284 001a 3E       		.uleb128 0x3e
 285 001b 0B       		.uleb128 0xb
 286 001c 03       		.uleb128 0x3
 287 001d 08       		.uleb128 0x8
 288 001e 00       		.byte	0
 289 001f 00       		.byte	0
 290 0020 03       		.uleb128 0x3
 291 0021 24       		.uleb128 0x24
 292 0022 00       		.byte	0
 293 0023 0B       		.uleb128 0xb
 294 0024 0B       		.uleb128 0xb
 295 0025 3E       		.uleb128 0x3e
 296 0026 0B       		.uleb128 0xb
 297 0027 03       		.uleb128 0x3
 298 0028 0E       		.uleb128 0xe
 299 0029 00       		.byte	0
 300 002a 00       		.byte	0
 301 002b 04       		.uleb128 0x4
 302 002c 16       		.uleb128 0x16
 303 002d 00       		.byte	0
 304 002e 03       		.uleb128 0x3
 305 002f 0E       		.uleb128 0xe
 306 0030 3A       		.uleb128 0x3a
 307 0031 0B       		.uleb128 0xb
 308 0032 3B       		.uleb128 0x3b
 309 0033 0B       		.uleb128 0xb
 310 0034 49       		.uleb128 0x49
 311 0035 13       		.uleb128 0x13
 312 0036 00       		.byte	0
 313 0037 00       		.byte	0
 314 0038 05       		.uleb128 0x5
 315 0039 35       		.uleb128 0x35
 316 003a 00       		.byte	0
 317 003b 49       		.uleb128 0x49
 318 003c 13       		.uleb128 0x13
 319 003d 00       		.byte	0
 320 003e 00       		.byte	0
 321 003f 06       		.uleb128 0x6
 322 0040 26       		.uleb128 0x26
 323 0041 00       		.byte	0
 324 0042 49       		.uleb128 0x49
 325 0043 13       		.uleb128 0x13
 326 0044 00       		.byte	0
 327 0045 00       		.byte	0
 328 0046 07       		.uleb128 0x7
 329 0047 13       		.uleb128 0x13
 330 0048 01       		.byte	0x1
 331 0049 0B       		.uleb128 0xb
 332 004a 0B       		.uleb128 0xb
 333 004b 3A       		.uleb128 0x3a
 334 004c 0B       		.uleb128 0xb
 335 004d 3B       		.uleb128 0x3b
 336 004e 05       		.uleb128 0x5
 337 004f 01       		.uleb128 0x1
 338 0050 13       		.uleb128 0x13
 339 0051 00       		.byte	0
 340 0052 00       		.byte	0
ARM GAS  /tmp/cctGBxqs.s 			page 7


 341 0053 08       		.uleb128 0x8
 342 0054 0D       		.uleb128 0xd
 343 0055 00       		.byte	0
 344 0056 03       		.uleb128 0x3
 345 0057 0E       		.uleb128 0xe
 346 0058 3A       		.uleb128 0x3a
 347 0059 0B       		.uleb128 0xb
 348 005a 3B       		.uleb128 0x3b
 349 005b 05       		.uleb128 0x5
 350 005c 49       		.uleb128 0x49
 351 005d 13       		.uleb128 0x13
 352 005e 38       		.uleb128 0x38
 353 005f 0A       		.uleb128 0xa
 354 0060 00       		.byte	0
 355 0061 00       		.byte	0
 356 0062 09       		.uleb128 0x9
 357 0063 0D       		.uleb128 0xd
 358 0064 00       		.byte	0
 359 0065 03       		.uleb128 0x3
 360 0066 08       		.uleb128 0x8
 361 0067 3A       		.uleb128 0x3a
 362 0068 0B       		.uleb128 0xb
 363 0069 3B       		.uleb128 0x3b
 364 006a 05       		.uleb128 0x5
 365 006b 49       		.uleb128 0x49
 366 006c 13       		.uleb128 0x13
 367 006d 38       		.uleb128 0x38
 368 006e 0A       		.uleb128 0xa
 369 006f 00       		.byte	0
 370 0070 00       		.byte	0
 371 0071 0A       		.uleb128 0xa
 372 0072 16       		.uleb128 0x16
 373 0073 00       		.byte	0
 374 0074 03       		.uleb128 0x3
 375 0075 0E       		.uleb128 0xe
 376 0076 3A       		.uleb128 0x3a
 377 0077 0B       		.uleb128 0xb
 378 0078 3B       		.uleb128 0x3b
 379 0079 05       		.uleb128 0x5
 380 007a 49       		.uleb128 0x49
 381 007b 13       		.uleb128 0x13
 382 007c 00       		.byte	0
 383 007d 00       		.byte	0
 384 007e 0B       		.uleb128 0xb
 385 007f 2E       		.uleb128 0x2e
 386 0080 00       		.byte	0
 387 0081 3F       		.uleb128 0x3f
 388 0082 0C       		.uleb128 0xc
 389 0083 03       		.uleb128 0x3
 390 0084 0E       		.uleb128 0xe
 391 0085 3A       		.uleb128 0x3a
 392 0086 0B       		.uleb128 0xb
 393 0087 3B       		.uleb128 0x3b
 394 0088 0B       		.uleb128 0xb
 395 0089 27       		.uleb128 0x27
 396 008a 0C       		.uleb128 0xc
 397 008b 11       		.uleb128 0x11
ARM GAS  /tmp/cctGBxqs.s 			page 8


 398 008c 01       		.uleb128 0x1
 399 008d 12       		.uleb128 0x12
 400 008e 01       		.uleb128 0x1
 401 008f 40       		.uleb128 0x40
 402 0090 06       		.uleb128 0x6
 403 0091 00       		.byte	0
 404 0092 00       		.byte	0
 405 0093 0C       		.uleb128 0xc
 406 0094 2E       		.uleb128 0x2e
 407 0095 00       		.byte	0
 408 0096 3F       		.uleb128 0x3f
 409 0097 0C       		.uleb128 0xc
 410 0098 03       		.uleb128 0x3
 411 0099 0E       		.uleb128 0xe
 412 009a 3A       		.uleb128 0x3a
 413 009b 0B       		.uleb128 0xb
 414 009c 3B       		.uleb128 0x3b
 415 009d 0B       		.uleb128 0xb
 416 009e 27       		.uleb128 0x27
 417 009f 0C       		.uleb128 0xc
 418 00a0 11       		.uleb128 0x11
 419 00a1 01       		.uleb128 0x1
 420 00a2 12       		.uleb128 0x12
 421 00a3 01       		.uleb128 0x1
 422 00a4 40       		.uleb128 0x40
 423 00a5 0A       		.uleb128 0xa
 424 00a6 00       		.byte	0
 425 00a7 00       		.byte	0
 426 00a8 0D       		.uleb128 0xd
 427 00a9 34       		.uleb128 0x34
 428 00aa 00       		.byte	0
 429 00ab 03       		.uleb128 0x3
 430 00ac 0E       		.uleb128 0xe
 431 00ad 3A       		.uleb128 0x3a
 432 00ae 0B       		.uleb128 0xb
 433 00af 3B       		.uleb128 0x3b
 434 00b0 05       		.uleb128 0x5
 435 00b1 49       		.uleb128 0x49
 436 00b2 13       		.uleb128 0x13
 437 00b3 3F       		.uleb128 0x3f
 438 00b4 0C       		.uleb128 0xc
 439 00b5 3C       		.uleb128 0x3c
 440 00b6 0C       		.uleb128 0xc
 441 00b7 00       		.byte	0
 442 00b8 00       		.byte	0
 443 00b9 0E       		.uleb128 0xe
 444 00ba 34       		.uleb128 0x34
 445 00bb 00       		.byte	0
 446 00bc 03       		.uleb128 0x3
 447 00bd 0E       		.uleb128 0xe
 448 00be 3A       		.uleb128 0x3a
 449 00bf 0B       		.uleb128 0xb
 450 00c0 3B       		.uleb128 0x3b
 451 00c1 0B       		.uleb128 0xb
 452 00c2 49       		.uleb128 0x49
 453 00c3 13       		.uleb128 0x13
 454 00c4 3F       		.uleb128 0x3f
ARM GAS  /tmp/cctGBxqs.s 			page 9


 455 00c5 0C       		.uleb128 0xc
 456 00c6 3C       		.uleb128 0x3c
 457 00c7 0C       		.uleb128 0xc
 458 00c8 00       		.byte	0
 459 00c9 00       		.byte	0
 460 00ca 00       		.byte	0
 461              		.section	.debug_loc,"",%progbits
 462              	.Ldebug_loc0:
 463              	.LLST0:
 464 0000 00000000 		.4byte	.LFB36
 465 0004 02000000 		.4byte	.LCFI0
 466 0008 0200     		.2byte	0x2
 467 000a 7D       		.byte	0x7d
 468 000b 00       		.sleb128 0
 469 000c 02000000 		.4byte	.LCFI0
 470 0010 3C000000 		.4byte	.LFE36
 471 0014 0200     		.2byte	0x2
 472 0016 7D       		.byte	0x7d
 473 0017 08       		.sleb128 8
 474 0018 00000000 		.4byte	0
 475 001c 00000000 		.4byte	0
 476              		.section	.debug_aranges,"",%progbits
 477 0000 24000000 		.4byte	0x24
 478 0004 0200     		.2byte	0x2
 479 0006 00000000 		.4byte	.Ldebug_info0
 480 000a 04       		.byte	0x4
 481 000b 00       		.byte	0
 482 000c 0000     		.2byte	0
 483 000e 0000     		.2byte	0
 484 0010 00000000 		.4byte	.LFB36
 485 0014 3C000000 		.4byte	.LFE36-.LFB36
 486 0018 00000000 		.4byte	.LFB37
 487 001c 04000000 		.4byte	.LFE37-.LFB37
 488 0020 00000000 		.4byte	0
 489 0024 00000000 		.4byte	0
 490              		.section	.debug_ranges,"",%progbits
 491              	.Ldebug_ranges0:
 492 0000 00000000 		.4byte	.LFB36
 493 0004 3C000000 		.4byte	.LFE36
 494 0008 00000000 		.4byte	.LFB37
 495 000c 04000000 		.4byte	.LFE37
 496 0010 00000000 		.4byte	0
 497 0014 00000000 		.4byte	0
 498              		.section	.debug_line,"",%progbits
 499              	.Ldebug_line0:
 500 0000 F2000000 		.section	.debug_str,"MS",%progbits,1
 500      0200C000 
 500      00000201 
 500      FB0E0D00 
 500      01010101 
 501              	.LASF7:
 502 0000 6C6F6E67 		.ascii	"long long int\000"
 502      206C6F6E 
 502      6720696E 
 502      7400
 503              	.LASF4:
 504 000e 73686F72 		.ascii	"short unsigned int\000"
ARM GAS  /tmp/cctGBxqs.s 			page 10


 504      7420756E 
 504      7369676E 
 504      65642069 
 504      6E7400
 505              	.LASF0:
 506 0021 756E7369 		.ascii	"unsigned int\000"
 506      676E6564 
 506      20696E74 
 506      00
 507              	.LASF12:
 508 002e 43414C49 		.ascii	"CALIB\000"
 508      4200
 509              	.LASF20:
 510 0034 2E2E2F2E 		.ascii	"../../os/hal/platforms/AT91SAM3/hal_lld.c\000"
 510      2E2F6F73 
 510      2F68616C 
 510      2F706C61 
 510      74666F72 
 511              	.LASF6:
 512 005e 6C6F6E67 		.ascii	"long unsigned int\000"
 512      20756E73 
 512      69676E65 
 512      6420696E 
 512      7400
 513              	.LASF10:
 514 0070 4354524C 		.ascii	"CTRL\000"
 514      00
 515              	.LASF8:
 516 0075 6C6F6E67 		.ascii	"long long unsigned int\000"
 516      206C6F6E 
 516      6720756E 
 516      7369676E 
 516      65642069 
 517              	.LASF16:
 518 008c 61743931 		.ascii	"at91sam3_clock_init\000"
 518      73616D33 
 518      5F636C6F 
 518      636B5F69 
 518      6E697400 
 519              	.LASF15:
 520 00a0 68616C5F 		.ascii	"hal_lld_init\000"
 520      6C6C645F 
 520      696E6974 
 520      00
 521              	.LASF11:
 522 00ad 4C4F4144 		.ascii	"LOAD\000"
 522      00
 523              	.LASF14:
 524 00b2 53797354 		.ascii	"SysTick_Type\000"
 524      69636B5F 
 524      54797065 
 524      00
 525              	.LASF2:
 526 00bf 756E7369 		.ascii	"unsigned char\000"
 526      676E6564 
 526      20636861 
 526      7200
ARM GAS  /tmp/cctGBxqs.s 			page 11


 527              	.LASF9:
 528 00cd 63686172 		.ascii	"char\000"
 528      00
 529              	.LASF13:
 530 00d2 75696E74 		.ascii	"uint32_t\000"
 530      33325F74 
 530      00
 531              	.LASF18:
 532 00db 53797374 		.ascii	"SystemCoreClock\000"
 532      656D436F 
 532      7265436C 
 532      6F636B00 
 533              	.LASF19:
 534 00eb 474E5520 		.ascii	"GNU C 4.6.1\000"
 534      4320342E 
 534      362E3100 
 535              	.LASF5:
 536 00f7 6C6F6E67 		.ascii	"long int\000"
 536      20696E74 
 536      00
 537              	.LASF17:
 538 0100 49544D5F 		.ascii	"ITM_RxBuffer\000"
 538      52784275 
 538      66666572 
 538      00
 539              	.LASF1:
 540 010d 7369676E 		.ascii	"signed char\000"
 540      65642063 
 540      68617200 
 541              	.LASF21:
 542 0119 2F686F6D 		.ascii	"/home/johnny/Proyectos/movilbot/ChibiOS/iflab_code/"
 542      652F6A6F 
 542      686E6E79 
 542      2F50726F 
 542      79656374 
 543 014c 626C696E 		.ascii	"blink\000"
 543      6B00
 544              	.LASF3:
 545 0152 73686F72 		.ascii	"short int\000"
 545      7420696E 
 545      7400
 546              		.ident	"GCC: (Sourcery CodeBench Lite 2011.09-69) 4.6.1"
ARM GAS  /tmp/cctGBxqs.s 			page 12


DEFINED SYMBOLS
                            *ABS*:00000000 hal_lld.c
     /tmp/cctGBxqs.s:19     .text.hal_lld_init:00000000 $t
     /tmp/cctGBxqs.s:25     .text.hal_lld_init:00000000 hal_lld_init
     /tmp/cctGBxqs.s:70     .text.at91sam3_clock_init:00000000 $t
     /tmp/cctGBxqs.s:76     .text.at91sam3_clock_init:00000000 at91sam3_clock_init
                     .debug_frame:00000010 $d

UNDEFINED SYMBOLS
SystemCoreClockUpdate
nvicSetSystemHandlerPriority
SystemCoreClock
SystemInit
