ARM GAS  /tmp/ccd8iXeH.s 			page 1


   1              		.syntax unified
   2              		.cpu cortex-m3
   3              		.fpu softvfp
   4              		.eabi_attribute 20, 1
   5              		.eabi_attribute 21, 1
   6              		.eabi_attribute 23, 3
   7              		.eabi_attribute 24, 1
   8              		.eabi_attribute 25, 1
   9              		.eabi_attribute 26, 1
  10              		.eabi_attribute 30, 2
  11              		.eabi_attribute 34, 1
  12              		.eabi_attribute 18, 4
  13              		.thumb
  14              		.file	"system_SAM3.c"
  15              		.text
  16              	.Ltext0:
  17              		.cfi_sections	.debug_frame
  18              		.section	.text.SystemCoreClockUpdate,"ax",%progbits
  19              		.align	2
  20              		.p2align 4,,15
  21              		.global	SystemCoreClockUpdate
  22              		.thumb
  23              		.thumb_func
  24              		.type	SystemCoreClockUpdate, %function
  25              	SystemCoreClockUpdate:
  26              	.LFB29:
  27              		.file 1 "../../os/hal/platforms/AT91SAM3/system_SAM3.c"
  28              		.loc 1 360 0
  29              		.cfi_startproc
  30              		@ args = 0, pretend = 0, frame = 0
  31              		@ frame_needed = 0, uses_anonymous_args = 0
  32              		@ link register save eliminated.
  33              		.loc 1 362 0
  34 0000 4FF48062 		mov	r2, #1024
  35 0004 C4F20E02 		movt	r2, 16398
  36 0008 136B     		ldr	r3, [r2, #48]
  37              		.loc 1 360 0
  38 000a 10B4     		push	{r4}
  39              	.LCFI0:
  40              		.cfi_def_cfa_offset 4
  41              		.cfi_offset 4, -4
  42              		.loc 1 362 0
  43 000c 03F00303 		and	r3, r3, #3
  44 0010 022B     		cmp	r3, #2
  45 0012 60D0     		beq	.L4
  46 0014 032B     		cmp	r3, #3
  47 0016 46D0     		beq	.L5
  48 0018 012B     		cmp	r3, #1
  49 001a 20D0     		beq	.L3
  50              		.loc 1 364 0
  51 001c 41F21042 		movw	r2, #5136
  52 0020 C4F20E02 		movt	r2, 16398
  53 0024 5169     		ldr	r1, [r2, #20]
  54              		.loc 1 365 0
  55 0026 40F20003 		movw	r3, #:lower16:.LANCHOR0
  56              		.loc 1 364 0
  57 002a 11F0800F 		tst	r1, #128
ARM GAS  /tmp/ccd8iXeH.s 			page 2


  58              		.loc 1 365 0
  59 002e 14BF     		ite	ne
  60 0030 4FF40040 		movne	r0, #32768
  61              		.loc 1 367 0
  62 0034 4FF4FA40 		moveq	r0, #32000
  63 0038 C0F20003 		movt	r3, #:upper16:.LANCHOR0
  64 003c 1860     		str	r0, [r3, #0]
  65              	.L7:
  66              		.loc 1 415 0
  67 003e 4FF48062 		mov	r2, #1024
  68 0042 C4F20E02 		movt	r2, 16398
  69 0046 116B     		ldr	r1, [r2, #48]
  70 0048 C1F30211 		ubfx	r1, r1, #4, #3
  71 004c 0729     		cmp	r1, #7
  72 004e 39D0     		beq	.L23
  73              	.L15:
  74              		.loc 1 418 0
  75 0050 116B     		ldr	r1, [r2, #48]
  76 0052 C1F30212 		ubfx	r2, r1, #4, #3
  77 0056 D040     		lsrs	r0, r0, r2
  78 0058 1860     		str	r0, [r3, #0]
  79              	.L1:
  80              		.loc 1 420 0
  81 005a 10BC     		pop	{r4}
  82 005c 7047     		bx	lr
  83              	.L3:
  84              		.loc 1 370 0
  85 005e 106A     		ldr	r0, [r2, #32]
  86              		.loc 1 371 0
  87 0060 40F20003 		movw	r3, #:lower16:.LANCHOR0
  88              		.loc 1 370 0
  89 0064 10F08070 		ands	r0, r0, #16777216
  90 0068 6BD1     		bne	.L24
  91              		.loc 1 373 0
  92 006a 4FF41061 		mov	r1, #2304
  93 006e C0F20003 		movt	r3, #:upper16:.LANCHOR0
  94 0072 C0F23D01 		movt	r1, 61
  95 0076 1960     		str	r1, [r3, #0]
  96              		.loc 1 374 0
  97 0078 126A     		ldr	r2, [r2, #32]
  98 007a C2F30112 		ubfx	r2, r2, #4, #2
  99 007e 022A     		cmp	r2, #2
 100              		.loc 1 381 0
 101 0080 02BF     		ittt	eq
 102 0082 4FF4D850 		moveq	r0, #6912
 103 0086 C0F2B700 		movteq	r0, 183
 104 008a 1860     		streq	r0, [r3, #0]
 105              		.loc 1 374 0
 106 008c D7D0     		beq	.L7
 107 008e 032A     		cmp	r2, #3
 108 0090 4CD0     		beq	.L21
 109 0092 012A     		cmp	r2, #1
 110              		.loc 1 378 0
 111 0094 02BF     		ittt	eq
 112 0096 4FF49050 		moveq	r0, #4608
 113 009a C0F27A00 		movteq	r0, 122
 114 009e 1860     		streq	r0, [r3, #0]
ARM GAS  /tmp/ccd8iXeH.s 			page 3


 115              		.loc 1 374 0
 116 00a0 CDD0     		beq	.L7
 117 00a2 0846     		mov	r0, r1
 118 00a4 CBE7     		b	.L7
 119              	.L5:
 120              		.loc 1 411 0
 121 00a6 40F20003 		movw	r3, #:lower16:.LANCHOR0
 122 00aa 0020     		movs	r0, #0
 123 00ac C0F20003 		movt	r3, #:upper16:.LANCHOR0
 124              		.loc 1 415 0
 125 00b0 4FF48062 		mov	r2, #1024
 126              		.loc 1 411 0
 127 00b4 1860     		str	r0, [r3, #0]
 128              		.loc 1 415 0
 129 00b6 C4F20E02 		movt	r2, 16398
 130 00ba 116B     		ldr	r1, [r2, #48]
 131 00bc C1F30211 		ubfx	r1, r1, #4, #3
 132 00c0 0729     		cmp	r1, #7
 133 00c2 C5D1     		bne	.L15
 134              	.L23:
 135              		.loc 1 416 0
 136 00c4 4AF6AB21 		movw	r1, #43691
 137 00c8 CAF6AA21 		movt	r1, 43690
 138 00cc A1FB0012 		umull	r1, r2, r1, r0
 139 00d0 5008     		lsrs	r0, r2, #1
 140 00d2 1860     		str	r0, [r3, #0]
 141 00d4 C1E7     		b	.L1
 142              	.L4:
 143              		.loc 1 390 0
 144 00d6 136A     		ldr	r3, [r2, #32]
 145 00d8 DB01     		lsls	r3, r3, #7
 146 00da 29D4     		bmi	.L18
 147              		.loc 1 393 0
 148 00dc 40F20003 		movw	r3, #:lower16:.LANCHOR0
 149 00e0 4FF41064 		mov	r4, #2304
 150 00e4 C0F20003 		movt	r3, #:upper16:.LANCHOR0
 151 00e8 C0F23D04 		movt	r4, 61
 152 00ec 1C60     		str	r4, [r3, #0]
 153              		.loc 1 394 0
 154 00ee 116A     		ldr	r1, [r2, #32]
 155 00f0 C1F30111 		ubfx	r1, r1, #4, #2
 156 00f4 0129     		cmp	r1, #1
 157              		.loc 1 399 0
 158 00f6 04BF     		itt	eq
 159 00f8 4FF49051 		moveq	r1, #4608
 160 00fc C0F27A01 		movteq	r1, 122
 161              		.loc 1 394 0
 162 0100 07D0     		beq	.L12
 163 0102 4FF4D85C 		mov	ip, #6912
 164 0106 C0F2B70C 		movt	ip, 183
 165 010a 0229     		cmp	r1, #2
 166 010c 0CBF     		ite	eq
 167 010e 6146     		moveq	r1, ip
 168 0110 2146     		movne	r1, r4
 169              	.L12:
 170              		.loc 1 407 0
 171 0112 4FF48062 		mov	r2, #1024
ARM GAS  /tmp/ccd8iXeH.s 			page 4


 172 0116 C4F20E02 		movt	r2, 16398
 173 011a 906A     		ldr	r0, [r2, #40]
 174              		.loc 1 408 0
 175 011c 926A     		ldr	r2, [r2, #40]
 176              		.loc 1 407 0
 177 011e C0F30A4C 		ubfx	ip, r0, #16, #11
 178 0122 0CFB0110 		mla	r0, ip, r1, r1
 179              		.loc 1 408 0
 180 0126 D2B2     		uxtb	r2, r2
 181 0128 B0FBF2F0 		udiv	r0, r0, r2
 182              	.L21:
 183 012c 1860     		str	r0, [r3, #0]
 184              		.loc 1 409 0
 185 012e 86E7     		b	.L7
 186              	.L18:
 187              		.loc 1 390 0
 188 0130 4FF4D851 		mov	r1, #6912
 189 0134 40F20003 		movw	r3, #:lower16:.LANCHOR0
 190 0138 C0F2B701 		movt	r1, 183
 191 013c C0F20003 		movt	r3, #:upper16:.LANCHOR0
 192 0140 E7E7     		b	.L12
 193              	.L24:
 194              		.loc 1 371 0
 195 0142 4FF4D850 		mov	r0, #6912
 196 0146 C0F2B700 		movt	r0, 183
 197 014a C0F20003 		movt	r3, #:upper16:.LANCHOR0
 198 014e 1860     		str	r0, [r3, #0]
 199 0150 75E7     		b	.L7
 200              		.cfi_endproc
 201              	.LFE29:
 202              		.size	SystemCoreClockUpdate, .-SystemCoreClockUpdate
 203 0152 00BFAFF3 		.section	.text.SystemInit,"ax",%progbits
 203      0080AFF3 
 203      0080AFF3 
 203      0080
 204              		.align	2
 205              		.p2align 4,,15
 206              		.global	SystemInit
 207              		.thumb
 208              		.thumb_func
 209              		.type	SystemInit, %function
 210              	SystemInit:
 211              	.LFB30:
 212              		.loc 1 432 0
 213              		.cfi_startproc
 214              		@ args = 0, pretend = 0, frame = 0
 215              		@ frame_needed = 0, uses_anonymous_args = 0
 216              		@ link register save eliminated.
 217              		.loc 1 434 0
 218 0000 4FF42062 		mov	r2, #2560
 219              		.loc 1 438 0
 220 0004 4FF48063 		mov	r3, #1024
 221 0008 4FF48640 		mov	r0, #17152
 222              		.loc 1 444 0
 223 000c 40F60901 		movw	r1, #2057
 224              		.loc 1 432 0
 225 0010 10B4     		push	{r4}
ARM GAS  /tmp/ccd8iXeH.s 			page 5


 226              	.LCFI1:
 227              		.cfi_def_cfa_offset 4
 228              		.cfi_offset 4, -4
 229              		.loc 1 438 0
 230 0012 C4F20E03 		movt	r3, 16398
 231              		.loc 1 434 0
 232 0016 C4F20E02 		movt	r2, 16398
 233              		.loc 1 438 0
 234 001a C5F24D00 		movt	r0, 20557
 235              		.loc 1 444 0
 236 001e C0F23711 		movt	r1, 311
 237              		.loc 1 434 0
 238 0022 4FF40074 		mov	r4, #512
 239 0026 1460     		str	r4, [r2, #0]
 240              		.loc 1 438 0
 241 0028 C3F8E400 		str	r0, [r3, #228]
 242              		.loc 1 446 0
 243 002c 1A46     		mov	r2, r3
 244              		.loc 1 444 0
 245 002e 1962     		str	r1, [r3, #32]
 246              	.L26:
 247              		.loc 1 446 0 discriminator 1
 248 0030 916E     		ldr	r1, [r2, #104]
 249 0032 8B03     		lsls	r3, r1, #14
 250 0034 FCD5     		bpl	.L26
 251              		.loc 1 449 0 discriminator 1
 252 0036 4FF48061 		mov	r1, #1024
 253 003a C4F20E01 		movt	r1, 16398
 254              	.L31:
 255 003e 886E     		ldr	r0, [r1, #104]
 256 0040 4FF48063 		mov	r3, #1024
 257 0044 C007     		lsls	r0, r0, #31
 258 0046 C4F20E03 		movt	r3, 16398
 259 004a F8D5     		bpl	.L31
 260              		.loc 1 454 0
 261 004c 48F20162 		movw	r2, #34305
 262 0050 C2F20F02 		movt	r2, 8207
 263 0054 9A62     		str	r2, [r3, #40]
 264              		.loc 1 455 0
 265 0056 1946     		mov	r1, r3
 266              	.L28:
 267              		.loc 1 455 0 is_stmt 0 discriminator 1
 268 0058 886E     		ldr	r0, [r1, #104]
 269 005a 4FF48063 		mov	r3, #1024
 270 005e 8207     		lsls	r2, r0, #30
 271 0060 C4F20E03 		movt	r3, 16398
 272 0064 F8D5     		bpl	.L28
 273              		.loc 1 460 0 is_stmt 1
 274 0066 1A6B     		ldr	r2, [r3, #48]
 275              		.loc 1 465 0
 276 0068 1946     		mov	r1, r3
 277              		.loc 1 460 0
 278 006a 22F07000 		bic	r0, r2, #112
 279 006e 40F02002 		orr	r2, r0, #32
 280 0072 1A63     		str	r2, [r3, #48]
 281              	.L29:
 282              		.loc 1 465 0 discriminator 1
ARM GAS  /tmp/ccd8iXeH.s 			page 6


 283 0074 886E     		ldr	r0, [r1, #104]
 284 0076 4FF48063 		mov	r3, #1024
 285 007a 0007     		lsls	r0, r0, #28
 286 007c C4F20E03 		movt	r3, 16398
 287 0080 F8D5     		bpl	.L29
 288              		.loc 1 466 0
 289 0082 2221     		movs	r1, #34
 290 0084 1963     		str	r1, [r3, #48]
 291              		.loc 1 467 0
 292 0086 1946     		mov	r1, r3
 293              	.L30:
 294              		.loc 1 467 0 is_stmt 0 discriminator 1
 295 0088 8A6E     		ldr	r2, [r1, #104]
 296 008a 4FF48063 		mov	r3, #1024
 297 008e 1207     		lsls	r2, r2, #28
 298 0090 C4F20E03 		movt	r3, 16398
 299 0094 F8D5     		bpl	.L30
 300              		.loc 1 487 0 is_stmt 1
 301 0096 44F20131 		movw	r1, #17153
 302              		.loc 1 491 0
 303 009a 41F2504C 		movw	ip, #5200
 304              		.loc 1 487 0
 305 009e C5F24D01 		movt	r1, 20557
 306              		.loc 1 482 0
 307 00a2 0022     		movs	r2, #0
 308              		.loc 1 483 0
 309 00a4 4FF4E050 		mov	r0, #7168
 310              		.loc 1 482 0
 311 00a8 1A60     		str	r2, [r3, #0]
 312              		.loc 1 491 0
 313 00aa C4F20E0C 		movt	ip, 16398
 314              		.loc 1 483 0
 315 00ae 1861     		str	r0, [r3, #16]
 316              		.loc 1 487 0
 317 00b0 C3F8E410 		str	r1, [r3, #228]
 318              		.loc 1 491 0
 319 00b4 4FF40043 		mov	r3, #32768
 320 00b8 CCF80430 		str	r3, [ip, #4]
 321              		.loc 1 499 0
 322 00bc 10BC     		pop	{r4}
 323 00be 7047     		bx	lr
 324              		.cfi_endproc
 325              	.LFE30:
 326              		.size	SystemInit, .-SystemInit
 327              		.global	SystemCoreClock
 328              		.section	.data.SystemCoreClock,"aw",%progbits
 329              		.align	2
 330              		.set	.LANCHOR0,. + 0
 331              		.type	SystemCoreClock, %object
 332              		.size	SystemCoreClock, 4
 333              	SystemCoreClock:
 334 0000 006CDC02 		.word	48000000
 335              		.text
 336              	.Letext0:
 337              		.file 2 "../../os/hal/platforms/AT91SAM3/at91lib/SAM3N.h"
 338              		.file 3 "/opt/arm-2011q3/bin/../lib/gcc/arm-none-eabi/4.6.1/../../../../arm-none-eabi/include/stdi
 339              		.file 4 "../../os/hal/platforms/AT91SAM3/core_cm3.h"
ARM GAS  /tmp/ccd8iXeH.s 			page 7


 340              		.file 5 "../../os/hal/platforms/AT91SAM3/system_SAM3.h"
 341              		.section	.debug_info,"",%progbits
 342              	.Ldebug_info0:
 343 0000 2A040000 		.4byte	0x42a
 344 0004 0200     		.2byte	0x2
 345 0006 00000000 		.4byte	.Ldebug_abbrev0
 346 000a 04       		.byte	0x4
 347 000b 01       		.uleb128 0x1
 348 000c FF010000 		.4byte	.LASF56
 349 0010 01       		.byte	0x1
 350 0011 71020000 		.4byte	.LASF57
 351 0015 50000000 		.4byte	.LASF58
 352 0019 00000000 		.4byte	0
 353 001d 00000000 		.4byte	0
 354 0021 00000000 		.4byte	.Ldebug_ranges0+0
 355 0025 00000000 		.4byte	.Ldebug_line0
 356 0029 02       		.uleb128 0x2
 357 002a 01       		.byte	0x1
 358 002b 06       		.byte	0x6
 359 002c 65020000 		.4byte	.LASF0
 360 0030 02       		.uleb128 0x2
 361 0031 01       		.byte	0x1
 362 0032 08       		.byte	0x8
 363 0033 C2000000 		.4byte	.LASF1
 364 0037 02       		.uleb128 0x2
 365 0038 02       		.byte	0x2
 366 0039 05       		.byte	0x5
 367 003a 0B020000 		.4byte	.LASF2
 368 003e 02       		.uleb128 0x2
 369 003f 02       		.byte	0x2
 370 0040 07       		.byte	0x7
 371 0041 F3000000 		.4byte	.LASF3
 372 0045 02       		.uleb128 0x2
 373 0046 04       		.byte	0x4
 374 0047 05       		.byte	0x5
 375 0048 49020000 		.4byte	.LASF4
 376 004c 03       		.uleb128 0x3
 377 004d 40020000 		.4byte	.LASF13
 378 0051 03       		.byte	0x3
 379 0052 50       		.byte	0x50
 380 0053 57000000 		.4byte	0x57
 381 0057 02       		.uleb128 0x2
 382 0058 04       		.byte	0x4
 383 0059 07       		.byte	0x7
 384 005a E1000000 		.4byte	.LASF5
 385 005e 02       		.uleb128 0x2
 386 005f 08       		.byte	0x8
 387 0060 05       		.byte	0x5
 388 0061 D9010000 		.4byte	.LASF6
 389 0065 02       		.uleb128 0x2
 390 0066 08       		.byte	0x8
 391 0067 07       		.byte	0x7
 392 0068 6E010000 		.4byte	.LASF7
 393 006c 04       		.uleb128 0x4
 394 006d 04       		.byte	0x4
 395 006e 05       		.byte	0x5
 396 006f 696E7400 		.ascii	"int\000"
ARM GAS  /tmp/ccd8iXeH.s 			page 8


 397 0073 02       		.uleb128 0x2
 398 0074 04       		.byte	0x4
 399 0075 07       		.byte	0x7
 400 0076 61010000 		.4byte	.LASF8
 401 007a 05       		.uleb128 0x5
 402 007b 57000000 		.4byte	0x57
 403 007f 06       		.uleb128 0x6
 404 0080 7A000000 		.4byte	0x7a
 405 0084 07       		.uleb128 0x7
 406 0085 57000000 		.4byte	0x57
 407 0089 94000000 		.4byte	0x94
 408 008d 08       		.uleb128 0x8
 409 008e 73000000 		.4byte	0x73
 410 0092 00       		.byte	0
 411 0093 00       		.byte	0
 412 0094 07       		.uleb128 0x7
 413 0095 57000000 		.4byte	0x57
 414 0099 A4000000 		.4byte	0xa4
 415 009d 08       		.uleb128 0x8
 416 009e 73000000 		.4byte	0x73
 417 00a2 04       		.byte	0x4
 418 00a3 00       		.byte	0
 419 00a4 09       		.uleb128 0x9
 420 00a5 10       		.byte	0x10
 421 00a6 02       		.byte	0x2
 422 00a7 FA02     		.2byte	0x2fa
 423 00a9 EA000000 		.4byte	0xea
 424 00ad 0A       		.uleb128 0xa
 425 00ae 15020000 		.4byte	.LASF9
 426 00b2 02       		.byte	0x2
 427 00b3 FB02     		.2byte	0x2fb
 428 00b5 7A000000 		.4byte	0x7a
 429 00b9 02       		.byte	0x2
 430 00ba 23       		.byte	0x23
 431 00bb 00       		.uleb128 0
 432 00bc 0A       		.uleb128 0xa
 433 00bd 50010000 		.4byte	.LASF10
 434 00c1 02       		.byte	0x2
 435 00c2 FC02     		.2byte	0x2fc
 436 00c4 7A000000 		.4byte	0x7a
 437 00c8 02       		.byte	0x2
 438 00c9 23       		.byte	0x23
 439 00ca 04       		.uleb128 0x4
 440 00cb 0A       		.uleb128 0xa
 441 00cc 9F020000 		.4byte	.LASF11
 442 00d0 02       		.byte	0x2
 443 00d1 FD02     		.2byte	0x2fd
 444 00d3 7F000000 		.4byte	0x7f
 445 00d7 02       		.byte	0x2
 446 00d8 23       		.byte	0x23
 447 00d9 08       		.uleb128 0x8
 448 00da 0A       		.uleb128 0xa
 449 00db 22010000 		.4byte	.LASF12
 450 00df 02       		.byte	0x2
 451 00e0 FE02     		.2byte	0x2fe
 452 00e2 7F000000 		.4byte	0x7f
 453 00e6 02       		.byte	0x2
ARM GAS  /tmp/ccd8iXeH.s 			page 9


 454 00e7 23       		.byte	0x23
 455 00e8 0C       		.uleb128 0xc
 456 00e9 00       		.byte	0
 457 00ea 0B       		.uleb128 0xb
 458 00eb 45666300 		.ascii	"Efc\000"
 459 00ef 02       		.byte	0x2
 460 00f0 FF02     		.2byte	0x2ff
 461 00f2 A4000000 		.4byte	0xa4
 462 00f6 07       		.uleb128 0x7
 463 00f7 57000000 		.4byte	0x57
 464 00fb 06010000 		.4byte	0x106
 465 00ff 08       		.uleb128 0x8
 466 0100 73000000 		.4byte	0x73
 467 0104 02       		.byte	0x2
 468 0105 00       		.byte	0
 469 0106 0C       		.uleb128 0xc
 470 0107 1401     		.2byte	0x114
 471 0109 02       		.byte	0x2
 472 010a 1A0A     		.2byte	0xa1a
 473 010c B9020000 		.4byte	0x2b9
 474 0110 0A       		.uleb128 0xa
 475 0111 19010000 		.4byte	.LASF14
 476 0115 02       		.byte	0x2
 477 0116 1B0A     		.2byte	0xa1b
 478 0118 7A000000 		.4byte	0x7a
 479 011c 02       		.byte	0x2
 480 011d 23       		.byte	0x23
 481 011e 00       		.uleb128 0
 482 011f 0A       		.uleb128 0xa
 483 0120 25020000 		.4byte	.LASF15
 484 0124 02       		.byte	0x2
 485 0125 1C0A     		.2byte	0xa1c
 486 0127 7A000000 		.4byte	0x7a
 487 012b 02       		.byte	0x2
 488 012c 23       		.byte	0x23
 489 012d 04       		.uleb128 0x4
 490 012e 0A       		.uleb128 0xa
 491 012f 52020000 		.4byte	.LASF16
 492 0133 02       		.byte	0x2
 493 0134 1D0A     		.2byte	0xa1d
 494 0136 7F000000 		.4byte	0x7f
 495 013a 02       		.byte	0x2
 496 013b 23       		.byte	0x23
 497 013c 08       		.uleb128 0x8
 498 013d 0A       		.uleb128 0xa
 499 013e 46000000 		.4byte	.LASF17
 500 0142 02       		.byte	0x2
 501 0143 1E0A     		.2byte	0xa1e
 502 0145 B9020000 		.4byte	0x2b9
 503 0149 02       		.byte	0x2
 504 014a 23       		.byte	0x23
 505 014b 0C       		.uleb128 0xc
 506 014c 0A       		.uleb128 0xa
 507 014d 37020000 		.4byte	.LASF18
 508 0151 02       		.byte	0x2
 509 0152 1F0A     		.2byte	0xa1f
 510 0154 7A000000 		.4byte	0x7a
ARM GAS  /tmp/ccd8iXeH.s 			page 10


 511 0158 02       		.byte	0x2
 512 0159 23       		.byte	0x23
 513 015a 10       		.uleb128 0x10
 514 015b 0A       		.uleb128 0xa
 515 015c D8000000 		.4byte	.LASF19
 516 0160 02       		.byte	0x2
 517 0161 200A     		.2byte	0xa20
 518 0163 7A000000 		.4byte	0x7a
 519 0167 02       		.byte	0x2
 520 0168 23       		.byte	0x23
 521 0169 14       		.uleb128 0x14
 522 016a 0A       		.uleb128 0xa
 523 016b A8000000 		.4byte	.LASF20
 524 016f 02       		.byte	0x2
 525 0170 210A     		.2byte	0xa21
 526 0172 7F000000 		.4byte	0x7f
 527 0176 02       		.byte	0x2
 528 0177 23       		.byte	0x23
 529 0178 18       		.uleb128 0x18
 530 0179 0A       		.uleb128 0xa
 531 017a 85010000 		.4byte	.LASF21
 532 017e 02       		.byte	0x2
 533 017f 220A     		.2byte	0xa22
 534 0181 BE020000 		.4byte	0x2be
 535 0185 02       		.byte	0x2
 536 0186 23       		.byte	0x23
 537 0187 1C       		.uleb128 0x1c
 538 0188 0A       		.uleb128 0xa
 539 0189 00000000 		.4byte	.LASF22
 540 018d 02       		.byte	0x2
 541 018e 230A     		.2byte	0xa23
 542 0190 7A000000 		.4byte	0x7a
 543 0194 02       		.byte	0x2
 544 0195 23       		.byte	0x23
 545 0196 20       		.uleb128 0x20
 546 0197 0A       		.uleb128 0xa
 547 0198 34000000 		.4byte	.LASF23
 548 019c 02       		.byte	0x2
 549 019d 240A     		.2byte	0xa24
 550 019f 7F000000 		.4byte	0x7f
 551 01a3 02       		.byte	0x2
 552 01a4 23       		.byte	0x23
 553 01a5 24       		.uleb128 0x24
 554 01a6 0A       		.uleb128 0xa
 555 01a7 10000000 		.4byte	.LASF24
 556 01ab 02       		.byte	0x2
 557 01ac 250A     		.2byte	0xa25
 558 01ae 7A000000 		.4byte	0x7a
 559 01b2 02       		.byte	0x2
 560 01b3 23       		.byte	0x23
 561 01b4 28       		.uleb128 0x28
 562 01b5 0A       		.uleb128 0xa
 563 01b6 8F010000 		.4byte	.LASF25
 564 01ba 02       		.byte	0x2
 565 01bb 260A     		.2byte	0xa26
 566 01bd C3020000 		.4byte	0x2c3
 567 01c1 02       		.byte	0x2
ARM GAS  /tmp/ccd8iXeH.s 			page 11


 568 01c2 23       		.byte	0x23
 569 01c3 2C       		.uleb128 0x2c
 570 01c4 0A       		.uleb128 0xa
 571 01c5 06010000 		.4byte	.LASF26
 572 01c9 02       		.byte	0x2
 573 01ca 270A     		.2byte	0xa27
 574 01cc 7A000000 		.4byte	0x7a
 575 01d0 02       		.byte	0x2
 576 01d1 23       		.byte	0x23
 577 01d2 30       		.uleb128 0x30
 578 01d3 0A       		.uleb128 0xa
 579 01d4 99010000 		.4byte	.LASF27
 580 01d8 02       		.byte	0x2
 581 01d9 280A     		.2byte	0xa28
 582 01db C8020000 		.4byte	0x2c8
 583 01df 02       		.byte	0x2
 584 01e0 23       		.byte	0x23
 585 01e1 34       		.uleb128 0x34
 586 01e2 0A       		.uleb128 0xa
 587 01e3 3E000000 		.4byte	.LASF28
 588 01e7 02       		.byte	0x2
 589 01e8 290A     		.2byte	0xa29
 590 01ea CD020000 		.4byte	0x2cd
 591 01ee 02       		.byte	0x2
 592 01ef 23       		.byte	0x23
 593 01f0 40       		.uleb128 0x40
 594 01f1 0A       		.uleb128 0xa
 595 01f2 A3010000 		.4byte	.LASF29
 596 01f6 02       		.byte	0x2
 597 01f7 2A0A     		.2byte	0xa2a
 598 01f9 D2020000 		.4byte	0x2d2
 599 01fd 02       		.byte	0x2
 600 01fe 23       		.byte	0x23
 601 01ff 4C       		.uleb128 0x4c
 602 0200 0A       		.uleb128 0xa
 603 0201 48010000 		.4byte	.LASF30
 604 0205 02       		.byte	0x2
 605 0206 2B0A     		.2byte	0xa2b
 606 0208 7A000000 		.4byte	0x7a
 607 020c 02       		.byte	0x2
 608 020d 23       		.byte	0x23
 609 020e 60       		.uleb128 0x60
 610 020f 0A       		.uleb128 0xa
 611 0210 A8020000 		.4byte	.LASF31
 612 0214 02       		.byte	0x2
 613 0215 2C0A     		.2byte	0xa2c
 614 0217 7A000000 		.4byte	0x7a
 615 021b 02       		.byte	0x2
 616 021c 23       		.byte	0x23
 617 021d 64       		.uleb128 0x64
 618 021e 0A       		.uleb128 0xa
 619 021f 1E020000 		.4byte	.LASF32
 620 0223 02       		.byte	0x2
 621 0224 2D0A     		.2byte	0xa2d
 622 0226 7F000000 		.4byte	0x7f
 623 022a 02       		.byte	0x2
 624 022b 23       		.byte	0x23
ARM GAS  /tmp/ccd8iXeH.s 			page 12


 625 022c 68       		.uleb128 0x68
 626 022d 0A       		.uleb128 0xa
 627 022e E7010000 		.4byte	.LASF33
 628 0232 02       		.byte	0x2
 629 0233 2E0A     		.2byte	0xa2e
 630 0235 7F000000 		.4byte	0x7f
 631 0239 02       		.byte	0x2
 632 023a 23       		.byte	0x23
 633 023b 6C       		.uleb128 0x6c
 634 023c 0A       		.uleb128 0xa
 635 023d 3F010000 		.4byte	.LASF34
 636 0241 02       		.byte	0x2
 637 0242 2F0A     		.2byte	0xa2f
 638 0244 7A000000 		.4byte	0x7a
 639 0248 02       		.byte	0x2
 640 0249 23       		.byte	0x23
 641 024a 70       		.uleb128 0x70
 642 024b 0A       		.uleb128 0xa
 643 024c 2B000000 		.4byte	.LASF35
 644 0250 02       		.byte	0x2
 645 0251 300A     		.2byte	0xa30
 646 0253 7A000000 		.4byte	0x7a
 647 0257 02       		.byte	0x2
 648 0258 23       		.byte	0x23
 649 0259 74       		.uleb128 0x74
 650 025a 0A       		.uleb128 0xa
 651 025b 2E020000 		.4byte	.LASF36
 652 025f 02       		.byte	0x2
 653 0260 310A     		.2byte	0xa31
 654 0262 7A000000 		.4byte	0x7a
 655 0266 02       		.byte	0x2
 656 0267 23       		.byte	0x23
 657 0268 78       		.uleb128 0x78
 658 0269 0A       		.uleb128 0xa
 659 026a AD010000 		.4byte	.LASF37
 660 026e 02       		.byte	0x2
 661 026f 320A     		.2byte	0xa32
 662 0271 E7020000 		.4byte	0x2e7
 663 0275 02       		.byte	0x2
 664 0276 23       		.byte	0x23
 665 0277 7C       		.uleb128 0x7c
 666 0278 0A       		.uleb128 0xa
 667 0279 22000000 		.4byte	.LASF38
 668 027d 02       		.byte	0x2
 669 027e 330A     		.2byte	0xa33
 670 0280 7A000000 		.4byte	0x7a
 671 0284 03       		.byte	0x3
 672 0285 23       		.byte	0x23
 673 0286 E401     		.uleb128 0xe4
 674 0288 0A       		.uleb128 0xa
 675 0289 9F000000 		.4byte	.LASF39
 676 028d 02       		.byte	0x2
 677 028e 340A     		.2byte	0xa34
 678 0290 7F000000 		.4byte	0x7f
 679 0294 03       		.byte	0x3
 680 0295 23       		.byte	0x23
 681 0296 E801     		.uleb128 0xe8
ARM GAS  /tmp/ccd8iXeH.s 			page 13


 682 0298 0A       		.uleb128 0xa
 683 0299 B7010000 		.4byte	.LASF40
 684 029d 02       		.byte	0x2
 685 029e 350A     		.2byte	0xa35
 686 02a0 FC020000 		.4byte	0x2fc
 687 02a4 03       		.byte	0x3
 688 02a5 23       		.byte	0x23
 689 02a6 EC01     		.uleb128 0xec
 690 02a8 0A       		.uleb128 0xa
 691 02a9 59010000 		.4byte	.LASF41
 692 02ad 02       		.byte	0x2
 693 02ae 360A     		.2byte	0xa36
 694 02b0 7A000000 		.4byte	0x7a
 695 02b4 03       		.byte	0x3
 696 02b5 23       		.byte	0x23
 697 02b6 9002     		.uleb128 0x110
 698 02b8 00       		.byte	0
 699 02b9 05       		.uleb128 0x5
 700 02ba 84000000 		.4byte	0x84
 701 02be 05       		.uleb128 0x5
 702 02bf 84000000 		.4byte	0x84
 703 02c3 05       		.uleb128 0x5
 704 02c4 84000000 		.4byte	0x84
 705 02c8 05       		.uleb128 0x5
 706 02c9 F6000000 		.4byte	0xf6
 707 02cd 05       		.uleb128 0x5
 708 02ce F6000000 		.4byte	0xf6
 709 02d2 05       		.uleb128 0x5
 710 02d3 94000000 		.4byte	0x94
 711 02d7 07       		.uleb128 0x7
 712 02d8 57000000 		.4byte	0x57
 713 02dc E7020000 		.4byte	0x2e7
 714 02e0 08       		.uleb128 0x8
 715 02e1 73000000 		.4byte	0x73
 716 02e5 19       		.byte	0x19
 717 02e6 00       		.byte	0
 718 02e7 05       		.uleb128 0x5
 719 02e8 D7020000 		.4byte	0x2d7
 720 02ec 07       		.uleb128 0x7
 721 02ed 57000000 		.4byte	0x57
 722 02f1 FC020000 		.4byte	0x2fc
 723 02f5 08       		.uleb128 0x8
 724 02f6 73000000 		.4byte	0x73
 725 02fa 08       		.byte	0x8
 726 02fb 00       		.byte	0
 727 02fc 05       		.uleb128 0x5
 728 02fd EC020000 		.4byte	0x2ec
 729 0301 0B       		.uleb128 0xb
 730 0302 506D6300 		.ascii	"Pmc\000"
 731 0306 02       		.byte	0x2
 732 0307 370A     		.2byte	0xa37
 733 0309 06010000 		.4byte	0x106
 734 030d 09       		.uleb128 0x9
 735 030e 18       		.byte	0x18
 736 030f 02       		.byte	0x2
 737 0310 720D     		.2byte	0xd72
 738 0312 71030000 		.4byte	0x371
ARM GAS  /tmp/ccd8iXeH.s 			page 14


 739 0316 0A       		.uleb128 0xa
 740 0317 1A000000 		.4byte	.LASF42
 741 031b 02       		.byte	0x2
 742 031c 730D     		.2byte	0xd73
 743 031e 7A000000 		.4byte	0x7a
 744 0322 02       		.byte	0x2
 745 0323 23       		.byte	0x23
 746 0324 00       		.uleb128 0
 747 0325 0A       		.uleb128 0xa
 748 0326 5B020000 		.4byte	.LASF43
 749 032a 02       		.byte	0x2
 750 032b 740D     		.2byte	0xd74
 751 032d 7A000000 		.4byte	0x7a
 752 0331 02       		.byte	0x2
 753 0332 23       		.byte	0x23
 754 0333 04       		.uleb128 0x4
 755 0334 0A       		.uleb128 0xa
 756 0335 D0000000 		.4byte	.LASF44
 757 0339 02       		.byte	0x2
 758 033a 750D     		.2byte	0xd75
 759 033c 7A000000 		.4byte	0x7a
 760 0340 02       		.byte	0x2
 761 0341 23       		.byte	0x23
 762 0342 08       		.uleb128 0x8
 763 0343 0A       		.uleb128 0xa
 764 0344 B1000000 		.4byte	.LASF45
 765 0348 02       		.byte	0x2
 766 0349 760D     		.2byte	0xd76
 767 034b 7A000000 		.4byte	0x7a
 768 034f 02       		.byte	0x2
 769 0350 23       		.byte	0x23
 770 0351 0C       		.uleb128 0xc
 771 0352 0A       		.uleb128 0xa
 772 0353 0F010000 		.4byte	.LASF46
 773 0357 02       		.byte	0x2
 774 0358 770D     		.2byte	0xd77
 775 035a 7A000000 		.4byte	0x7a
 776 035e 02       		.byte	0x2
 777 035f 23       		.byte	0x23
 778 0360 10       		.uleb128 0x10
 779 0361 0A       		.uleb128 0xa
 780 0362 32010000 		.4byte	.LASF47
 781 0366 02       		.byte	0x2
 782 0367 780D     		.2byte	0xd78
 783 0369 7F000000 		.4byte	0x7f
 784 036d 02       		.byte	0x2
 785 036e 23       		.byte	0x23
 786 036f 14       		.uleb128 0x14
 787 0370 00       		.byte	0
 788 0371 0D       		.uleb128 0xd
 789 0372 3A010000 		.4byte	.LASF48
 790 0376 02       		.byte	0x2
 791 0377 790D     		.2byte	0xd79
 792 0379 0D030000 		.4byte	0x30d
 793 037d 09       		.uleb128 0x9
 794 037e 0C       		.byte	0xc
 795 037f 02       		.byte	0x2
ARM GAS  /tmp/ccd8iXeH.s 			page 15


 796 0380 DE11     		.2byte	0x11de
 797 0382 B4030000 		.4byte	0x3b4
 798 0386 0A       		.uleb128 0xa
 799 0387 09000000 		.4byte	.LASF49
 800 038b 02       		.byte	0x2
 801 038c DF11     		.2byte	0x11df
 802 038e 7A000000 		.4byte	0x7a
 803 0392 02       		.byte	0x2
 804 0393 23       		.byte	0x23
 805 0394 00       		.uleb128 0
 806 0395 0A       		.uleb128 0xa
 807 0396 BB000000 		.4byte	.LASF50
 808 039a 02       		.byte	0x2
 809 039b E011     		.2byte	0x11e0
 810 039d 7A000000 		.4byte	0x7a
 811 03a1 02       		.byte	0x2
 812 03a2 23       		.byte	0x23
 813 03a3 04       		.uleb128 0x4
 814 03a4 0A       		.uleb128 0xa
 815 03a5 2B010000 		.4byte	.LASF51
 816 03a9 02       		.byte	0x2
 817 03aa E111     		.2byte	0x11e1
 818 03ac 7F000000 		.4byte	0x7f
 819 03b0 02       		.byte	0x2
 820 03b1 23       		.byte	0x23
 821 03b2 08       		.uleb128 0x8
 822 03b3 00       		.byte	0
 823 03b4 0B       		.uleb128 0xb
 824 03b5 57647400 		.ascii	"Wdt\000"
 825 03b9 02       		.byte	0x2
 826 03ba E211     		.2byte	0x11e2
 827 03bc 7D030000 		.4byte	0x37d
 828 03c0 0E       		.uleb128 0xe
 829 03c1 01       		.byte	0x1
 830 03c2 89000000 		.4byte	.LASF52
 831 03c6 01       		.byte	0x1
 832 03c7 6701     		.2byte	0x167
 833 03c9 01       		.byte	0x1
 834 03ca 00000000 		.4byte	.LFB29
 835 03ce 52010000 		.4byte	.LFE29
 836 03d2 00000000 		.4byte	.LLST0
 837 03d6 0E       		.uleb128 0xe
 838 03d7 01       		.byte	0x1
 839 03d8 CE010000 		.4byte	.LASF53
 840 03dc 01       		.byte	0x1
 841 03dd AF01     		.2byte	0x1af
 842 03df 01       		.byte	0x1
 843 03e0 00000000 		.4byte	.LFB30
 844 03e4 C0000000 		.4byte	.LFE30
 845 03e8 20000000 		.4byte	.LLST1
 846 03ec 0F       		.uleb128 0xf
 847 03ed C1010000 		.4byte	.LASF54
 848 03f1 04       		.byte	0x4
 849 03f2 CE06     		.2byte	0x6ce
 850 03f4 FA030000 		.4byte	0x3fa
 851 03f8 01       		.byte	0x1
 852 03f9 01       		.byte	0x1
ARM GAS  /tmp/ccd8iXeH.s 			page 16


 853 03fa 05       		.uleb128 0x5
 854 03fb 6C000000 		.4byte	0x6c
 855 03ff 10       		.uleb128 0x10
 856 0400 EF010000 		.4byte	.LASF55
 857 0404 05       		.byte	0x5
 858 0405 21       		.byte	0x21
 859 0406 4C000000 		.4byte	0x4c
 860 040a 01       		.byte	0x1
 861 040b 01       		.byte	0x1
 862 040c 0F       		.uleb128 0xf
 863 040d C1010000 		.4byte	.LASF54
 864 0411 04       		.byte	0x4
 865 0412 CE06     		.2byte	0x6ce
 866 0414 FA030000 		.4byte	0x3fa
 867 0418 01       		.byte	0x1
 868 0419 01       		.byte	0x1
 869 041a 11       		.uleb128 0x11
 870 041b EF010000 		.4byte	.LASF55
 871 041f 01       		.byte	0x1
 872 0420 6101     		.2byte	0x161
 873 0422 4C000000 		.4byte	0x4c
 874 0426 01       		.byte	0x1
 875 0427 05       		.byte	0x5
 876 0428 03       		.byte	0x3
 877 0429 00000000 		.4byte	SystemCoreClock
 878 042d 00       		.byte	0
 879              		.section	.debug_abbrev,"",%progbits
 880              	.Ldebug_abbrev0:
 881 0000 01       		.uleb128 0x1
 882 0001 11       		.uleb128 0x11
 883 0002 01       		.byte	0x1
 884 0003 25       		.uleb128 0x25
 885 0004 0E       		.uleb128 0xe
 886 0005 13       		.uleb128 0x13
 887 0006 0B       		.uleb128 0xb
 888 0007 03       		.uleb128 0x3
 889 0008 0E       		.uleb128 0xe
 890 0009 1B       		.uleb128 0x1b
 891 000a 0E       		.uleb128 0xe
 892 000b 11       		.uleb128 0x11
 893 000c 01       		.uleb128 0x1
 894 000d 52       		.uleb128 0x52
 895 000e 01       		.uleb128 0x1
 896 000f 55       		.uleb128 0x55
 897 0010 06       		.uleb128 0x6
 898 0011 10       		.uleb128 0x10
 899 0012 06       		.uleb128 0x6
 900 0013 00       		.byte	0
 901 0014 00       		.byte	0
 902 0015 02       		.uleb128 0x2
 903 0016 24       		.uleb128 0x24
 904 0017 00       		.byte	0
 905 0018 0B       		.uleb128 0xb
 906 0019 0B       		.uleb128 0xb
 907 001a 3E       		.uleb128 0x3e
 908 001b 0B       		.uleb128 0xb
 909 001c 03       		.uleb128 0x3
ARM GAS  /tmp/ccd8iXeH.s 			page 17


 910 001d 0E       		.uleb128 0xe
 911 001e 00       		.byte	0
 912 001f 00       		.byte	0
 913 0020 03       		.uleb128 0x3
 914 0021 16       		.uleb128 0x16
 915 0022 00       		.byte	0
 916 0023 03       		.uleb128 0x3
 917 0024 0E       		.uleb128 0xe
 918 0025 3A       		.uleb128 0x3a
 919 0026 0B       		.uleb128 0xb
 920 0027 3B       		.uleb128 0x3b
 921 0028 0B       		.uleb128 0xb
 922 0029 49       		.uleb128 0x49
 923 002a 13       		.uleb128 0x13
 924 002b 00       		.byte	0
 925 002c 00       		.byte	0
 926 002d 04       		.uleb128 0x4
 927 002e 24       		.uleb128 0x24
 928 002f 00       		.byte	0
 929 0030 0B       		.uleb128 0xb
 930 0031 0B       		.uleb128 0xb
 931 0032 3E       		.uleb128 0x3e
 932 0033 0B       		.uleb128 0xb
 933 0034 03       		.uleb128 0x3
 934 0035 08       		.uleb128 0x8
 935 0036 00       		.byte	0
 936 0037 00       		.byte	0
 937 0038 05       		.uleb128 0x5
 938 0039 35       		.uleb128 0x35
 939 003a 00       		.byte	0
 940 003b 49       		.uleb128 0x49
 941 003c 13       		.uleb128 0x13
 942 003d 00       		.byte	0
 943 003e 00       		.byte	0
 944 003f 06       		.uleb128 0x6
 945 0040 26       		.uleb128 0x26
 946 0041 00       		.byte	0
 947 0042 49       		.uleb128 0x49
 948 0043 13       		.uleb128 0x13
 949 0044 00       		.byte	0
 950 0045 00       		.byte	0
 951 0046 07       		.uleb128 0x7
 952 0047 01       		.uleb128 0x1
 953 0048 01       		.byte	0x1
 954 0049 49       		.uleb128 0x49
 955 004a 13       		.uleb128 0x13
 956 004b 01       		.uleb128 0x1
 957 004c 13       		.uleb128 0x13
 958 004d 00       		.byte	0
 959 004e 00       		.byte	0
 960 004f 08       		.uleb128 0x8
 961 0050 21       		.uleb128 0x21
 962 0051 00       		.byte	0
 963 0052 49       		.uleb128 0x49
 964 0053 13       		.uleb128 0x13
 965 0054 2F       		.uleb128 0x2f
 966 0055 0B       		.uleb128 0xb
ARM GAS  /tmp/ccd8iXeH.s 			page 18


 967 0056 00       		.byte	0
 968 0057 00       		.byte	0
 969 0058 09       		.uleb128 0x9
 970 0059 13       		.uleb128 0x13
 971 005a 01       		.byte	0x1
 972 005b 0B       		.uleb128 0xb
 973 005c 0B       		.uleb128 0xb
 974 005d 3A       		.uleb128 0x3a
 975 005e 0B       		.uleb128 0xb
 976 005f 3B       		.uleb128 0x3b
 977 0060 05       		.uleb128 0x5
 978 0061 01       		.uleb128 0x1
 979 0062 13       		.uleb128 0x13
 980 0063 00       		.byte	0
 981 0064 00       		.byte	0
 982 0065 0A       		.uleb128 0xa
 983 0066 0D       		.uleb128 0xd
 984 0067 00       		.byte	0
 985 0068 03       		.uleb128 0x3
 986 0069 0E       		.uleb128 0xe
 987 006a 3A       		.uleb128 0x3a
 988 006b 0B       		.uleb128 0xb
 989 006c 3B       		.uleb128 0x3b
 990 006d 05       		.uleb128 0x5
 991 006e 49       		.uleb128 0x49
 992 006f 13       		.uleb128 0x13
 993 0070 38       		.uleb128 0x38
 994 0071 0A       		.uleb128 0xa
 995 0072 00       		.byte	0
 996 0073 00       		.byte	0
 997 0074 0B       		.uleb128 0xb
 998 0075 16       		.uleb128 0x16
 999 0076 00       		.byte	0
 1000 0077 03       		.uleb128 0x3
 1001 0078 08       		.uleb128 0x8
 1002 0079 3A       		.uleb128 0x3a
 1003 007a 0B       		.uleb128 0xb
 1004 007b 3B       		.uleb128 0x3b
 1005 007c 05       		.uleb128 0x5
 1006 007d 49       		.uleb128 0x49
 1007 007e 13       		.uleb128 0x13
 1008 007f 00       		.byte	0
 1009 0080 00       		.byte	0
 1010 0081 0C       		.uleb128 0xc
 1011 0082 13       		.uleb128 0x13
 1012 0083 01       		.byte	0x1
 1013 0084 0B       		.uleb128 0xb
 1014 0085 05       		.uleb128 0x5
 1015 0086 3A       		.uleb128 0x3a
 1016 0087 0B       		.uleb128 0xb
 1017 0088 3B       		.uleb128 0x3b
 1018 0089 05       		.uleb128 0x5
 1019 008a 01       		.uleb128 0x1
 1020 008b 13       		.uleb128 0x13
 1021 008c 00       		.byte	0
 1022 008d 00       		.byte	0
 1023 008e 0D       		.uleb128 0xd
ARM GAS  /tmp/ccd8iXeH.s 			page 19


 1024 008f 16       		.uleb128 0x16
 1025 0090 00       		.byte	0
 1026 0091 03       		.uleb128 0x3
 1027 0092 0E       		.uleb128 0xe
 1028 0093 3A       		.uleb128 0x3a
 1029 0094 0B       		.uleb128 0xb
 1030 0095 3B       		.uleb128 0x3b
 1031 0096 05       		.uleb128 0x5
 1032 0097 49       		.uleb128 0x49
 1033 0098 13       		.uleb128 0x13
 1034 0099 00       		.byte	0
 1035 009a 00       		.byte	0
 1036 009b 0E       		.uleb128 0xe
 1037 009c 2E       		.uleb128 0x2e
 1038 009d 00       		.byte	0
 1039 009e 3F       		.uleb128 0x3f
 1040 009f 0C       		.uleb128 0xc
 1041 00a0 03       		.uleb128 0x3
 1042 00a1 0E       		.uleb128 0xe
 1043 00a2 3A       		.uleb128 0x3a
 1044 00a3 0B       		.uleb128 0xb
 1045 00a4 3B       		.uleb128 0x3b
 1046 00a5 05       		.uleb128 0x5
 1047 00a6 27       		.uleb128 0x27
 1048 00a7 0C       		.uleb128 0xc
 1049 00a8 11       		.uleb128 0x11
 1050 00a9 01       		.uleb128 0x1
 1051 00aa 12       		.uleb128 0x12
 1052 00ab 01       		.uleb128 0x1
 1053 00ac 40       		.uleb128 0x40
 1054 00ad 06       		.uleb128 0x6
 1055 00ae 00       		.byte	0
 1056 00af 00       		.byte	0
 1057 00b0 0F       		.uleb128 0xf
 1058 00b1 34       		.uleb128 0x34
 1059 00b2 00       		.byte	0
 1060 00b3 03       		.uleb128 0x3
 1061 00b4 0E       		.uleb128 0xe
 1062 00b5 3A       		.uleb128 0x3a
 1063 00b6 0B       		.uleb128 0xb
 1064 00b7 3B       		.uleb128 0x3b
 1065 00b8 05       		.uleb128 0x5
 1066 00b9 49       		.uleb128 0x49
 1067 00ba 13       		.uleb128 0x13
 1068 00bb 3F       		.uleb128 0x3f
 1069 00bc 0C       		.uleb128 0xc
 1070 00bd 3C       		.uleb128 0x3c
 1071 00be 0C       		.uleb128 0xc
 1072 00bf 00       		.byte	0
 1073 00c0 00       		.byte	0
 1074 00c1 10       		.uleb128 0x10
 1075 00c2 34       		.uleb128 0x34
 1076 00c3 00       		.byte	0
 1077 00c4 03       		.uleb128 0x3
 1078 00c5 0E       		.uleb128 0xe
 1079 00c6 3A       		.uleb128 0x3a
 1080 00c7 0B       		.uleb128 0xb
ARM GAS  /tmp/ccd8iXeH.s 			page 20


 1081 00c8 3B       		.uleb128 0x3b
 1082 00c9 0B       		.uleb128 0xb
 1083 00ca 49       		.uleb128 0x49
 1084 00cb 13       		.uleb128 0x13
 1085 00cc 3F       		.uleb128 0x3f
 1086 00cd 0C       		.uleb128 0xc
 1087 00ce 3C       		.uleb128 0x3c
 1088 00cf 0C       		.uleb128 0xc
 1089 00d0 00       		.byte	0
 1090 00d1 00       		.byte	0
 1091 00d2 11       		.uleb128 0x11
 1092 00d3 34       		.uleb128 0x34
 1093 00d4 00       		.byte	0
 1094 00d5 03       		.uleb128 0x3
 1095 00d6 0E       		.uleb128 0xe
 1096 00d7 3A       		.uleb128 0x3a
 1097 00d8 0B       		.uleb128 0xb
 1098 00d9 3B       		.uleb128 0x3b
 1099 00da 05       		.uleb128 0x5
 1100 00db 49       		.uleb128 0x49
 1101 00dc 13       		.uleb128 0x13
 1102 00dd 3F       		.uleb128 0x3f
 1103 00de 0C       		.uleb128 0xc
 1104 00df 02       		.uleb128 0x2
 1105 00e0 0A       		.uleb128 0xa
 1106 00e1 00       		.byte	0
 1107 00e2 00       		.byte	0
 1108 00e3 00       		.byte	0
 1109              		.section	.debug_loc,"",%progbits
 1110              	.Ldebug_loc0:
 1111              	.LLST0:
 1112 0000 00000000 		.4byte	.LFB29
 1113 0004 0C000000 		.4byte	.LCFI0
 1114 0008 0200     		.2byte	0x2
 1115 000a 7D       		.byte	0x7d
 1116 000b 00       		.sleb128 0
 1117 000c 0C000000 		.4byte	.LCFI0
 1118 0010 52010000 		.4byte	.LFE29
 1119 0014 0200     		.2byte	0x2
 1120 0016 7D       		.byte	0x7d
 1121 0017 04       		.sleb128 4
 1122 0018 00000000 		.4byte	0
 1123 001c 00000000 		.4byte	0
 1124              	.LLST1:
 1125 0020 00000000 		.4byte	.LFB30
 1126 0024 12000000 		.4byte	.LCFI1
 1127 0028 0200     		.2byte	0x2
 1128 002a 7D       		.byte	0x7d
 1129 002b 00       		.sleb128 0
 1130 002c 12000000 		.4byte	.LCFI1
 1131 0030 C0000000 		.4byte	.LFE30
 1132 0034 0200     		.2byte	0x2
 1133 0036 7D       		.byte	0x7d
 1134 0037 04       		.sleb128 4
 1135 0038 00000000 		.4byte	0
 1136 003c 00000000 		.4byte	0
 1137              		.section	.debug_aranges,"",%progbits
ARM GAS  /tmp/ccd8iXeH.s 			page 21


 1138 0000 24000000 		.4byte	0x24
 1139 0004 0200     		.2byte	0x2
 1140 0006 00000000 		.4byte	.Ldebug_info0
 1141 000a 04       		.byte	0x4
 1142 000b 00       		.byte	0
 1143 000c 0000     		.2byte	0
 1144 000e 0000     		.2byte	0
 1145 0010 00000000 		.4byte	.LFB29
 1146 0014 52010000 		.4byte	.LFE29-.LFB29
 1147 0018 00000000 		.4byte	.LFB30
 1148 001c C0000000 		.4byte	.LFE30-.LFB30
 1149 0020 00000000 		.4byte	0
 1150 0024 00000000 		.4byte	0
 1151              		.section	.debug_ranges,"",%progbits
 1152              	.Ldebug_ranges0:
 1153 0000 00000000 		.4byte	.LFB29
 1154 0004 52010000 		.4byte	.LFE29
 1155 0008 00000000 		.4byte	.LFB30
 1156 000c C0000000 		.4byte	.LFE30
 1157 0010 00000000 		.4byte	0
 1158 0014 00000000 		.4byte	0
 1159              		.section	.debug_line,"",%progbits
 1160              	.Ldebug_line0:
 1161 0000 97010000 		.section	.debug_str,"MS",%progbits,1
 1161      0200F700 
 1161      00000201 
 1161      FB0E0D00 
 1161      01010101 
 1162              	.LASF22:
 1163 0000 434B4752 		.ascii	"CKGR_MOR\000"
 1163      5F4D4F52 
 1163      00
 1164              	.LASF49:
 1165 0009 5744545F 		.ascii	"WDT_CR\000"
 1165      435200
 1166              	.LASF24:
 1167 0010 434B4752 		.ascii	"CKGR_PLLR\000"
 1167      5F504C4C 
 1167      5200
 1168              	.LASF42:
 1169 001a 53555043 		.ascii	"SUPC_CR\000"
 1169      5F435200 
 1170              	.LASF38:
 1171 0022 504D435F 		.ascii	"PMC_WPMR\000"
 1171      57504D52 
 1171      00
 1172              	.LASF35:
 1173 002b 504D435F 		.ascii	"PMC_FSPR\000"
 1173      46535052 
 1173      00
 1174              	.LASF23:
 1175 0034 434B4752 		.ascii	"CKGR_MCFR\000"
 1175      5F4D4346 
 1175      5200
 1176              	.LASF28:
 1177 003e 504D435F 		.ascii	"PMC_PCK\000"
 1177      50434B00 
ARM GAS  /tmp/ccd8iXeH.s 			page 22


 1178              	.LASF17:
 1179 0046 52657365 		.ascii	"Reserved1\000"
 1179      72766564 
 1179      3100
 1180              	.LASF58:
 1181 0050 2F686F6D 		.ascii	"/home/johnny/Proyectos/movilbot/ChibiOS/iflab_code/"
 1181      652F6A6F 
 1181      686E6E79 
 1181      2F50726F 
 1181      79656374 
 1182 0083 626C696E 		.ascii	"blink\000"
 1182      6B00
 1183              	.LASF52:
 1184 0089 53797374 		.ascii	"SystemCoreClockUpdate\000"
 1184      656D436F 
 1184      7265436C 
 1184      6F636B55 
 1184      70646174 
 1185              	.LASF39:
 1186 009f 504D435F 		.ascii	"PMC_WPSR\000"
 1186      57505352 
 1186      00
 1187              	.LASF20:
 1188 00a8 504D435F 		.ascii	"PMC_PCSR\000"
 1188      50435352 
 1188      00
 1189              	.LASF45:
 1190 00b1 53555043 		.ascii	"SUPC_WUMR\000"
 1190      5F57554D 
 1190      5200
 1191              	.LASF50:
 1192 00bb 5744545F 		.ascii	"WDT_MR\000"
 1192      4D5200
 1193              	.LASF1:
 1194 00c2 756E7369 		.ascii	"unsigned char\000"
 1194      676E6564 
 1194      20636861 
 1194      7200
 1195              	.LASF44:
 1196 00d0 53555043 		.ascii	"SUPC_MR\000"
 1196      5F4D5200 
 1197              	.LASF19:
 1198 00d8 504D435F 		.ascii	"PMC_PCDR\000"
 1198      50434452 
 1198      00
 1199              	.LASF5:
 1200 00e1 6C6F6E67 		.ascii	"long unsigned int\000"
 1200      20756E73 
 1200      69676E65 
 1200      6420696E 
 1200      7400
 1201              	.LASF3:
 1202 00f3 73686F72 		.ascii	"short unsigned int\000"
 1202      7420756E 
 1202      7369676E 
 1202      65642069 
 1202      6E7400
ARM GAS  /tmp/ccd8iXeH.s 			page 23


 1203              	.LASF26:
 1204 0106 504D435F 		.ascii	"PMC_MCKR\000"
 1204      4D434B52 
 1204      00
 1205              	.LASF46:
 1206 010f 53555043 		.ascii	"SUPC_WUIR\000"
 1206      5F575549 
 1206      5200
 1207              	.LASF14:
 1208 0119 504D435F 		.ascii	"PMC_SCER\000"
 1208      53434552 
 1208      00
 1209              	.LASF12:
 1210 0122 45454643 		.ascii	"EEFC_FRR\000"
 1210      5F465252 
 1210      00
 1211              	.LASF51:
 1212 012b 5744545F 		.ascii	"WDT_SR\000"
 1212      535200
 1213              	.LASF47:
 1214 0132 53555043 		.ascii	"SUPC_SR\000"
 1214      5F535200 
 1215              	.LASF48:
 1216 013a 53757063 		.ascii	"Supc\000"
 1216      00
 1217              	.LASF34:
 1218 013f 504D435F 		.ascii	"PMC_FSMR\000"
 1218      46534D52 
 1218      00
 1219              	.LASF30:
 1220 0148 504D435F 		.ascii	"PMC_IER\000"
 1220      49455200 
 1221              	.LASF10:
 1222 0150 45454643 		.ascii	"EEFC_FCR\000"
 1222      5F464352 
 1222      00
 1223              	.LASF41:
 1224 0159 504D435F 		.ascii	"PMC_OCR\000"
 1224      4F435200 
 1225              	.LASF8:
 1226 0161 756E7369 		.ascii	"unsigned int\000"
 1226      676E6564 
 1226      20696E74 
 1226      00
 1227              	.LASF7:
 1228 016e 6C6F6E67 		.ascii	"long long unsigned int\000"
 1228      206C6F6E 
 1228      6720756E 
 1228      7369676E 
 1228      65642069 
 1229              	.LASF21:
 1230 0185 52657365 		.ascii	"Reserved2\000"
 1230      72766564 
 1230      3200
 1231              	.LASF25:
 1232 018f 52657365 		.ascii	"Reserved3\000"
 1232      72766564 
ARM GAS  /tmp/ccd8iXeH.s 			page 24


 1232      3300
 1233              	.LASF27:
 1234 0199 52657365 		.ascii	"Reserved4\000"
 1234      72766564 
 1234      3400
 1235              	.LASF29:
 1236 01a3 52657365 		.ascii	"Reserved5\000"
 1236      72766564 
 1236      3500
 1237              	.LASF37:
 1238 01ad 52657365 		.ascii	"Reserved6\000"
 1238      72766564 
 1238      3600
 1239              	.LASF40:
 1240 01b7 52657365 		.ascii	"Reserved7\000"
 1240      72766564 
 1240      3700
 1241              	.LASF54:
 1242 01c1 49544D5F 		.ascii	"ITM_RxBuffer\000"
 1242      52784275 
 1242      66666572 
 1242      00
 1243              	.LASF53:
 1244 01ce 53797374 		.ascii	"SystemInit\000"
 1244      656D496E 
 1244      697400
 1245              	.LASF6:
 1246 01d9 6C6F6E67 		.ascii	"long long int\000"
 1246      206C6F6E 
 1246      6720696E 
 1246      7400
 1247              	.LASF33:
 1248 01e7 504D435F 		.ascii	"PMC_IMR\000"
 1248      494D5200 
 1249              	.LASF55:
 1250 01ef 53797374 		.ascii	"SystemCoreClock\000"
 1250      656D436F 
 1250      7265436C 
 1250      6F636B00 
 1251              	.LASF56:
 1252 01ff 474E5520 		.ascii	"GNU C 4.6.1\000"
 1252      4320342E 
 1252      362E3100 
 1253              	.LASF2:
 1254 020b 73686F72 		.ascii	"short int\000"
 1254      7420696E 
 1254      7400
 1255              	.LASF9:
 1256 0215 45454643 		.ascii	"EEFC_FMR\000"
 1256      5F464D52 
 1256      00
 1257              	.LASF32:
 1258 021e 504D435F 		.ascii	"PMC_SR\000"
 1258      535200
 1259              	.LASF15:
 1260 0225 504D435F 		.ascii	"PMC_SCDR\000"
 1260      53434452 
ARM GAS  /tmp/ccd8iXeH.s 			page 25


 1260      00
 1261              	.LASF36:
 1262 022e 504D435F 		.ascii	"PMC_FOCR\000"
 1262      464F4352 
 1262      00
 1263              	.LASF18:
 1264 0237 504D435F 		.ascii	"PMC_PCER\000"
 1264      50434552 
 1264      00
 1265              	.LASF13:
 1266 0240 75696E74 		.ascii	"uint32_t\000"
 1266      33325F74 
 1266      00
 1267              	.LASF4:
 1268 0249 6C6F6E67 		.ascii	"long int\000"
 1268      20696E74 
 1268      00
 1269              	.LASF16:
 1270 0252 504D435F 		.ascii	"PMC_SCSR\000"
 1270      53435352 
 1270      00
 1271              	.LASF43:
 1272 025b 53555043 		.ascii	"SUPC_SMMR\000"
 1272      5F534D4D 
 1272      5200
 1273              	.LASF0:
 1274 0265 7369676E 		.ascii	"signed char\000"
 1274      65642063 
 1274      68617200 
 1275              	.LASF57:
 1276 0271 2E2E2F2E 		.ascii	"../../os/hal/platforms/AT91SAM3/system_SAM3.c\000"
 1276      2E2F6F73 
 1276      2F68616C 
 1276      2F706C61 
 1276      74666F72 
 1277              	.LASF11:
 1278 029f 45454643 		.ascii	"EEFC_FSR\000"
 1278      5F465352 
 1278      00
 1279              	.LASF31:
 1280 02a8 504D435F 		.ascii	"PMC_IDR\000"
 1280      49445200 
 1281              		.ident	"GCC: (Sourcery CodeBench Lite 2011.09-69) 4.6.1"
ARM GAS  /tmp/ccd8iXeH.s 			page 26


DEFINED SYMBOLS
                            *ABS*:00000000 system_SAM3.c
     /tmp/ccd8iXeH.s:19     .text.SystemCoreClockUpdate:00000000 $t
     /tmp/ccd8iXeH.s:25     .text.SystemCoreClockUpdate:00000000 SystemCoreClockUpdate
     /tmp/ccd8iXeH.s:330    .data.SystemCoreClock:00000000 .LANCHOR0
     /tmp/ccd8iXeH.s:204    .text.SystemInit:00000000 $t
     /tmp/ccd8iXeH.s:210    .text.SystemInit:00000000 SystemInit
     /tmp/ccd8iXeH.s:333    .data.SystemCoreClock:00000000 SystemCoreClock
     /tmp/ccd8iXeH.s:329    .data.SystemCoreClock:00000000 $d
                     .debug_frame:00000010 $d

NO UNDEFINED SYMBOLS
